028 ,Elgeyo Marakwet ,Yego ,Peter Kaino ,Ind ,Independent ,IND 
029 ,Nandi ,Kirwa ,Mark ,027 ,Jubilee Party ,JP 
029 ,Nandi ,Samson ,Cherarkey K ,015 ,United Democratic Alliance ,UDA 
030 ,Baringo ,Chelaite ,Felix Kiprono ,082 ,The Service Party ,TSP 
030 ,Baringo ,Kipkiror ,William Cheptumo ,015 ,United Democratic Alliance ,UDA 
030 ,Baringo ,Moi ,Gideon Kipsielei T ,033 ,Kenya African National Union ,KANU 
031 ,Laikipia ,Githinji ,John Kiama ,082 ,The Service Party ,TSP 
031 ,Laikipia ,Kamunya ,John Maina Njenga ,033 ,Kenya African National Union ,KANU 
031 ,Laikipia ,Kimani ,Henry Mbuthia ,087 ,Chama Cha Kazi ,KAZI 
031 ,Laikipia ,Mamaiyo ,Julius Orumoi ,021 ,Orange Democratic Movement ,ODM 
031 ,Laikipia ,Mwangi ,Sam Thuita ,001 ,National Rainbow Coalition-Kenya ,FORD-KENYA
031 ,Laikipia ,Mwaniki ,John Mathenge ,027 ,Jubilee Party ,JP 
031 ,Laikipia ,Nderitu ,John Kinyua ,015 ,United Democratic Alliance ,UDA 
031 ,Laikipia ,Ndung'u ,Robert Maina ,062 ,Amani National Congress ,ANC 
031 ,Laikipia ,Njeri ,Stephen Chege ,Ind ,Independent ,IND 
031 ,Laikipia ,Thangii ,Jackson Karuoya ,Ind ,Independent ,IND 
032 ,Nakuru ,Gachunga ,Boniface Mwai ,Ind ,Independent ,IND 
032 ,Nakuru ,Gitau ,Daniel Kimani ,023 ,Forum For Restoration Of Democracy-Kenya ,FORD-KENYA
032 ,Nakuru ,Githenya ,Abednego Mwangi ,Ind ,pendent ,IND 
032 ,Nakuru ,Karanja ,Lawrence Macharia ,027 ,Jubilee Party ,JP 
032 ,Nakuru ,Keroche ,Tabitha Karanja ,015 ,United Democratic Alliance ,UDA 
032 ,Nakuru ,Macharia ,Thomas Mwangi ,Ind ,Independent ,IND 
032 ,Nakuru ,Mututho ,John Michael Njenga ,021 ,Orange Democratic Movement ,ODM 
