014 ,Embu ,Mundigi ,Alexander Munyi ,013 ,Democratic Party Of Kenya ,DP 
014 ,Embu ,Ndwiga ,Josphat Mugendi ,080 ,Usawa Kwa Wote Party ,USAWA 
014 ,Embu ,Ndwiga ,Peter Njeru ,Ind ,Independent ,IND 
014 ,Embu ,Njeru ,David Kariuki ,015 ,United Democratic Alliance ,UDA 
014 ,Embu ,Njeru ,Stephen Nyaga ,062 ,Amani National Congress ,ANC 
014 ,Embu ,Nyagah ,Norman M G K ,Ind ,Independent ,IND 
014 ,Embu ,Wambora ,Martin Nyaga ,045 ,Umoja Na Maendeleo Party ,UMP 
014 ,Embu ,Wamuuru ,Moses ,021 ,Orange Democratic Movement ,ODM 
015 ,Kitui ,Kalumbo ,Frederick Isika ,021 ,Orange Democratic Movement ,ODM 
015 ,Kitui ,Kameta ,Dorcas Mwende ,027 ,Jubilee Party ,JP 
015 ,Kitui ,Kilonzo ,Stephen Mutua ,015 ,United Democratic Alliance ,UDA 
015 ,Kitui ,Makonge ,Stephen Kyalo Musango ,Ind ,Independent ,IND 
015 ,Kitui ,Mati ,Wilfred Nyamu ,067 ,Maendeleo Chap Chap Party ,MCCP 
015 ,Kitui ,Mutambuki ,Benjamin Muithya ,013 ,Democratic Party Of Kenya ,DP 
015 ,Kitui ,Mutiisya ,Ravaspaul Kyalo ,062 ,Amani National Congress ,ANC 
015 ,Kitui ,Mutukaa ,Julius Muinde ,029 ,National Rainbow Coalition ,NARC 
015 ,Kitui ,Wambua ,Enoch Kiio ,012 ,Wiper Democratic Movement- Kenya ,WDM 
016 ,Machakos ,Katuku ,John Mutua ,066 ,Peoples Trust Party ,PTP 
016 ,Machakos ,Kilonzo ,Charles Mutavi ,Ind ,Independent ,IND 
016 ,Machakos ,Mbaluka ,Joel Kyatha ,015 ,United Democratic Alliance ,UDA 
016 ,Machakos ,Mungata ,Benard Muteti ,067 ,Maendeleo Chap Chap Party ,MCCP 
016 ,Machakos ,Muthama ,Agnes Kavindu Mbuku ,012 ,Wiper Democratic Movement- Kenya ,WDM 
016 ,Machakos ,Mwikya ,Maureen Ndungwa ,027 ,Jubilee Party ,JP 
016 ,Machakos ,Ngengele ,Urbanus Mutunga Muthama,021 ,Orange Democratic Movement ,ODM 
016 ,Machakos ,Nyalita ,Angela Mwikali ,080 ,Usawa Kwa Wote Party ,USAWA 
