014 ,Embu ,Kumantha ,Dr Peter Njagi Njuki ,Njeru ,Enos Hudson Nthia ,013 ,Democratic Party Of Kenya ,DP 
014 ,Embu ,Mbarire ,Cecily Mutitu ,Mugo ,Justus Kinywa  ,015 ,United Democratic Alliance ,UDA 
015 ,Kitui ,Malombe ,Julius Makau ,Wambua ,Augustine Kanani ,012 ,Wiper Democratic Movement- Kenya ,WDM 
015 ,Kitui ,Mueke ,Jonathan Mwangangi ,Kilungya ,Stephen Mwema ,015 ,United Democratic Alliance ,UDA 
015 ,Kitui ,Musila ,David ,Moki ,Kennedy ,027 ,Jubilee Party ,JP 
015 ,Kitui ,Ngilu ,Charity Kaluki ,Nzau ,Gideon Wathe  ,029 ,National Rainbow Coalition ,NARC 
016 ,Machakos ,Maliti ,Francis Wambua ,Wambua ,Rose Ndinda ,067 ,Maendeleo Chap Chap Party ,MCCP 
016 ,Machakos ,Mulwa ,Rose Mbithe ,Mwikya ,Heather Wanzila ,075 ,Empowerment And Liberation Party ,ELP 
016 ,Machakos ,Muthama ,Johnson Nduya ,Muli ,Ndunge ,015 ,United Democratic Alliance ,UDA 
016 ,Machakos ,Ndeti ,Wavinya ,Kilonzo ,Francis Mwangangi ,012 ,Wiper Democratic Movement- Kenya ,WDM 
016 ,Machakos ,Waita ,Nzioka Siwadie ,Mwangangi ,Florence Muoti ,036 ,Chama Cha Uzalendo ,CCU 
017 ,Makueni ,Junior ,Mutula Kilonzo ,Mulili ,Lucy Mumbua  ,012 ,Wiper Democratic Movement- Kenya ,WDM 
017 ,Makueni ,Masika ,David Wambua Joel ,Mungumi ,Jacqueline Koni ,021 ,Orange Democratic Movement ,ODM 
017 ,Makueni ,Musimba ,Patrick Mweu ,Ndiku ,Muuo ,Ind ,Independent ,IND 
017 ,Makueni ,Mutisya ,Emmanuel Musau ,Musyoka ,Pauline Mbinya ,015 ,United Democratic Alliance ,UDA 
017 ,Makueni ,Mwanza ,Anderson Kaloki ,Seda ,Yonah ,Ind ,Independent ,IND 
018 ,Nyandarua ,Kiarie ,Moses Ndirangu Badilisha ,Mwangi ,John Mathara ,015 ,United Democratic Alliance ,UDA 
018 ,Nyandarua ,Kimemia ,Francis Thuita ,Gitura ,Isaac Maina ,027 ,Jubilee Party ,JP 
018 ,Nyandarua ,Kirika ,Waithaka Mwangi ,Gikonyo ,John Wainaina ,082 ,The Service Party ,TSP 
018 ,Nyandarua ,Mwangi ,Daniel Waithaka ,Ngugi ,Dominic Murani ,013 ,Democratic Party Of Kenya ,DP 
