001 ,Mombasa ,Bollo ,Hezron Awiti  ,Jembe ,Bethline Kadzo ,060 ,Vibrant Democratic Party ,VDP 
001 ,Mombasa ,Hassan ,Hassan Omar  ,Maitha ,Selina James ,015 ,United Democratic Alliance ,UDA 
001 ,Mombasa ,Kingi ,William Kazungu ,Jama ,Amin Ali ,091 ,Pamoja African Alliance ,PAA 
001 ,Mombasa ,Kitsao ,Daniel Munga ,Mwaruwa ,Abdalla Hemed ,Ind ,Independent ,IND 
001 ,Mombasa ,Makazi ,Shafii Mwaganda ,Nzaro ,Salim Omar ,046 ,United Party Of Independent Alliance ,UPIA 
001 ,Mombasa ,Nassir ,Abdullswamad Sheriff ,Foleni ,Francis Thoya ,021 ,Orange Democratic Movement ,ODM 
001 ,Mombasa ,Omari ,Said Abdalla  ,Walugembe  ,Fatma Abdul ,080 ,Usawa Kwa Wote Party ,USAWA 
