004 ,Tana River ,018 ,Garsen ,Igwo ,Dulu ,015 ,United Democratic  Alliance ,UDA 
004 ,Tana River ,018 ,Garsen ,Jilo ,Komora Mabudi ,091 ,Pamoja African Alliance ,PAA 
004 ,Tana River ,018 ,Garsen ,Mohamed ,Hussein Dara ,023 ,Forum For Restoration Of Democracy-Kenya ,FORD-KENYA 
004 ,Tana River ,018 ,Garsen ,Welly ,Abdi Ali ,046 ,United Party Of Independent Alliance ,UPIA 
004 ,Tana River ,019 ,Galole ,Aziz ,Bwanaidi Abdallah ,033 ,Kenya African National Union ,KANU 
004 ,Tana River ,019 ,Galole ,Farah ,Hargamso Mohamed  ,062 ,Amani National Congress ,ANC 
004 ,Tana River ,019 ,Galole ,Hiribae ,Said Buya ,021 ,Orange Democratic Movement ,ODM 
004 ,Tana River ,019 ,Galole ,Kedhi ,Ahmed Shuri ,046 ,United Party Of Independent Alliance ,UPIA 
004 ,Tana River ,019 ,Galole ,Yusa ,Mohamed Buya ,015 ,United Democratic  Alliance ,UDA 
004 ,Tana River ,020 ,Bura ,Bishar ,Juma Odha ,040  ,The New Democrats ,TND 
004 ,Tana River ,020 ,Bura ,Dube ,Mohamed Hassan ,027  ,Jubilee Party ,JP 
004 ,Tana River ,020 ,Bura ,Guyo ,Mohamed ,Ind ,Independent ,IND 
004 ,Tana River ,020 ,Bura ,Hassan ,Rehema ,015 ,United Democratic  Alliance ,UDA 
