046 ,Nyamira ,271 ,West Mugirango ,Moturi ,Ong'era Rogers ,021 ,Orange Democratic Movement ,ODM 
046 ,Nyamira ,271 ,West Mugirango ,Nyamanga ,Eric  Achoki Achoki ,085 ,Democratic Action Party- Kenya ,DAP-K 
046 ,Nyamira ,271 ,West Mugirango ,Omwenga ,Griffins Nyakang'o ,025 ,Progressive Party Of Kenya ,PPOK 
046 ,Nyamira ,271 ,West Mugirango ,Ondieki ,Evans ,046 ,United Party Of Independent Alliance ,UPIA 
046 ,Nyamira ,271 ,West Mugirango ,Ongoto ,Charles Mong'are ,015 ,United Democratic  Alliance ,UDA 
046 ,Nyamira ,271 ,West Mugirango ,Onkeo ,Douglas Orutwa ,071 ,National Liberal Party ,NLP 
046 ,Nyamira ,272 ,North Mugirango ,Aondo ,Robin M ,068 ,Democratic Congress ,DC 
046 ,Nyamira ,272 ,North Mugirango ,Arani ,James Ochari  ,001 ,National Rainbow Coalition-Kenya ,NARC-KENYA 
046 ,Nyamira ,272 ,North Mugirango ,Atebe ,Isaac Nyang'au ,081 ,United Progressive Alliance ,UPA 
046 ,Nyamira ,272 ,North Mugirango ,Atuya ,Benard Arasa ,Ind ,Independent ,IND 
046 ,Nyamira ,272 ,North Mugirango ,Ayore ,Richard ,029 ,National Rainbow Coalition ,NARC 
046 ,Nyamira ,272 ,North Mugirango ,Job ,Momanyi Nyasimi ,039 ,Peoples Democratic Party ,PDP 
046 ,Nyamira ,272 ,North Mugirango ,Komenda ,Janet Bochaberi ,027 ,Jubilee Party ,JP 
