036 ,Bomet ,194 ,Sotik ,Sigei ,Francis Kipyegon Arap ,015 ,United Democratic  Alliance ,UDA 
036 ,Bomet ,194 ,Sotik ,Toweett ,Joseph Kipchumba ,Ind ,Independent ,IND 
036 ,Bomet ,195 ,Chepalungu ,Bii ,Paul Kipchirchir ,015 ,United Democratic  Alliance ,UDA 
036 ,Bomet ,195 ,Chepalungu ,Cheruiyot ,Kipkoech Evans ,068 ,Democratic Congress ,DC 
036 ,Bomet ,195 ,Chepalungu ,Koech ,Victor Kipngetich  ,054 ,Chama Cha Mashinani ,CCM 
036 ,Bomet ,195 ,Chepalungu ,Langat ,Paul Kipkirui ,002 ,The National Vision Party ,NVP 
036 ,Bomet ,195 ,Chepalungu ,Mastamet ,Peter Bunei  ,062 ,Amani National Congress ,ANC 
036 ,Bomet ,195 ,Chepalungu ,Ngeno ,Michael Kipsigei ,021 ,Orange Democratic Movement ,ODM 
036 ,Bomet ,195 ,Chepalungu ,Ronald ,Rob Kiprono ,033 ,Kenya African National Union ,KANU 
036 ,Bomet ,196 ,Bomet East ,Kalya ,John Kipkoech ,054 ,Chama Cha Mashinani ,CCM 
036 ,Bomet ,196 ,Bomet East ,Salat ,Nicholas Kiptoo Arap Korir ,033 ,Kenya African National Union ,KANU 
036 ,Bomet ,196 ,Bomet East ,Yegon ,Richard Kipkemoi ,015 ,United Democratic  Alliance ,UDA 
036 ,Bomet ,197 ,Bomet Central ,Collins ,Ngetich Joseph  ,054 ,Chama Cha Mashinani ,CCM 
