021 ,Murang'a ,104 ,Kangema ,Kihungi ,Peter Irungu ,015 ,United Democratic  Alliance ,UDA 
021 ,Murang'a ,104 ,Kangema ,Maina ,George Kibuku ,027 ,Jubilee Party ,JP 
021 ,Murang'a ,104 ,Kangema ,Maina ,Martin Mugo ,067 ,Maendeleo Chap Chap Party ,MCCP 
021 ,Murang'a ,104 ,Kangema ,Mwangi ,Duncan Githiga ,080 ,Usawa Kwa Wote Party ,USAWA 
021 ,Murang'a ,105 ,Mathioya ,Gichuki ,Edwin Mugo ,015 ,United Democratic  Alliance ,UDA 
021 ,Murang'a ,105 ,Mathioya ,Kihara ,Peter Kimari ,027 ,Jubilee Party ,JP 
021 ,Murang'a ,105 ,Mathioya ,Maai ,Anthony Maina Wa ,Ind ,Independent ,IND 
021 ,Murang'a ,105 ,Mathioya ,Maina ,James Wahome ,088 ,Tujibebe Wakenya Party ,JIBEBE 
021 ,Murang'a ,105 ,Mathioya ,Maina ,Jonathan Marubu ,087 ,Chama Cha Kazi ,KAZI 
021 ,Murang'a ,105 ,Mathioya ,Maina ,Peter Kaburi ,Ind ,Independent ,IND 
021 ,Murang'a ,105 ,Mathioya ,Mwangi ,Jackson Mutugi ,Ind ,Independent ,IND 
021 ,Murang'a ,105 ,Mathioya ,Mwariri ,Edwin Kagunda ,Ind ,Independent ,IND 
021 ,Murang'a ,105 ,Mathioya ,Mwatha ,Johnson Kihato ,Ind ,Independent ,IND 
