031 ,Laikipia ,165 ,Laikipia North ,Lorere ,Gabriella Emuria ,046 ,United Party Of Independent Alliance ,UPIA 
031 ,Laikipia ,165 ,Laikipia North ,Munene ,Simon Maina ,015 ,United Democratic  Alliance ,UDA 
031 ,Laikipia ,165 ,Laikipia North ,Nganga ,Dr  James Njuru ,Ind ,Independent ,IND 
031 ,Laikipia ,165 ,Laikipia North ,Olemosiany ,Timothy L ,Ind ,Independent ,IND 
032 ,Nakuru ,166 ,Molo ,Gichuki ,Zakayo Kariuki ,027 ,Jubilee Party ,JP 
032 ,Nakuru ,166 ,Molo ,Kabii ,Florence Wairimu ,Ind ,Independent ,IND 
032 ,Nakuru ,166 ,Molo ,Kairegi ,Peter Njenga ,Ind ,Independent ,IND 
032 ,Nakuru ,166 ,Molo ,Kimani ,Francis Kuria ,015 ,United Democratic  Alliance ,UDA 
032 ,Nakuru ,166 ,Molo ,Macharia ,Jacob Waweru ,Ind ,Independent ,IND 
032 ,Nakuru ,166 ,Molo ,Njonjo ,Nancy Njoki ,013 ,Democratic Party Of Kenya ,DP 
032 ,Nakuru ,166 ,Molo ,Sang ,Judy Chepngetich ,Ind ,Independent ,IND 
032 ,Nakuru ,167 ,Njoro ,Chepkwony ,Charity Kathambi  ,015 ,United Democratic  Alliance ,UDA 
032 ,Nakuru ,167 ,Njoro ,Cheruiyot ,Asab Kipngetich ,054 ,Chama Cha Mashinani ,CCM 
