023 ,Turkana ,125 ,Turkana Central ,Erus ,Ekai Moses ,Ind ,Independent ,IND 
023 ,Turkana ,125 ,Turkana Central ,Koriang ,Ilikwel Abok ,Ind ,Independent ,IND 
023 ,Turkana ,125 ,Turkana Central ,Lokoel ,Peter Ekai  ,068  ,Democratic Congress ,DC 
023 ,Turkana ,126 ,Loima ,Akujah ,Protus Ewesit ,015 ,United Democratic  Alliance ,UDA 
023 ,Turkana ,126 ,Loima ,Chegem ,Joseph Nakeor ,027 ,Jubilee Party ,JP 
023 ,Turkana ,126 ,Loima ,Eregae ,Michael Ekidor  ,021 ,Orange Democratic Movement ,ODM 
023 ,Turkana ,126 ,Loima ,Maraka ,Johnstone Akamais ,033 ,Kenya African National Union ,KANU 
023 ,Turkana ,127 ,Turkana South ,Aemun ,Philip Ebei ,027 ,Jubilee Party ,JP 
023 ,Turkana ,127 ,Turkana South ,Ekitela ,Peter Malakwen ,085 ,Democratic Action Party- Kenya ,DAP-K 
023 ,Turkana ,127 ,Turkana South ,Eripon ,James Emuria ,Ind ,Independent ,IND 
023 ,Turkana ,127 ,Turkana South ,John ,Ariko Namoit ,021 ,Orange Democratic Movement ,ODM 
023 ,Turkana ,127 ,Turkana South ,Lopeyok ,Wiljustus Elim ,015 ,United Democratic  Alliance ,UDA 
023 ,Turkana ,128 ,Turkana East ,Akilimo ,Alexander Safari ,076 ,Thirdway Alliance Kenya ,TAK 
