003 ,Kilifi ,014 ,Rabai ,Mupe ,Anthony Kenga ,091 ,Pamoja African Alliance ,PAA 
003 ,Kilifi ,014 ,Rabai ,Nzai ,Charles Chama ,Ind ,Independent ,IND 
003 ,Kilifi ,015 ,Ganze ,Chivatsi ,David Shoka ,080 ,Usawa Kwa Wote Party ,USAWA 
003 ,Kilifi ,015 ,Ganze ,Mwambire ,Teddy Ngumbao ,021 ,Orange Democratic Movement ,ODM 
003 ,Kilifi ,015 ,Ganze ,Mweni ,Anderson Kenga ,034 ,Safina ,SAFINA 
003 ,Kilifi ,015 ,Ganze ,Samaki ,James Charo ,015 ,United Democratic  Alliance ,UDA 
003 ,Kilifi ,015 ,Ganze ,Tungule ,Charo  Kenneth Kazungu  ,091 ,Pamoja African Alliance ,PAA 
003 ,Kilifi ,016 ,Malindi ,Chiriba ,Daniel Chai ,015 ,United Democratic  Alliance ,UDA 
003 ,Kilifi ,016 ,Malindi ,Kadzeha ,Peter Ponda ,062 ,Amani National Congress ,ANC 
003 ,Kilifi ,016 ,Malindi ,Kalama ,Kenneth Mulewa ,Ind ,Independent ,IND 
003 ,Kilifi ,016 ,Malindi ,Mnyazi ,Amina Laura ,021 ,Orange Democratic Movement ,ODM 
003 ,Kilifi ,016 ,Malindi ,Mtengo ,William Baraka ,091 ,Pamoja African Alliance ,PAA 
003 ,Kilifi ,016 ,Malindi ,Nyule ,Nixon Kingi ,034 ,Safina ,SAFINA 
