038 ,Vihiga ,213 ,Hamisi ,Luyali ,Dieterbestic Jirongo ,Ind ,Independent ,IND 
038 ,Vihiga ,213 ,Hamisi ,Makomere ,Maurice Kangaya ,064 ,United Democratic Party ,UDP 
038 ,Vihiga ,213 ,Hamisi ,Mimo ,Alex Linyore ,Ind ,Independent ,IND 
038 ,Vihiga ,213 ,Hamisi ,Murila ,Jemovo Josphat  ,033 ,Kenya African National Union ,KANU 
038 ,Vihiga ,213 ,Hamisi ,Ndula ,Wilberforce Imbiru ,025 ,Progressive Party Of Kenya ,PPOK 
038 ,Vihiga ,214 ,Luanda ,Atingo ,Tom ,015 ,United Democratic  Alliance ,UDA 
038 ,Vihiga ,214 ,Luanda ,Makomere ,Boaz Omuyanje ,025 ,Progressive Party Of Kenya ,PPOK 
038 ,Vihiga ,214 ,Luanda ,Obbuyi ,Albert ,027 ,Jubilee Party ,JP 
038 ,Vihiga ,214 ,Luanda ,Olala ,Peter Omucheto ,Ind ,Independent ,IND 
038 ,Vihiga ,214 ,Luanda ,Omulele ,Christopher ,021 ,Orange Democratic Movement ,ODM 
038 ,Vihiga ,214 ,Luanda ,Oyugi ,Dick Maungu ,085 ,Democratic Action Party- Kenya ,DAP-K 
038 ,Vihiga ,215 ,Emuhaya ,Caleb ,Aineah  Makanga ,085 ,Democratic Action Party- Kenya ,DAP-K 
038 ,Vihiga ,215 ,Emuhaya ,Jeremiah , Omboko Milemba ,062 ,Amani National Congress ,ANC 
