034 ,Kajiado ,183 ,Kajiado North ,Teeka ,Nicholas Sankok ,Ind ,Independent ,IND 
034 ,Kajiado ,184 ,Kajiado Central ,Birisha ,Partelekwa Moses ,012 ,Wiper Democratic Movement- Kenya ,WDM 
034 ,Kajiado ,184 ,Kajiado Central ,Kanchory ,Elijah Memusi  ,021 ,Orange Democratic Movement ,ODM 
034 ,Kajiado ,184 ,Kajiado Central ,Kiroken ,Antony Meitiaki ,015 ,United Democratic  Alliance ,UDA 
034 ,Kajiado ,184 ,Kajiado Central ,Lenku ,Rachel Nayieyio ,062 ,Amani National Congress ,ANC 
034 ,Kajiado ,184 ,Kajiado Central ,Sankale ,Janet Leina ,040 ,The New Democrats ,TND 
034 ,Kajiado ,185 ,Kajiado East ,Gathogo ,George Kingori ,082 ,The Service Party  ,TSP 
034 ,Kajiado ,185 ,Kajiado East ,Hamisi ,Kakuta Maimai ,021 ,Orange Democratic Movement ,ODM 
034 ,Kajiado ,185 ,Kajiado East ,Kimondiu ,Vivian Sinaipei ,032 ,Communist Party Of Kenya ,CPK 
034 ,Kajiado ,185 ,Kajiado East ,Kokuai ,Kelly Marina ,027 ,Jubilee Party ,JP 
034 ,Kajiado ,185 ,Kajiado East ,Njagi ,Bob Micheni ,Ind ,Independent ,IND 
034 ,Kajiado ,185 ,Kajiado East ,Parseina ,Mingati David ,012 ,Wiper Democratic Movement- Kenya ,WDM 
034 ,Kajiado ,185 ,Kajiado East ,Saris ,Samwel Maingi Mwangi ,087 ,Chama Cha Kazi ,KAZI 
