047 ,Nairobi City ,275 ,Dagoretti North ,Mwendwa ,Cindy Katile ,074 ,Ukweli Party ,UP 
047 ,Nairobi City ,275 ,Dagoretti North ,Nyambegera ,Lewis Miriorio ,050 ,Muungano Party ,MUUNGANO 
047 ,Nairobi City ,275 ,Dagoretti North ,Nyanchama ,Leocadia Gaudencia  ,009 ,Kenya National Congress ,KNC 
047 ,Nairobi City ,275 ,Dagoretti North ,Nyaribari ,Jeremiah Migosi ,Ind ,Independent ,IND 
047 ,Nairobi City ,275 ,Dagoretti North ,Oenga ,Elijah Getui ,Ind ,Independent ,IND 
047 ,Nairobi City ,275 ,Dagoretti North ,Ombui ,Amos Oyongo ,015 ,United Democratic  Alliance ,UDA 
047 ,Nairobi City ,276 ,Dagoretti South ,Kabbis ,Aloyce Otete ,044 ,Party Of Democratic  Unity ,PDU 
047 ,Nairobi City ,276 ,Dagoretti South ,Koikai ,Mary Njambi ,Ind ,Independent ,IND 
047 ,Nairobi City ,276 ,Dagoretti South ,Lobo ,Grace Wagoci Mikinya ,087 ,Chama Cha Kazi ,KAZI 
047 ,Nairobi City ,276 ,Dagoretti South ,Muchene ,Brian Gakungu ,Ind ,Independent ,IND 
047 ,Nairobi City ,276 ,Dagoretti South ,Muhia ,Paul Maina ,Ind ,Independent ,IND 
047 ,Nairobi City ,276 ,Dagoretti South ,Okong'o ,Kennedy Omondi ,Ind ,Independent ,IND 
047 ,Nairobi City ,276 ,Dagoretti South ,Oliech ,Kennedy Ochieng ,Ind ,Independent ,IND 
