044 ,Migori ,256 ,Suna West ,Odoyo ,Odhiambo Davehanis ,034 ,Safina ,SAFINA 
044 ,Migori ,256 ,Suna West ,Ogongo ,Valentine Dianga ,Ind ,Independent ,IND 
044 ,Migori ,256 ,Suna West ,Otieno ,David Delly ,027 ,Jubilee Party ,JP 
044 ,Migori ,257 ,Uriri ,Kwaga ,Jared Peter Odoyo Oluoch ,Ind ,Independent ,IND 
044 ,Migori ,257 ,Uriri ,Madegwa ,David Henry ,034 ,Safina ,SAFINA 
044 ,Migori ,257 ,Uriri ,Nyamita ,Mark Ogolla ,021 ,Orange Democratic Movement ,ODM 
044 ,Migori ,258 ,Nyatike ,Anyanga ,Peter Edick Omondi ,046 ,United Party Of Independent Alliance ,UPIA 
044 ,Migori ,258 ,Nyatike ,Elias ,Odhiambo ,Ind ,Independent ,IND 
044 ,Migori ,258 ,Nyatike ,Kajimba ,Stephen Odhiambo ,070 ,Green Congress Of Kenya ,GCK 
044 ,Migori ,258 ,Nyatike ,Odege ,Tom Mboya ,021 ,Orange Democratic Movement ,ODM 
044 ,Migori ,258 ,Nyatike ,Ogenga ,Fredrick Kagosh ,Ind ,Independent ,IND 
044 ,Migori ,259 ,Kuria West ,Bosco ,Magaiwa Elijah ,080 ,Usawa Kwa Wote Party ,USAWA 
044 ,Migori ,259 ,Kuria West ,Burure ,James Ginono ,012 ,Wiper Democratic Movement- Kenya ,WDM 
