012 ,Meru ,052 ,Igembe Central ,Iringo ,Cyprian Kubai ,015 ,United Democratic  Alliance ,UDA 
012 ,Meru ,052 ,Igembe Central ,Joseph ,Kainga Eric ,Ind ,Independent ,IND 
012 ,Meru ,052 ,Igembe Central ,Kamencu ,Peter Muchangi ,Ind ,Independent ,IND 
012 ,Meru ,052 ,Igembe Central ,Karema ,Eunice ,013 ,Democratic Party Of Kenya ,DP 
012 ,Meru ,052 ,Igembe Central ,Karitho ,Kiili Daniel ,027 ,Jubilee Party ,JP 
012 ,Meru ,052 ,Igembe Central ,Kathata ,Harriet Karamana Gitonga ,Ind ,Independent ,IND 
012 ,Meru ,052 ,Igembe Central ,M'ajoi ,Jacob Mati ,Ind ,Independent ,IND 
012 ,Meru ,052 ,Igembe Central ,M'ibuathu ,Isaiah Kaunyangi ,083 ,National Ordinary Peoples Empowerment Union ,NOPEU 
012 ,Meru ,052 ,Igembe Central ,Mutethia ,Nicholas ,Ind ,Independent ,IND 
012 ,Meru ,052 ,Igembe Central ,Mutia ,James Kiburi ,014 ,Party Of National Unity ,PNU 
012 ,Meru ,052 ,Igembe Central ,Mutirithia ,Harrison Muthamia ,082 ,The Service Party  ,TSP 
012 ,Meru ,052 ,Igembe Central ,Mwirichia ,Gitari Joseph ,080 ,Usawa Kwa Wote Party ,USAWA 
012 ,Meru ,052 ,Igembe Central ,Mwito ,Romano Mugambi  ,008 ,Devolution Empowerment Party ,DEP 
