039 ,Bungoma ,218 ,Kabuchai ,Masengeli ,Electine Nasambu ,021 ,Orange Democratic Movement ,ODM 
039 ,Bungoma ,218 ,Kabuchai ,Wanyonyi ,Eric Wafula ,085 ,Democratic Action Party- Kenya ,DAP-K 
039 ,Bungoma ,219 ,Bumula ,Bifwoli ,Sylvester Wakoli ,Ind ,Independent ,IND 
039 ,Bungoma ,219 ,Bumula ,Kuloba ,Patrick Wafula ,033 ,Kenya African National Union ,KANU 
039 ,Bungoma ,219 ,Bumula ,Luketelo ,Augustine Kundu ,023 ,Forum For Restoration Of Democracy-Kenya ,FORD-KENYA 
039 ,Bungoma ,219 ,Bumula ,Mabongah ,Moses Wekesa Mwambu ,015 ,United Democratic  Alliance ,UDA 
039 ,Bungoma ,219 ,Bumula ,Makhanu ,Joseph Mukhambi ,027 ,Jubilee Party ,JP 
039 ,Bungoma ,219 ,Bumula ,Otsiula ,Bonface Okhiya ,Ind ,Independent ,IND 
039 ,Bungoma ,219 ,Bumula ,Wamboka ,Nelson Jack Wanami ,085 ,Democratic Action Party- Kenya ,DAP-K 
039 ,Bungoma ,220 ,Kanduyi ,Alfred ,Khang'ati ,021 ,Orange Democratic Movement ,ODM 
039 ,Bungoma ,220 ,Kanduyi ,Khaoya ,Cliffe Mulunda ,015 ,United Democratic  Alliance ,UDA 
039 ,Bungoma ,220 ,Kanduyi ,Makali ,John Okwisia ,023 ,Forum For Restoration Of Democracy-Kenya ,FORD-KENYA 
039 ,Bungoma ,220 ,Kanduyi ,Masinde ,Charles Wanjala ,064 ,United Democratic Party ,UDP 
