006 ,Taita Taveta ,026 ,Voi ,Abdi ,Khamis Chome ,012 ,Wiper Democratic Movement- Kenya ,WDM 
006 ,Taita Taveta ,026 ,Voi ,Kizidio ,Veronica Wakesho ,030 ,Kenya African Democratic Union-Asili ,KADU-ASILI 
006 ,Taita Taveta ,026 ,Voi ,Masawi ,Dr Vincent Mwandima ,021 ,Orange Democratic Movement ,ODM 
006 ,Taita Taveta ,026 ,Voi ,Mlolwa ,Jones Mwagogo ,027 ,Jubilee Party ,JP 
006 ,Taita Taveta ,026 ,Voi ,Mngoda ,Dishon K Mwanzige ,082,  The Service Party  ,TSP 
006 ,Taita Taveta ,026 ,Voi ,Muli ,Albanus Mutumwa ,015 ,United Democratic  Alliance ,UDA 
006 ,Taita Taveta ,026 ,Voi ,Mwachoki ,Jeremiah Mwavadu ,080 ,Usawa Kwa Wote Party ,USAWA 
006 ,Taita Taveta ,026 ,Voi ,Mwaeni ,Harun Mwadali ,062 ,Amani National Congress ,ANC 
006 ,Taita Taveta ,026 ,Voi ,Mwakaba ,Frank Martin ,088 ,Tujibebe Wakenya Party ,JIBEBE 
006 ,Taita Taveta ,026 ,Voi ,Mwarema ,Godfrey Mwanjulu ,Ind ,Independent ,IND 
006 ,Taita Taveta ,026 ,Voi ,Mwawasi ,Michael Mwadime ,091 ,Pamoja African Alliance ,PAA 
007 ,Garissa ,027 ,Garissa Township ,Dolal ,Nassir Mohamed ,021 ,Orange Democratic Movement ,ODM 
007 ,Garissa ,027 ,Garissa Township ,Duale ,Aden Bare ,015 ,United Democratic  Alliance ,UDA 
