038 ,Vihiga ,215 ,Emuhaya ,Johnstone ,Asienga   Ebole ,021 ,Orange Democratic Movement ,ODM 
039 ,Bungoma ,216 ,Mt. Elgon ,Chemayiek ,Allan Rotich ,Ind ,Independent ,IND 
039 ,Bungoma ,216 ,Mt. Elgon ,Cheren ,Silas Kuwaka ,Ind ,Independent ,IND 
039 ,Bungoma ,216 ,Mt. Elgon ,Chesebe ,Fred Kapondi ,015 ,United Democratic  Alliance ,UDA 
039 ,Bungoma ,216 ,Mt. Elgon ,Kamwanja ,Jane Chebet ,Ind ,Independent ,IND 
039 ,Bungoma ,216 ,Mt. Elgon ,Kesis ,Robin Korir ,Ind ,Independent ,IND 
039 ,Bungoma ,216 ,Mt. Elgon ,Kimkung ,Joseph Naibei ,033 ,Kenya African National Union ,KANU 
039 ,Bungoma ,216 ,Mt. Elgon ,Kiprotich ,Chemwotei Evans ,023 ,Forum For Restoration Of Democracy-Kenya ,FORD-KENYA 
039 ,Bungoma ,216 ,Mt. Elgon ,Morongo ,Kraido Majune ,082 ,The Service Party  ,TSP 
039 ,Bungoma ,216 ,Mt. Elgon ,Musundi ,Moses Misiko ,062 ,Amani National Congress ,ANC 
039 ,Bungoma ,216 ,Mt. Elgon ,Namtala ,James Cheroben ,021 ,Orange Democratic Movement ,ODM 
039 ,Bungoma ,216 ,Mt. Elgon ,Ndiema ,Moss Kapwemo ,Ind ,Independent ,IND 
039 ,Bungoma ,216 ,Mt. Elgon ,Soet ,Rose Chepkwemoi ,Ind ,Independent ,IND 
