001 ,Mombasa ,005 ,Likoni ,Omuko ,Duncan Otieno ,060 ,Vibrant Democratic Party ,VDP 
001 ,Mombasa ,005 ,Likoni ,Vyakweli ,Mbaruku Ali ,012 ,Wiper Democratic Movement- Kenya ,WDM 
001 ,Mombasa ,006 ,Mvita ,Damnan ,Sadat Salim ,Ind ,Independent ,IND 
001 ,Mombasa ,006 ,Mvita ,Ducale ,Mohamed Issa ,033 ,Kenya African National Union ,KANU 
001 ,Mombasa ,006 ,Mvita ,Hamid ,Narqab Rishad ,046 ,United Party Of Independent Alliance ,UPIA 
001 ,Mombasa ,006 ,Mvita ,Heris ,Zuhura Said ,Ind ,Independent ,IND 
001 ,Mombasa ,006 ,Mvita ,Juma ,Mohamed Ali Mohamed ,012 ,Wiper Democratic Movement- Kenya ,WDM 
001 ,Mombasa ,006 ,Mvita ,Machele ,Mohamed Soud ,021 ,Orange Democratic Movement ,ODM 
001 ,Mombasa ,006 ,Mvita ,Mohamed ,Murshid Abdalla ,079 ,United Green Movement ,UGM 
001 ,Mombasa ,006 ,Mvita ,Mohammed ,Said Twaha ,091 ,Pamoja African Alliance ,PAA 
001 ,Mombasa ,006 ,Mvita ,Muhsin ,Khadija Abdalla ,027  ,Jubilee Party ,JP 
001 ,Mombasa ,006 ,Mvita ,Mwatsahu ,Ali Ramadhani ,090  ,Umoja Summit Party ,USP 
001 ,Mombasa ,006 ,Mvita ,Omar ,Omar Abdalla ,080 ,Usawa Kwa Wote Party ,USAWA 
