045 ,Kisii ,262 ,South Mugirango ,Otwere ,Ponti James ,025 ,Progressive Party Of Kenya ,PPOK 
045 ,Kisii ,262 ,South Mugirango ,Sonko ,Dennis Makori ,021 ,Orange Democratic Movement ,ODM 
045 ,Kisii ,263 ,Bomachoge Borabu ,Barongo ,Nolfason Obadiah ,021 ,Orange Democratic Movement ,ODM 
045 ,Kisii ,263 ,Bomachoge Borabu ,Bazu ,James Omare Oino Man ,029 ,National Rainbow Coalition ,NARC 
045 ,Kisii ,263 ,Bomachoge Borabu ,Echate ,Duke Mainga Ondiba ,015 ,United Democratic  Alliance ,UDA 
045 ,Kisii ,263 ,Bomachoge Borabu ,Mekubo ,Charles Mogusu ,050 ,Muungano Party ,MUUNGANO 
045 ,Kisii ,263 ,Bomachoge Borabu ,Mesesi ,Denis Ngongo ,038 ,Peoples Empowerment Party ,PEP 
045 ,Kisii ,263 ,Bomachoge Borabu ,Mokua ,Lameck Onyinkwa ,039 ,Peoples Democratic Party ,PDP 
045 ,Kisii ,263 ,Bomachoge Borabu ,Moseti ,Moffat Kengere ,068  ,Democratic Congress ,DC 
045 ,Kisii ,263 ,Bomachoge Borabu ,Nyamora ,Edward Machuka ,088 ,Tujibebe Wakenya Party ,JIBEBE 
045 ,Kisii ,263 ,Bomachoge Borabu ,Nyanumba ,Philip Machuki ,081 ,United Progressive Alliance ,UPA 
045 ,Kisii ,263 ,Bomachoge Borabu ,Nyaundi ,Albert Mbaka ,Ind ,Independent ,IND 
045 ,Kisii ,263 ,Bomachoge Borabu ,Ogutu ,Zadoc Abel ,027 ,Jubilee Party ,JP 
