047 ,Nairobi City ,274 ,Westlands ,Ndungu ,Carolyne Wanjiku ,082 ,The Service Party  ,TSP 
047 ,Nairobi City ,274 ,Westlands ,Okari ,Mary Kerubo ,081 ,United Progressive Alliance ,UPA 
047 ,Nairobi City ,274 ,Westlands ,Otieno ,David Calleb ,Ind ,Independent ,IND 
047 ,Nairobi City ,274 ,Westlands ,Tett ,Betty Njeri ,Ind ,Independent ,IND 
047 ,Nairobi City ,274 ,Westlands ,Wetangula ,Timothy Wanyonyi ,021 ,Orange Democratic Movement ,ODM 
047 ,Nairobi City ,275 ,Dagoretti North ,Alexander ,Hoops Shihemi ,080 ,Usawa Kwa Wote Party ,USAWA 
047 ,Nairobi City ,275 ,Dagoretti North ,Arita ,Eric Mokua ,077 ,Justice And Freedom Party ,JFP 
047 ,Nairobi City ,275 ,Dagoretti North ,Elachi ,Beatrice Kadeveresia ,021 ,Orange Democratic Movement ,ODM 
047 ,Nairobi City ,275 ,Dagoretti North ,Julius ,Agani M ,081 ,United Progressive Alliance ,UPA 
047 ,Nairobi City ,275 ,Dagoretti North ,Lukalo ,Caroline Muhonja ,049 ,Federal Party Of Kenya ,FPK 
047 ,Nairobi City ,275 ,Dagoretti North ,Maliba ,Arnold Onyango ,085 ,Democratic Action Party- Kenya ,DAP-K 
047 ,Nairobi City ,275 ,Dagoretti North ,Maundu ,Roselyne ,Ind ,Independent ,IND 
047 ,Nairobi City ,275 ,Dagoretti North ,Mesoh ,Carnicius Jackson ,062 ,Amani National Congress ,ANC 
