002 ,Kwale ,010 ,Kinango ,Kamanza ,Seth Mwatela ,Ind ,Independent ,IND ,
002 ,Kwale ,010 ,Kinango ,Mrina ,Salim Yawa ,085 ,Democratic Action Party- Kenya ,DAP-K ,
002 ,Kwale ,010 ,Kinango ,Mwambeyu ,Simon Beja ,041 ,United Democratic Movement ,UDM ,
002 ,Kwale ,010 ,Kinango ,Mwero ,Dicky  Chikoza ,Ind ,Independent ,IND ,
002 ,Kwale ,010 ,Kinango ,Samuel ,Rai Gonzi ,091 ,Pamoja African Alliance ,PAA ,
002 ,Kwale ,010 ,Kinango ,Tayari ,Benjamin Dalu  Stephen ,015 ,United Democratic  Alliance ,UDA ,
003 ,Kilifi ,011 ,Kilifi North ,Baya ,Owen Yaa ,015 ,United Democratic  Alliance ,UDA ,
003 ,Kilifi ,011 ,Kilifi North ,Chai ,Eliud Kalama ,021 ,Orange Democratic Movement ,ODM ,
003 ,Kilifi ,011 ,Kilifi North ,Gongolo ,Norbert Mwabonje ,034  Safina ,SAFINA ,
003 ,Kilifi ,011 ,Kilifi North ,Jefwa ,Ian  Amani  ,091 ,Pamoja African Alliance ,PAA ,
003 ,Kilifi ,011 ,Kilifi North ,Ziro ,Elizabeth Wambugha ,090  Umoja Summit Party ,USP ,
003 ,Kilifi ,012 ,Kilifi South ,Almas ,Hadad Faisal ,023 ,Forum For Restoration Of Democracy-Kenya ,FORD-,KENYA ,
003 ,Kilifi ,012 ,Kilifi South ,Jobba ,Said Musa ,015 ,United Democratic  Alliance ,UDA ,
