County Code ,Party Code ,002 ,Kwale ,Hassan ,Nuru Lula ,080 ,Usawa Kwa Wote Party ,USAWA ,
002 ,Kwale ,Kizuka ,Mwanasha Suleiman ,012 ,Wiper Democratic Movement- Kenya ,WDM ,
002 ,Kwale ,Mwadumbo ,Salim Ali ,062 ,Amani National Congress ,ANC ,
002 ,Kwale ,Ndeti ,William ,013 ,Democratic Party Of Kenya ,DP ,
002 ,Kwale ,Nzili ,Mudzo Kuhenderwa ,091 ,Pamoja African Alliance ,PAA ,
002 ,Kwale ,Obadiah ,Hezron Mutua Mwawaza  034 ,Safina ,SAFINA ,
002 ,Kwale ,Yama ,Anthony Nyawa ,015 ,United Democratic Alliance ,UDA ,
003 ,Kilifi ,Chilango ,Carolyne Andzazi ,062 ,Amani National Congress ,ANC ,
003 ,Kilifi ,Chilumo ,Benjamin Kai ,091 ,Pamoja African Alliance ,PAA ,
003 ,Kilifi ,Madzayo ,021 ,Orange Democratic Movement ,ODM ,
003 ,Kilifi ,Mwabonje ,Alex Shukran ,015 ,United Democratic Alliance ,UDA ,
004 ,Tana River ,Barako ,Hantiro Abdulrahman ,001 ,National Rainbow Coalition-Kenya ,
004 ,Tana River ,Bule ,Ali Abdi ,049 ,Federal Party Of Kenya ,FPK ,
004 ,Tana River ,Dubow ,Sadam Salat ,062 ,Amani National Congress ,ANC ,
004 ,Tana River ,Dukicha ,Hassan Abdi ,027 ,Jubilee Party ,JP ,
004 ,Tana River ,Mohamed ,Jire Siyat ,023 ,Forum For Restoration Of Democracy-Kenya ,FORD-KENYA ,
004 ,Tana River ,Mungatana ,Danson Buya ,015 ,United Democratic Alliance ,UDA ,
004 ,Tana River ,Nakapepwe ,Alice Japhet ,077 ,Justice And Freedom Party ,JFP ,
004 ,Tana River ,Omara ,Bakari Garise ,091 ,Pamoja African Alliance ,PAA ,
004 ,Tana River ,Soba ,Abdulaziz Mohamed ,064 ,United Democratic Party ,UDP ,
004 ,Tana River ,Wario ,Golich Juma ,021 ,Orange Democratic Movement ,ODM ,
005 ,Lamu ,Aboubakar ,Yusuf Mahmoud ,062 ,Amani National Congress ,ANC ,
005 ,Lamu ,Ali ,Ahmed Suleiman ,046 ,United Party Of Independent Alliance ,UPIA ,
005 ,Lamu ,Dhahir ,Abdiwely Mohamed ,037 ,National Agenda Party Of Kenya ,NAPK ,
005 ,Lamu ,Haji ,Ahmed Bunu ,021 ,Orange Democratic Movement ,ODM ,
