045 ,Kisii ,268 ,Kitutu Chache North  Karioki ,Innocent Machogu ,090  Umoja Summit Party ,USP ,
045 ,Kisii ,268 ,Kitutu Chache North  Kebaso ,David Samwel Nyakundi ,Ind ,Independent ,IND ,
045 ,Kisii ,268 ,Kitutu Chache North  Kwang'a ,Richard Mwebi ,081 ,United Progressive Alliance ,UPA ,
045 ,Kisii ,268 ,Kitutu Chache North  Moghere ,Charles Araka ,Ind ,Independent ,IND ,
045 ,Kisii ,268 ,Kitutu Chache North  Nyakundi ,Japheth Mokaya ,015 ,United Democratic  Alliance ,UDA ,
045 ,Kisii ,268 ,Kitutu Chache North  Ooga ,Gichana Don Bosco  Ind ,Independent ,IND ,
045 ,Kisii ,268 ,Kitutu Chache North  Ouya ,Stella Bosibori ,080 ,Usawa Kwa Wote Party ,USAWA ,
045 ,Kisii ,268 ,Kitutu Chache North  Samwel ,Omariba Nyakundi ,034  Safina ,SAFINA ,
045 ,Kisii ,269 ,Kitutu Chache South  Abuga ,Eric Osoro ,081 ,United Progressive Alliance ,UPA ,
045 ,Kisii ,269 ,Kitutu Chache South  Bwongeri ,Pius Abuki ,039 ,Peoples Democratic Party ,PDP ,
045 ,Kisii ,269 ,Kitutu Chache South  Kibagendi ,Antoney ,021 ,Orange Democratic Movement ,ODM ,
045 ,Kisii ,269 ,Kitutu Chache South  Maubi ,Andrew Mokaya ,012 ,Wiper Democratic Movement- Kenya ,WDM ,
045 ,Kisii ,269 ,Kitutu Chache South  Mochoge ,Justus Onsongo ,085 ,Democratic Action Party- Kenya ,DAP-K ,
