Running Mate Surname ,Running Mate Other Names ,Waihiga ,David Mwaure ,Mucheru ,Ruth Wambui ,017 ,Agano Party ,AGANO ,
Wajackoyah ,George Luchiri  Wamae ,Justina Wangui ,059 ,Roots Party of Kenya ,RPK ,
SECOND SCHEDULE ,NATIONAL ASSEMBLY ELECTION ,001 ,Mombasa ,001 ,Changamwe ,Alliy ,Goshi Juma ,Ind ,Independent ,IND ,
001 ,Mombasa ,001 ,Changamwe ,Daib ,Abdi Mohammed ,027  Jubilee Party ,JP ,
001 ,Mombasa ,001 ,Changamwe ,Fondo ,Florence Wawuda ,049 ,Federal Party Of Kenya ,FPK ,
001 ,Mombasa ,001 ,Changamwe ,Kaliih ,Paul Munyao ,062 ,ANC ,
001 ,Mombasa ,001 ,Changamwe ,Kiminza ,Ezekiel Matuku ,Ind ,Independent ,IND ,
001 ,Mombasa ,001 ,Changamwe ,Kyalo ,Kevin Munywoki ,012 ,WDM ,
001 ,Mombasa ,001 ,Changamwe ,Malila ,Mutuku Isaac ,015 ,United Democratic  Alliance ,UDA ,
001 ,Mombasa ,001 ,Changamwe ,Nganga ,Josephine Ndinda ,067 ,Maendeleo Chap Chap Party ,MCCP ,
001 ,Mombasa ,001 ,Changamwe ,Ojwang ,Fredrick Okolla ,039 ,Peoples Democratic Party ,PDP ,
