047 ,Nairobi City ,276 ,Dagoretti South ,Wakaba ,Edward Waithaka ,088 ,Tujibebe Wakenya Party ,JIBEBE ,
047 ,Nairobi City ,276 ,Dagoretti South ,Waweru ,Dennis Kariuki ,027  Jubilee Party ,JP ,
047 ,Nairobi City ,276 ,Dagoretti South ,Waweru ,Duncan Wahinya ,Ind ,Independent ,IND ,
047 ,Nairobi City ,276 ,Dagoretti South ,Waweru ,John Kiarie ,015 ,United Democratic  Alliance ,UDA ,
047 ,Nairobi City ,277 ,Langata ,Busienei ,Bornes Chepkoros ,002 ,The National Vision Party ,NVP ,
047 ,Nairobi City ,277 ,Langata ,Jepkemboi ,Caroline ,080 ,Usawa Kwa Wote Party ,USAWA ,
047 ,Nairobi City ,277 ,Langata ,Khodhe ,Phelix Odiwuor ,021 ,Orange Democratic Movement ,ODM ,
047 ,Nairobi City ,277 ,Langata ,Korir ,Generali Nixon Kiprotich ,015 ,United Democratic  Alliance ,UDA ,
047 ,Nairobi City ,277 ,Langata ,Mkarie ,Mbogai Sarah ,081 ,United Progressive Alliance ,UPA ,
047 ,Nairobi City ,277 ,Langata ,Ng'ang'a ,Samwel Maina ,034  Safina ,SAFINA ,
047 ,Nairobi City ,277 ,Langata ,Odongo ,Susan Atieno ,Ind ,Independent ,IND ,
047 ,Nairobi City ,277 ,Langata ,Okiri ,Thomas Awili ,Ind ,Independent ,IND ,
047 ,Nairobi City ,277 ,Langata ,Omingo ,Cliff Aboki ,056 ,Forum For Republican Democracy ,FORD ,
