047 ,Nairobi City ,290 ,Mathare ,Mwangi ,Emilio Kibui ,Ind ,Independent ,IND ,
047 ,Nairobi City ,290 ,Mathare ,Odera ,Daniel Tresvant ,085 ,Democratic Action Party- Kenya ,DAP-K ,
047 ,Nairobi City ,290 ,Mathare ,Ojiwa ,Billian Okoth ,015 ,United Democratic  Alliance ,UDA ,
047 ,Nairobi City ,290 ,Mathare ,Oluoch ,Anthony Tom ,021 ,Orange Democratic Movement ,ODM ,
THIRD SCHEDULE ,SENATE ELECTION ,County Code ,Party Code ,001 ,Mombasa ,Bwire ,Charles Okumu ,062 ,Amani  National  Congress ,ANC ,
001 ,Mombasa ,Elisha ,Kilale  Lawrence ,088 ,Tujibebe Wakenya Party ,JIBEBE ,
001 ,Mombasa ,Kassim ,Abdusalaam Ali ,012 ,WDM ,
001 ,Mombasa ,Katana ,Hazel Nyamoki ,027 ,Jubilee Party ,JP ,
001 ,Mombasa ,Miraj ,Abdalla Abubakar ,091 ,Pamoja African Alliance ,PAA ,
001 ,Mombasa ,Mittau ,Peterson ,067 ,Maendeleo Chap Chap Party ,MCCP ,
001 ,Mombasa ,Mohamed ,Mohamed Amir ,Ind ,Independent ,IND ,
001 ,Mombasa ,Mutune ,Cornelius Muuke ,046 ,UPIA ,
001 ,Mombasa ,Mwaguya ,Hamisi  Mashobo ,015 ,United  Democratic Alliance ,UDA ,
001 ,Mombasa ,Mwidau ,Hisham Abdulla ,Ind ,Independent  ,IND ,001 ,Mombasa ,Mwinyihaji ,Mohamed Faki ,021 ,ODM ,

001 ,Mombasa ,Somo ,Alamin Siwa ,Ind ,Independent ,IND ,

002 ,Kwale ,Akelo ,Prisca Oyuga ,083 ,NOPEU ,
002 ,Kwale ,Boy ,Issa Juma ,021 ,ODM ,
