039 ,Bungoma ,220 ,Kanduyi ,Muyala ,Rodgers Siboe ,049 ,Federal Party Of Kenya ,FPK ,
039 ,Bungoma ,220 ,Kanduyi ,Mzee ,Fredrick Wafula Wambanda ,062 ,Amani National Congress ,ANC ,
039 ,Bungoma ,220 ,Kanduyi ,Namai ,Dan Wafula ,Ind ,Independent ,IND ,
039 ,Bungoma ,220 ,Kanduyi ,Nyongesa , Ernest Wekesa ,Ind ,Independent ,IND ,
039 ,Bungoma ,220 ,Kanduyi ,Nyongesa ,Ferdinand Chirure ,027  Jubilee Party ,JP ,
039 ,Bungoma ,220 ,Kanduyi ,Sikulu ,George Wekesa ,033 ,Kenya African National Union ,KANU ,
039 ,Bungoma ,220 ,Kanduyi ,Stephen ,Kwesis Kinaibei ,071  National Liberal Party ,NLP ,
039 ,Bungoma ,220 ,Kanduyi ,Wamunyinyi ,Athanas Misiko Wafula ,085 ,Democratic Action Party- Kenya ,DAP-K ,
039 ,Bungoma ,220 ,Kanduyi ,Watai ,Brian Wekesa ,083 ,National Ordinary Peoples Empowerment Union ,NOPEU ,
039 ,Bungoma ,221 ,Webuye East ,Buyela ,Carolyne Nabalayo ,027  Jubilee Party ,JP ,
039 ,Bungoma ,221 ,Webuye East ,Chelongo ,Job Wafula ,064 ,United Democratic Party ,UDP ,
039 ,Bungoma ,221 ,Webuye East ,Masibo ,Aineah Muyundo ,015 ,United Democratic  Alliance ,UDA ,
039 ,Bungoma ,221 ,Webuye East ,Maurice ,Noah Chiuli ,Ind ,Independent ,IND ,
