018 ,Nyandarua ,092 ,Ol Jorok ,Maina ,Patrick Irungu ,Ind ,Independent ,IND ,
018 ,Nyandarua ,092 ,Ol Jorok ,Muchira ,Michael Mwangi ,015 ,United Democratic  Alliance ,UDA ,
018 ,Nyandarua ,092 ,Ol Jorok ,Weru ,Charles Gichuki ,Ind ,Independent ,IND ,
018 ,Nyandarua ,093 ,Ndaragwa ,Gachagua ,George N  ,015 ,United Democratic  Alliance ,UDA ,
018 ,Nyandarua ,093 ,Ndaragwa ,Gitonga ,Julius Kamoni ,Ind ,Independent ,IND ,
018 ,Nyandarua ,093 ,Ndaragwa ,Karanja ,Charles Mwangi ,080 ,Usawa Kwa Wote Party ,USAWA ,
018 ,Nyandarua ,093 ,Ndaragwa ,Kariuki ,Joseph Karanja ,Ind ,Independent ,IND ,
018 ,Nyandarua ,093 ,Ndaragwa ,Kioni ,Jeremiah Ngayu ,027  Jubilee Party ,JP ,
019 ,Nyeri ,094 ,Tetu ,Gachigi ,Francis Mahuria ,082  The Service Party  ,TSP ,
019 ,Nyeri ,094 ,Tetu ,Gitonga ,Alex Gathii ,040  The New Democrats ,TND ,
019 ,Nyeri ,094 ,Tetu ,Kamweru ,Peter Wambugu ,050  Muungano Party ,MUUNG,ANO ,
019 ,Nyeri ,094 ,Tetu ,Kariuki ,Edwin Wahome ,Ind ,Independent ,IND ,
019 ,Nyeri ,094 ,Tetu ,Muthaka ,Lucy Wanjiru ,Ind ,Independent ,IND ,
