County Code ,County Name ,Political Party Name ,010 ,Marsabit ,Harsama ,Philip Kello ,Lenarokushu  Stephen ,Loigusugus ,015 ,UDA ,
010 ,Marsabit ,Orre ,Sunya ,Chiwe ,James Elijah ,062 ,ANC ,
010 ,Marsabit ,Wako ,Wario Guyo ,Alla ,Osman Ibrahim  027 ,Jubilee Party ,JP ,
010 ,Marsabit ,Wario ,Pius Yattani ,Male ,Sole Male ,046 ,UPIA ,
011 ,Isiolo ,Adhi ,Godana Doyo  Mohamed ,Omar Hassan ,Ind ,Independent ,IND ,
011 ,Isiolo ,Dabasso ,Hussein Tene  Ntongondtu ,015 ,UDA ,
011 ,Isiolo ,Hassan ,Abdi Ibrahim  Lowasa ,James Long'or  027 ,Jubilee Party ,JP ,
011 ,Isiolo ,Machuguma ,Kimaita John  Giro ,Boru Dima ,034 ,Safina ,SAFINA ,
011 ,Isiolo ,Maorwe ,Mohamed ,Ibrahim Issack  014 ,PNU ,

011 ,Isiolo ,Waqo ,Halakhe Dida  Maingi ,021 ,ODM ,
012 ,Meru ,Linturi ,Kiome ,Lindah Gakii ,015 ,UDA ,
012 ,Meru ,Murungi ,Kiraitu ,Ntuchiu ,Titus ,008 ,DEP ,
012 ,Meru ,Mwangaza ,Kawira ,M`Ethingia ,Mutuma Isaac ,Ind ,Independent ,IND ,
013 ,Kagwima ,Mputhia ,Jones Munene  012 ,WDM ,
013 ,Kibunjia ,Micheni ,001 ,
013 ,Mbiuki ,Ashford Kaugi  Muthengi ,Nathan Murori  Ind ,Independent ,IND ,

013 ,Mbiuki ,Felix Gitari ,Gaichura ,087 ,Chama Cha Kazi ,KAZI ,
013 ,Njoka ,Erastus Nyaga  Rukunja ,027 ,Jubilee Party ,JP ,
013 ,Njuki ,Derebia ,015 ,UDA ,
014 ,Embu ,Kathuri ,Njuki ,Emily Thaara ,027 ,Jubilee Party ,JP ,
014 ,Embu ,Kivuti ,Ireri ,Joseph Nyaga ,008 ,DEP ,
