047 ,Nairobi City ,277 ,Langata ,Opiyo ,Lilian Akinyi ,029 ,National Rainbow Coalition ,NARC ,
047 ,Nairobi City ,277 ,Langata ,Osman ,Osman Abdullahi ,033 ,Kenya African National Union ,KANU ,
047 ,Nairobi City ,278 ,Kibra ,Karanja ,Peris Wanjiru ,050  Muungano Party ,MUUNG,ANO ,
047 ,Nairobi City ,278 ,Kibra ,Ndeda ,Edwin Imbalo ,046 ,United Party Of Independent Alliance ,UPIA ,
047 ,Nairobi City ,278 ,Kibra ,Noah ,Yusuf ,085 ,Democratic Action Party- Kenya ,DAP-K ,
047 ,Nairobi City ,278 ,Kibra ,Obayi ,Erick Ochieng ,Ind ,Independent ,IND ,
047 ,Nairobi City ,278 ,Kibra ,Okidi ,Fransco Ojiambo ,044 ,Party Of Democratic  Unity ,PDU ,
047 ,Nairobi City ,278 ,Kibra ,Okoth ,Benard Otieno ,Ind ,Independent ,IND ,
047 ,Nairobi City ,278 ,Kibra ,Orero ,Peter Ochieng ,021 ,Orange Democratic Movement ,ODM ,
047 ,Nairobi City ,278 ,Kibra ,Twahir A ,Malassen Hamida Musa ,062 ,Amani National Congress ,ANC ,
047 ,Nairobi City ,278 ,Kibra ,Wanyama ,Mcdonald Mariga ,015 ,United Democratic  Alliance ,UDA ,
047 ,Nairobi City ,279 ,Roysambu ,Kaburu ,Lawrence Muguna ,001 ,National Rainbow Coalition-Kenya ,NARC-,KENYA ,
047 ,Nairobi City ,279 ,Roysambu ,Kamau ,Lee Muchiri ,062 ,Amani National Congress ,ANC ,
