045 ,Kisii ,261 ,Bonchari ,Ombeta ,Cliff Marube ,015 ,United Democratic  Alliance ,UDA ,
045 ,Kisii ,261 ,Bonchari ,Onchoke ,Charles Mamwacha  081 ,United Progressive Alliance ,UPA ,
045 ,Kisii ,261 ,Bonchari ,Onkendi ,Ondieki Jonah ,021 ,Orange Democratic Movement ,ODM ,
045 ,Kisii ,261 ,Bonchari ,Opore ,Zebedeo John ,027  Jubilee Party ,JP ,
045 ,Kisii ,261 ,Bonchari ,Oyugi ,David Ogega ,009 ,Kenya National Congress ,KNC ,
045 ,Kisii ,262 ,South Mugirango ,Anyona ,Job Moracha ,079 ,United Green Movement ,UGM ,
045 ,Kisii ,262 ,South Mugirango ,Apepo ,Daniel Ombasa ,081 ,United Progressive Alliance ,UPA ,
045 ,Kisii ,262 ,South Mugirango ,Minyonga ,Zablon Rashid ,039 ,Peoples Democratic Party ,PDP ,
045 ,Kisii ,262 ,South Mugirango ,Nyambati ,Gilbert Atima ,067 ,Maendeleo Chap Chap Party ,MCCP ,
045 ,Kisii ,262 ,South Mugirango ,Omaoro ,Nyakweba Evans ,084 ,National Reconstruction Alliance ,NRA ,
045 ,Kisii ,262 ,South Mugirango ,Ombacho ,Kepha Mogere ,027  Jubilee Party ,JP ,
045 ,Kisii ,262 ,South Mugirango ,Omwoyo ,Willis Gasami Kiriago ,009 ,Kenya National Congress ,KNC ,
045 ,Kisii ,262 ,South Mugirango ,Onyiego ,Silvanus Osoro ,015 ,United Democratic  Alliance ,UDA ,
