033 ,Narok ,177 ,Kilgoris ,Joshua ,Partumai ,085 ,Democratic Action Party- Kenya ,DAP-K ,
033 ,Narok ,177 ,Kilgoris ,Kelele ,Richard ,Ind ,Independent ,IND ,
033 ,Narok ,177 ,Kilgoris ,Konchellah ,John Oloishuro ,061 ,Ubuntu Peoples Forum ,UPF ,
033 ,Narok ,177 ,Kilgoris ,Langat ,Johana   Kiprono ,Ind ,Independent ,IND ,
033 ,Narok ,177 ,Kilgoris ,Oiboo ,Morintat Peter ,021 ,Orange Democratic Movement ,ODM ,
033 ,Narok ,177 ,Kilgoris ,Ololtuaa ,John Lekakeny ,015 ,United Democratic  Alliance ,UDA ,
033 ,Narok ,177 ,Kilgoris ,Ronkoe ,Justus Lekokwa ,Ind ,Independent ,IND ,
033 ,Narok ,177 ,Kilgoris ,Sabaya ,Shadrack Olong'ui ,027  Jubilee Party ,JP ,
033 ,Narok ,177 ,Kilgoris ,Sunkuli ,Julius Lekakeny Ole  033 ,Kenya African National Union ,KANU ,
033 ,Narok ,177 ,Kilgoris ,Tasur ,Kipoki Oreu ,Ind ,Independent ,IND ,
033 ,Narok ,178 ,Emurua Dikirr ,Keter ,David Kipsang ,Ind ,Independent ,IND ,
033 ,Narok ,178 ,Emurua Dikirr ,Kiprono ,Shadrack Kirui ,062 ,Amani National Congress ,ANC ,
033 ,Narok ,178 ,Emurua Dikirr ,Milgo ,Chekurui Betty ,070 ,Green Congress Of Kenya ,GCK ,
