047 ,Nairobi City ,281 ,Ruaraka ,Okello ,Essau Elly ,Ind ,Independent ,IND ,
047 ,Nairobi City ,281 ,Ruaraka ,Okode ,Jared Okoth ,Ind ,Independent ,IND ,
047 ,Nairobi City ,281 ,Ruaraka ,Omondi ,William Opondo ,Ind ,Independent ,IND ,
047 ,Nairobi City ,281 ,Ruaraka ,Otsieno ,Maurice Ooko ,062 ,Amani National Congress ,ANC ,
047 ,Nairobi City ,282 ,Embakasi South ,Galma ,Zeinab Wario ,065  Kenya Reform Party ,KRP ,
047 ,Nairobi City ,282 ,Embakasi South ,Kalumba ,Urbanus Kaveva ,015 ,United Democratic  Alliance ,UDA ,
047 ,Nairobi City ,282 ,Embakasi South ,Kebati ,Janganya Erick ,Ind ,Independent ,IND ,
047 ,Nairobi City ,282 ,Embakasi South ,Mawathe ,Julius Musili ,012 ,Wiper Democratic Movement- Kenya ,WDM ,
047 ,Nairobi City ,282 ,Embakasi South ,Mogaka ,Jared Osiago ,081 ,United Progressive Alliance ,UPA ,
047 ,Nairobi City ,282 ,Embakasi South ,Onsomu ,Robert ,080 ,Usawa Kwa Wote Party ,USAWA ,
047 ,Nairobi City ,282 ,Embakasi South ,Otuke ,Silas Make ,085 ,Democratic Action Party- Kenya ,DAP-K ,
047 ,Nairobi City ,282 ,Embakasi South ,Sumra ,Irshadali Mohamed  021 ,Orange Democratic Movement ,ODM ,
047 ,Nairobi City ,282 ,Embakasi South ,Wafula ,Calystus ,064 ,United Democratic Party ,UDP ,
