040 ,Busia ,228 ,Matayos ,Olima ,Isaac Valentine ,Ind ,Independent ,IND ,
040 ,Busia ,228 ,Matayos ,Osore ,Emmanuel Charles ,023 ,Forum For Restoration Of Democracy-Kenya ,FORD-,KENYA ,
040 ,Busia ,228 ,Matayos ,Wadidwa ,Calvine Birenge ,033 ,Kenya African National Union ,KANU ,
040 ,Busia ,229 ,Butula ,Chessa ,Bonaventure Okola  015 ,United Democratic  Alliance ,UDA ,
040 ,Busia ,229 ,Butula ,Lunani ,Kelvin Kwena ,062 ,Amani National Congress ,ANC ,
040 ,Busia ,229 ,Butula ,Mung'ang'a ,Peter Wanzala ,Ind ,Independent ,IND ,
040 ,Busia ,229 ,Butula ,Oduya ,Elina Auma ,023 ,Forum For Restoration Of Democracy-Kenya ,FORD-,KENYA ,
040 ,Busia ,229 ,Butula ,Okaro ,George Teddy Sirima ,033 ,Kenya African National Union ,KANU ,
040 ,Busia ,229 ,Butula ,Onyura ,Michael Aringo ,064 ,United Democratic Party ,UDP ,
040 ,Busia ,229 ,Butula ,Oyula ,Joseph  H Maero ,021 ,Orange Democratic Movement ,ODM ,
040 ,Busia ,229 ,Butula ,Wanga ,David Maloba ,Ind ,Independent ,IND ,
040 ,Busia ,229 ,Butula ,Wangalwa ,Nobert Bwire ,085 ,Democratic Action Party- Kenya ,DAP-K ,
040 ,Busia ,230 ,Funyula ,Busera ,Emmanuel Edward ,044 ,Party Of Democratic  Unity ,PDU ,
