003 ,Kilifi ,013 ,Kaloleni ,Kenga ,Esther Henry ,090  Umoja Summit Party ,USP ,
003 ,Kilifi ,013 ,Kaloleni ,Kenga ,Fedinand Masha ,Ind ,Independent ,IND ,
003 ,Kilifi ,013 ,Kaloleni ,Mangi ,Raymond Furaha ,027  Jubilee Party ,JP ,
003 ,Kilifi ,013 ,Kaloleni ,Ngonyo ,Michael Hinzano ,Ind ,Independent ,IND ,
003 ,Kilifi ,013 ,Kaloleni ,Ria ,Japhet Mvoyi ,015 ,United Democratic  Alliance ,UDA ,
003 ,Kilifi ,013 ,Kaloleni ,Rimba ,Martin Chengo ,033 ,Kenya African National Union ,KANU ,
003 ,Kilifi ,013 ,Kaloleni ,Tsuma ,Edward Saro ,091 ,Pamoja African Alliance ,PAA ,
003 ,Kilifi ,014 ,Rabai ,Kalume ,Caroline ,027  Jubilee Party ,JP ,
003 ,Kilifi ,014 ,Rabai ,Kamoti ,Mdigo Mwamkale ,021 ,Orange Democratic Movement ,ODM ,
003 ,Kilifi ,014 ,Rabai ,Kaulu ,Philip Mbaji ,015 ,United Democratic  Alliance ,UDA ,
003 ,Kilifi ,014 ,Rabai ,Kombo ,David Swafi ,077 ,Justice And Freedom Party ,JFP ,
003 ,Kilifi ,014 ,Rabai ,Kondo ,Esther Ndolola ,034  Safina ,SAFINA ,
003 ,Kilifi ,014 ,Rabai ,Mackenzie ,Issah Omar ,Ind ,Independent ,IND ,
