OSMAN,ABDIRAHMAN ,011,ISIOLO,049,ISIOLO NORTH,0244,CHERAB,008,DEVOLUTION EMPOWERMENT PARTY,DEP
KAMAU,RAHAB WANGECHI ,011,ISIOLO,049,ISIOLO NORTH,0245,NGARE MARA,014,PARTY OF NATIONAL UNITY,PNU
LOCHILIA,ZACHARIA SILETA,011,ISIOLO,049,ISIOLO NORTH,0245,NGARE MARA,IND,INDEPENDENT,IND
LOKATO,JOSEPH NANGOR,011,ISIOLO,049,ISIOLO NORTH,0245,NGARE MARA,049,FEDERAL PARTY OF KENYA,FPK
LOPEYOK,LOSEKON SAMUEL ,011,ISIOLO,049,ISIOLO NORTH,0245,NGARE MARA,008,DEVOLUTION EMPOWERMENT PARTY,DEP
LOSHIUNG,EKUAM TERU,011,ISIOLO,049,ISIOLO NORTH,0245,NGARE MARA,027,JUBILEE PARTY,JP
LOYAN,PETER LOSU,011,ISIOLO,049,ISIOLO NORTH,0245,NGARE MARA,015,UNITED DEMOCRATIC  ALLIANCE,UDA
OME,MALAN EKAL,011,ISIOLO,049,ISIOLO NORTH,0245,NGARE MARA,033,KENYA AFRICAN NATIONAL UNION,KANU
ABEY,KHALIF ABDIRAHMAN,011,ISIOLO,049,ISIOLO NORTH,0246,BURAT,033,KENYA AFRICAN NATIONAL UNION,KANU
ADAN,IBRAHIM ALIOW,011,ISIOLO,049,ISIOLO NORTH,0246,BURAT,065,KENYA REFORM PARTY,KRP
AHMED,MOHAMED BARRE,011,ISIOLO,049,ISIOLO NORTH,0246,BURAT,023,FORUM FOR RESTORATION OF DEMOCRACY-KENYA,FORD-KENYA
ALI,ADAN HUSSEIN,011,ISIOLO,049,ISIOLO NORTH,0246,BURAT,017,AGANO PARTY,AGANO
DIMA,HUSSEIN MOHAMED,011,ISIOLO,049,ISIOLO NORTH,0246,BURAT,041,UNITED DEMOCRATIC MOVEMENT,UDM
EWOTON,LOROT NICHOLAS,011,ISIOLO,049,ISIOLO NORTH,0246,BURAT,015,UNITED DEMOCRATIC  ALLIANCE,UDA
FATUMA ,KARU  ABGUDO,011,ISIOLO,049,ISIOLO NORTH,0246,BURAT,IND,INDEPENDENT,IND
HALAKE, ABDIRAHAMAN ,011,ISIOLO,049,ISIOLO NORTH,0246,BURAT,068,DEMOCRATIC CONGRESS,DC
HASSAN,ABDI OSMAN,011,ISIOLO,049,ISIOLO NORTH,0246,BURAT,IND,INDEPENDENT,IND
HILLOW,ABAS MOHAMED,011,ISIOLO,049,ISIOLO NORTH,0246,BURAT,034,SAFINA,SAFINA
JILLO,NUNO HASSA,011,ISIOLO,049,ISIOLO NORTH,0246,BURAT,IND,INDEPENDENT,IND
KASIM,ANAB,011,ISIOLO,049,ISIOLO NORTH,0246,BURAT,085,DEMOCRATIC ACTION PARTY- KENYA,DAP-K
KUWAM,JOSEPH LORUNYEI,011,ISIOLO,049,ISIOLO NORTH,0246,BURAT,080,USAWA KWA WOTE PARTY,USAWA
MAMO,ABDI ALI,011,ISIOLO,049,ISIOLO NORTH,0246,BURAT,032,COMMUNIST PARTY OF KENYA,CPK
MANDERA,ABDIRIZAK ADAN,011,ISIOLO,049,ISIOLO NORTH,0246,BURAT,088,TUJIBEBE WAKENYA PARTY,JIBEBE
MERO,PAUL ,011,ISIOLO,049,ISIOLO NORTH,0246,BURAT,008,DEVOLUTION EMPOWERMENT PARTY,DEP
MOHAMED,ABDIKARIM ISSACK,011,ISIOLO,049,ISIOLO NORTH,0246,BURAT,014,PARTY OF NATIONAL UNITY,PNU
NANGUNYE,CHAPARA TARAYA ,011,ISIOLO,049,ISIOLO NORTH,0246,BURAT,083,NATIONAL ORDINARY PEOPLES EMPOWERMENT ,NOPEU
OMAR,SIAD BILLOW,011,ISIOLO,049,ISIOLO NORTH,0246,BURAT,001,NATIONAL RAINBOW COALITION-KENYA,NARC-KENYA
RARI,ALINOOR HASSAN,011,ISIOLO,049,ISIOLO NORTH,0246,BURAT,IND,INDEPENDENT,IND
WARIO,ADAN DUBA,011,ISIOLO,049,ISIOLO NORTH,0246,BURAT,012,WIPER DEMOCRATIC MOVEMENT- KENYA,WDM
WARIO,YAROW HASSAN,011,ISIOLO,049,ISIOLO NORTH,0246,BURAT,027,JUBILEE PARTY,JP
WATO,HASSAN BONAYA,011,ISIOLO,049,ISIOLO NORTH,0246,BURAT,046,UNITED PARTY OF INDEPENDENT ALLIANCE,UPIA
LEKURTUT,LTEMUCHE PETER,011,ISIOLO,049,ISIOLO NORTH,0247,OLDO NYIRO,015,UNITED DEMOCRATIC  ALLIANCE,UDA
LEMANTILE,LTIRISIAN DAVID,011,ISIOLO,049,ISIOLO NORTH,0247,OLDO NYIRO,033,KENYA AFRICAN NATIONAL UNION,KANU
LESINGIRAN,JOHN LAWRENCE,011,ISIOLO,049,ISIOLO NORTH,0247,OLDO NYIRO,027,JUBILEE PARTY,JP
