LOGEDI,PATRICK KANYANGI,047,NAIROBI CITY,288,KAMUKUNJI,1436,EASTLEIGH SOUTH ,IND,INDEPENDENT,IND
MAINA,SIMON KANUMBI,047,NAIROBI CITY,288,KAMUKUNJI,1436,EASTLEIGH SOUTH ,090,UMOJA SUMMIT PARTY,USP
MARAKALU,NELSON MASIGA,047,NAIROBI CITY,288,KAMUKUNJI,1436,EASTLEIGH SOUTH ,064,UNITED DEMOCRATIC PARTY,UDP
MUENI,MUHABUB MUSYOKA,047,NAIROBI CITY,288,KAMUKUNJI,1436,EASTLEIGH SOUTH ,012,WIPER DEMOCRATIC MOVEMENT- KENYA,WDM
MUSEE,NICHOLAS KASINGA,047,NAIROBI CITY,288,KAMUKUNJI,1436,EASTLEIGH SOUTH ,IND,INDEPENDENT,IND
NJOROGE,ANTHONY KIRUBI ,047,NAIROBI CITY,288,KAMUKUNJI,1436,EASTLEIGH SOUTH ,015,UNITED DEMOCRATIC  ALLIANCE,UDA
NZINGILI,FERDINARD KITHEKA,047,NAIROBI CITY,288,KAMUKUNJI,1436,EASTLEIGH SOUTH ,IND,INDEPENDENT,IND
TAMBULA,PAMELA KHAZIKA,047,NAIROBI CITY,288,KAMUKUNJI,1436,EASTLEIGH SOUTH ,038,PEOPLES EMPOWERMENT PARTY,PEP
WAMBUI,JOSPHAT KIMANI MWENDWA,047,NAIROBI CITY,288,KAMUKUNJI,1436,EASTLEIGH SOUTH ,080,USAWA KWA WOTE PARTY,USAWA
WERE,PATRICK CHIBOLE,047,NAIROBI CITY,288,KAMUKUNJI,1436,EASTLEIGH SOUTH ,085,DEMOCRATIC ACTION PARTY- KENYA,DAP-K
ABDIO,YAHYA MOHAMED ,047,NAIROBI CITY,288,KAMUKUNJI,1437,AIRBASE,041,UNITED DEMOCRATIC MOVEMENT,UDM
ABDULLA,MOHAMUD HASSAN,047,NAIROBI CITY,288,KAMUKUNJI,1437,AIRBASE,IND,INDEPENDENT,IND
ABDULLAHI,ADAN ABDIAZIZ,047,NAIROBI CITY,288,KAMUKUNJI,1437,AIRBASE,IND,INDEPENDENT,IND
ARESS,HASSAN MOHAMED ,047,NAIROBI CITY,288,KAMUKUNJI,1437,AIRBASE,013,DEMOCRATIC PARTY OF KENYA,DP
DAGANE,ABDI HASSAN,047,NAIROBI CITY,288,KAMUKUNJI,1437,AIRBASE,IND,INDEPENDENT,IND
DAUD,MOHAMED BORU,047,NAIROBI CITY,288,KAMUKUNJI,1437,AIRBASE,003,THE LABOUR PARTY OF KENYA,LPK
EKAI,LUQMAN ,047,NAIROBI CITY,288,KAMUKUNJI,1437,AIRBASE,046,UNITED PARTY OF INDEPENDENT ALLIANCE,UPIA
GICHUNGE,ANDREW KABERIA ,047,NAIROBI CITY,288,KAMUKUNJI,1437,AIRBASE,014,PARTY OF NATIONAL UNITY,PNU
MESOPIRR,SILA ALEX LESHOO ,047,NAIROBI CITY,288,KAMUKUNJI,1437,AIRBASE,080,USAWA KWA WOTE PARTY,USAWA
MOHAMED,FUAD HUSSEIN,047,NAIROBI CITY,288,KAMUKUNJI,1437,AIRBASE,021,ORANGE DEMOCRATIC MOVEMENT,ODM
MOHAMED,NIMA BASHIR,047,NAIROBI CITY,288,KAMUKUNJI,1437,AIRBASE,083,NATIONAL ORDINARY PEOPLES EMPOWERMENT ,NOPEU
MUTUMA,ELIJAH ,047,NAIROBI CITY,288,KAMUKUNJI,1437,AIRBASE,008,DEVOLUTION EMPOWERMENT PARTY,DEP
MWETI,ELIUS MIRITI,047,NAIROBI CITY,288,KAMUKUNJI,1437,AIRBASE,012,WIPER DEMOCRATIC MOVEMENT- KENYA,WDM
NJOROGE,JOSEPH  NGUGI,047,NAIROBI CITY,288,KAMUKUNJI,1437,AIRBASE,IND,INDEPENDENT,IND
OMAR,ABDIAZIZ BISHAR,047,NAIROBI CITY,288,KAMUKUNJI,1437,AIRBASE,015,UNITED DEMOCRATIC  ALLIANCE,UDA
ABDI,ABDIKADIR SHEIKH ,047,NAIROBI CITY,288,KAMUKUNJI,1438,CALIFORNIA,IND,INDEPENDENT,IND
ABDI,LUL MOHAMED,047,NAIROBI CITY,288,KAMUKUNJI,1438,CALIFORNIA,085,DEMOCRATIC ACTION PARTY- KENYA,DAP-K
ABDI,MOHMED AHMED,047,NAIROBI CITY,288,KAMUKUNJI,1438,CALIFORNIA,083,NATIONAL ORDINARY PEOPLES EMPOWERMENT ,NOPEU
ATHMAN,HASHIM KAMAU,047,NAIROBI CITY,288,KAMUKUNJI,1438,CALIFORNIA,015,UNITED DEMOCRATIC  ALLIANCE,UDA
MOHSIN,HASSAN ABDULHAKIM,047,NAIROBI CITY,288,KAMUKUNJI,1438,CALIFORNIA,033,KENYA AFRICAN NATIONAL UNION,KANU
MUJURI,KAMENCU MWENDA,047,NAIROBI CITY,288,KAMUKUNJI,1438,CALIFORNIA,008,DEVOLUTION EMPOWERMENT PARTY,DEP
NDETO,EZEKIEL KIVUITU,047,NAIROBI CITY,288,KAMUKUNJI,1438,CALIFORNIA,080,USAWA KWA WOTE PARTY,USAWA
NGOYO,DORIS  KANARIO,047,NAIROBI CITY,288,KAMUKUNJI,1438,CALIFORNIA,027,JUBILEE PARTY,JP
OMBONA,ANTONY MAINA,047,NAIROBI CITY,288,KAMUKUNJI,1438,CALIFORNIA,062,AMANI NATIONAL CONGRESS,ANC
