MOHAMED,ALI ABDI,008,WAJIR,033,WAJIR NORTH,0162,BUTE,033,KENYA AFRICAN NATIONAL UNION,KANU
MOHAMED,ALI OMAR,008,WAJIR,033,WAJIR NORTH,0162,BUTE,046,UNITED PARTY OF INDEPENDENT ALLIANCE,UPIA
ADEN,ABDIKARIM MOHAMED,008,WAJIR,033,WAJIR NORTH,0163,KORONDILE,027,JUBILEE PARTY,JP
IBRAHIM,ABDIRIZAK DAKAT ,008,WAJIR,033,WAJIR NORTH,0163,KORONDILE,015,UNITED DEMOCRATIC  ALLIANCE,UDA
MOHAMED,MOHAMED YUSSUF ,008,WAJIR,033,WAJIR NORTH,0163,KORONDILE,085,DEMOCRATIC ACTION PARTY- KENYA,DAP-K
MOHAMUD,ABDULLAHI DERROW,008,WAJIR,033,WAJIR NORTH,0163,KORONDILE,033,KENYA AFRICAN NATIONAL UNION,KANU
NUR,IDRIS MOHAMUD,008,WAJIR,033,WAJIR NORTH,0163,KORONDILE,041,UNITED DEMOCRATIC MOVEMENT,UDM
SHEIKH,ROBLE HUSSEIN,008,WAJIR,033,WAJIR NORTH,0163,KORONDILE,IND,INDEPENDENT,IND
ABDALLA,MOHAMEDNOOR HUSSEIN,008,WAJIR,033,WAJIR NORTH,0164,MALKAGUFU,046,UNITED PARTY OF INDEPENDENT ALLIANCE,UPIA
ABDI,ABDIRAHMAN ALI,008,WAJIR,033,WAJIR NORTH,0164,MALKAGUFU,085,DEMOCRATIC ACTION PARTY- KENYA,DAP-K
AHMED,YUNIS HUDHOW,008,WAJIR,033,WAJIR NORTH,0164,MALKAGUFU,064,UNITED DEMOCRATIC PARTY,UDP
MAALIM,MOHAMUD ABDULLA,008,WAJIR,033,WAJIR NORTH,0164,MALKAGUFU,015,UNITED DEMOCRATIC  ALLIANCE,UDA
OSMAN,AYUB ABDI,008,WAJIR,033,WAJIR NORTH,0164,MALKAGUFU,021,ORANGE DEMOCRATIC MOVEMENT,ODM
ABDI,ADANNUR IBRAHIM ,008,WAJIR,033,WAJIR NORTH,0165,BATALU,033,KENYA AFRICAN NATIONAL UNION,KANU
ADAN,DAUD MOHAMED,008,WAJIR,033,WAJIR NORTH,0165,BATALU,027,JUBILEE PARTY,JP
ADOW,ABDISALAN ABDIWAHID,008,WAJIR,033,WAJIR NORTH,0165,BATALU,041,UNITED DEMOCRATIC MOVEMENT,UDM
ALI,ABDISHUKRI HUSSEIN,008,WAJIR,033,WAJIR NORTH,0165,BATALU,021,ORANGE DEMOCRATIC MOVEMENT,ODM
HASSAN,JIMAL ABDI,008,WAJIR,033,WAJIR NORTH,0165,BATALU,085,DEMOCRATIC ACTION PARTY- KENYA,DAP-K
IDHOW,ADAN IBRAHIM,008,WAJIR,033,WAJIR NORTH,0165,BATALU,015,UNITED DEMOCRATIC  ALLIANCE,UDA
NOOR,GEDI RAHEY,008,WAJIR,033,WAJIR NORTH,0165,BATALU,001,NATIONAL RAINBOW COALITION-KENYA,NARC-KENYA
ABDIRAHMAN,ALI MOHAMED,008,WAJIR,033,WAJIR NORTH,0166,DANABA,046,UNITED PARTY OF INDEPENDENT ALLIANCE,UPIA
ALI, ALINOOR ISSACK,008,WAJIR,033,WAJIR NORTH,0166,DANABA,021,ORANGE DEMOCRATIC MOVEMENT,ODM
HASSAN,HUSSEIN IBRAHIM,008,WAJIR,033,WAJIR NORTH,0166,DANABA,085,DEMOCRATIC ACTION PARTY- KENYA,DAP-K
ISACK,IBRAHIM HASSAN,008,WAJIR,033,WAJIR NORTH,0166,DANABA,012,WIPER DEMOCRATIC MOVEMENT- KENYA,WDM
MOHAMED,IDRIS BULLE,008,WAJIR,033,WAJIR NORTH,0166,DANABA,037,NATIONAL AGENDA PARTY OF KENYA,NAPK
ABDI,ABDULLAHI MOHAMEDNOOR,008,WAJIR,033,WAJIR NORTH,0167,GODOMA,001,NATIONAL RAINBOW COALITION-KENYA,NARC-KENYA
ABDIRAHMAN,AHMED ABDULLAHI,008,WAJIR,033,WAJIR NORTH,0167,GODOMA,023,FORUM FOR RESTORATION OF DEMOCRACY-KENYA,FORD-KENYA
ADOW,ABDIKARIM SALAT ,008,WAJIR,033,WAJIR NORTH,0167,GODOMA,041,UNITED DEMOCRATIC MOVEMENT,UDM
AHMED,HASSAN MAHAMED ,008,WAJIR,033,WAJIR NORTH,0167,GODOMA,015,UNITED DEMOCRATIC  ALLIANCE,UDA
ALI,ABDIHAKIN OMAR,008,WAJIR,033,WAJIR NORTH,0167,GODOMA,027,JUBILEE PARTY,JP
BAROW,ALINUR OROW,008,WAJIR,033,WAJIR NORTH,0167,GODOMA,033,KENYA AFRICAN NATIONAL UNION,KANU
IBRAHIM,ABDIRAHMAN MALU,008,WAJIR,033,WAJIR NORTH,0167,GODOMA,021,ORANGE DEMOCRATIC MOVEMENT,ODM
YUSSUF,ADAN AHMED,008,WAJIR,033,WAJIR NORTH,0167,GODOMA,085,DEMOCRATIC ACTION PARTY- KENYA,DAP-K
ABDILLE,MUSA KORAR,008,WAJIR,034,WAJIR EAST,0168,WAGBERI,062,AMANI NATIONAL CONGRESS,ANC
