OPANY,RAPHAEL OKUMU,026,TRANS NZOIA,140,CHERANGANY,0694,SINYERERE,021,ORANGE DEMOCRATIC MOVEMENT,ODM
OSIAKO,KEVIN OLONGO,026,TRANS NZOIA,140,CHERANGANY,0694,SINYERERE,089,KENYA UNION PARTY,KUP
SIFUNA,DORCAS NASIMIYU ,026,TRANS NZOIA,140,CHERANGANY,0694,SINYERERE,027,JUBILEE PARTY,JP
WEKESA,ELIUD WAFULA,026,TRANS NZOIA,140,CHERANGANY,0694,SINYERERE,023,FORUM FOR RESTORATION OF DEMOCRACY-KENYA,FORD-KENYA
GITHAMARI,DAVIDSON GICHEHA,026,TRANS NZOIA,140,CHERANGANY,0695,MAKUTANO,085,DEMOCRATIC ACTION PARTY- KENYA,DAP-K
KITUA,ISAAC MUINDE,026,TRANS NZOIA,140,CHERANGANY,0695,MAKUTANO,IND,INDEPENDENT,IND
MANANA,JOSEPH JUMA,026,TRANS NZOIA,140,CHERANGANY,0695,MAKUTANO,027,JUBILEE PARTY,JP
MISOGA,WYCLIFFE MUSU,026,TRANS NZOIA,140,CHERANGANY,0695,MAKUTANO,IND,INDEPENDENT,IND
MULAMBULA,JOSPHAT MULWA,026,TRANS NZOIA,140,CHERANGANY,0695,MAKUTANO,021,ORANGE DEMOCRATIC MOVEMENT,ODM
NDIRANGU,CHARLES GITONGA ,026,TRANS NZOIA,140,CHERANGANY,0695,MAKUTANO,015,UNITED DEMOCRATIC  ALLIANCE,UDA
NGUNYI,MICHAEL MAINA,026,TRANS NZOIA,140,CHERANGANY,0695,MAKUTANO,082,THE SERVICE PARTY,TSP
RONO,EMILY CHEPCHIRCHIR,026,TRANS NZOIA,140,CHERANGANY,0695,MAKUTANO,IND,INDEPENDENT,IND
WAWERU,JOHN GICHERU,026,TRANS NZOIA,140,CHERANGANY,0695,MAKUTANO,023,FORUM FOR RESTORATION OF DEMOCRACY-KENYA,FORD-KENYA
GITAGIA,BONIFACE KIARIE,026,TRANS NZOIA,140,CHERANGANY,0696,KAPLAMAI,040,THE NEW DEMOCRATS,TND
MABELE,ZEBEDEE MUKHWANA,026,TRANS NZOIA,140,CHERANGANY,0696,KAPLAMAI,023,FORUM FOR RESTORATION OF DEMOCRACY-KENYA,FORD-KENYA
MANJARI,ELIKANA KAGUNDA ,026,TRANS NZOIA,140,CHERANGANY,0696,KAPLAMAI,027,JUBILEE PARTY,JP
MOSBEI,DANIEL KIPRUGUT,026,TRANS NZOIA,140,CHERANGANY,0696,KAPLAMAI,015,UNITED DEMOCRATIC  ALLIANCE,UDA
MUNGAI,CYNTHIA NJERI,026,TRANS NZOIA,140,CHERANGANY,0696,KAPLAMAI,IND,INDEPENDENT,IND
MUTULI,SAM BUYERA,026,TRANS NZOIA,140,CHERANGANY,0696,KAPLAMAI,IND,INDEPENDENT,IND
NYUKURI,ARCHIBALD WEKESA,026,TRANS NZOIA,140,CHERANGANY,0696,KAPLAMAI,IND,INDEPENDENT,IND
SIALO,FELIX WEKESA,026,TRANS NZOIA,140,CHERANGANY,0696,KAPLAMAI,085,DEMOCRATIC ACTION PARTY- KENYA,DAP-K
WANYONYI,VINCENT SIMIYU,026,TRANS NZOIA,140,CHERANGANY,0696,KAPLAMAI,034,SAFINA,SAFINA
ALLIANGANA,BERNARD MUGANDA,026,TRANS NZOIA,140,CHERANGANY,0697,MOTOSIET,023,FORUM FOR RESTORATION OF DEMOCRACY-KENYA,FORD-KENYA
ISINGA,CHARLES MUHAVI,026,TRANS NZOIA,140,CHERANGANY,0697,MOTOSIET,085,DEMOCRATIC ACTION PARTY- KENYA,DAP-K
KHAMISI,JOHNSTONE AMUKAKA,026,TRANS NZOIA,140,CHERANGANY,0697,MOTOSIET,062,AMANI NATIONAL CONGRESS,ANC
KURGAT,JACQUILINE,026,TRANS NZOIA,140,CHERANGANY,0697,MOTOSIET,015,UNITED DEMOCRATIC  ALLIANCE,UDA
LOKWETE,PAUL MNANGAT,026,TRANS NZOIA,140,CHERANGANY,0697,MOTOSIET,IND,INDEPENDENT,IND
MULUPI,BERNARD,026,TRANS NZOIA,140,CHERANGANY,0697,MOTOSIET,033,KENYA AFRICAN NATIONAL UNION,KANU
NYONGESA,SIMON BARASA,026,TRANS NZOIA,140,CHERANGANY,0697,MOTOSIET,021,ORANGE DEMOCRATIC MOVEMENT,ODM
PEPELA,WILLY WEKESA,026,TRANS NZOIA,140,CHERANGANY,0697,MOTOSIET,IND,INDEPENDENT,IND
BETT,JONATHAN NGETICH,026,TRANS NZOIA,140,CHERANGANY,0698,CHERANGANY SUWERWA,064,UNITED DEMOCRATIC PARTY,UDP
GATIHI,JORAM NJOROGE,026,TRANS NZOIA,140,CHERANGANY,0698,CHERANGANY SUWERWA,085,DEMOCRATIC ACTION PARTY- KENYA,DAP-K
KOECH,EDWIN KOSGEI,026,TRANS NZOIA,140,CHERANGANY,0698,CHERANGANY SUWERWA,015,UNITED DEMOCRATIC  ALLIANCE,UDA
ORANG' O,MATHEW NYACHIEO,026,TRANS NZOIA,140,CHERANGANY,0698,CHERANGANY SUWERWA,023,FORUM FOR RESTORATION OF DEMOCRACY-KENYA,FORD-KENYA
