MGANDI,HUSSEIN KAINGU,002,KWALE,010,KINANGO,0047,MACKINNON ROAD ,012,WIPER DEMOCRATIC MOVEMENT- KENYA,WDM
MWACHANZE,JUMA MWAKANJU,002,KWALE,010,KINANGO,0047,MACKINNON ROAD ,033,KENYA AFRICAN NATIONAL UNION,KANU
MWAKALE,DANIEL MWALUFICHO,002,KWALE,010,KINANGO,0047,MACKINNON ROAD ,085,DEMOCRATIC ACTION PARTY- KENYA,DAP-K
MWANYAE,MWAGAWARY MWASOKO,002,KWALE,010,KINANGO,0047,MACKINNON ROAD ,021,ORANGE DEMOCRATIC MOVEMENT,ODM
MWARUWA,SULEIMAN NDILO,002,KWALE,010,KINANGO,0047,MACKINNON ROAD ,080,USAWA KWA WOTE PARTY,USAWA
NIAMATKHAN,AFIS KHAN AZIZ KHAN,002,KWALE,010,KINANGO,0047,MACKINNON ROAD ,042,SHIRIKISHO PARTY OF KENYA,SPK
CHIBAO,MOHAMMED NGOWA,002,KWALE,010,KINANGO,0048,CHENGONI SAMBURU,041,UNITED DEMOCRATIC MOVEMENT,UDM
CHINYAMA,EDWARD DALU,002,KWALE,010,KINANGO,0048,CHENGONI SAMBURU,015,UNITED DEMOCRATIC  ALLIANCE,UDA
MNYIKA,EMMANUEL MWAYAYA,002,KWALE,010,KINANGO,0048,CHENGONI SAMBURU,021,ORANGE DEMOCRATIC MOVEMENT,ODM
MWANGO,ELISHA KALU,002,KWALE,010,KINANGO,0048,CHENGONI SAMBURU,IND,INDEPENDENT,IND
NDARO,EMANUEL KADUDZE,002,KWALE,010,KINANGO,0048,CHENGONI SAMBURU,030,KENYA AFRICAN DEMOCRATIC UNION-ASILI,KADU-ASILI
NDEGWA,ELIAS TSIMBA,002,KWALE,010,KINANGO,0048,CHENGONI SAMBURU,IND,INDEPENDENT,IND
NGALA,CHARLES KARISA,002,KWALE,010,KINANGO,0048,CHENGONI SAMBURU,090,UMOJA SUMMIT PARTY,USP
NYAE,EMMANUEL MBANDI,002,KWALE,010,KINANGO,0048,CHENGONI SAMBURU,033,KENYA AFRICAN NATIONAL UNION,KANU
SHEDE,JOHN MWATELA,002,KWALE,010,KINANGO,0048,CHENGONI SAMBURU,091,PAMOJA AFRICAN ALLIANCE,PAA
BENNZAO,HAMMISS NZAO,002,KWALE,010,KINANGO,0049,MWAVUMBO,044,PARTY OF DEMOCRATIC  UNITY,PDU
DZOMBO,ELISHA BAYA,002,KWALE,010,KINANGO,0049,MWAVUMBO,IND,INDEPENDENT,IND
GONDA,JULIUS MBAO,002,KWALE,010,KINANGO,0049,MWAVUMBO,023,FORUM FOR RESTORATION OF DEMOCRACY-KENYA,FORD-KENYA
KADHEKE,JACKSON MUTINDA ,002,KWALE,010,KINANGO,0049,MWAVUMBO,082,THE SERVICE PARTY,TSP
KANONA,KANONA MAMBO ,002,KWALE,010,KINANGO,0049,MWAVUMBO,072,MOVEMENT FOR DEMOCRACY AND GROWTH,MDG
KOMBO,HAMISI MKAHA,002,KWALE,010,KINANGO,0049,MWAVUMBO,015,UNITED DEMOCRATIC  ALLIANCE,UDA
MATAZA,ELIUS BONGO,002,KWALE,010,KINANGO,0049,MWAVUMBO,080,USAWA KWA WOTE PARTY,USAWA
MAZERAH,RAMA MWANJIRA,002,KWALE,010,KINANGO,0049,MWAVUMBO,054,CHAMA CHA MASHINANI,CCM
MBOGA,GLADYS MBEYU,002,KWALE,010,KINANGO,0049,MWAVUMBO,091,PAMOJA AFRICAN ALLIANCE,PAA
MUNGA,KEA SAMSON,002,KWALE,010,KINANGO,0049,MWAVUMBO,041,UNITED DEMOCRATIC MOVEMENT,UDM
MWAEGA,EMMANUEL MALAU,002,KWALE,010,KINANGO,0049,MWAVUMBO,012,WIPER DEMOCRATIC MOVEMENT- KENYA,WDM
MWANGOMBE,RASHID MWADIGA,002,KWALE,010,KINANGO,0049,MWAVUMBO,036,CHAMA CHA UZALENDO,CCU
MWERO,RAJABU DZUHA,002,KWALE,010,KINANGO,0049,MWAVUMBO,IND,INDEPENDENT,IND
NDEME,JOSEPH KITUMBO,002,KWALE,010,KINANGO,0049,MWAVUMBO,021,ORANGE DEMOCRATIC MOVEMENT,ODM
NURI,KACHE KARISA,002,KWALE,010,KINANGO,0049,MWAVUMBO,030,KENYA AFRICAN DEMOCRATIC UNION-ASILI,KADU-ASILI
NYAWA,MWINYI KAZUNGU,002,KWALE,010,KINANGO,0049,MWAVUMBO,062,AMANI NATIONAL CONGRESS,ANC
BATI,NGUTTAH NYAMAWI,002,KWALE,010,KINANGO,0050,KASEMENI,012,WIPER DEMOCRATIC MOVEMENT- KENYA,WDM
CHAKAYA,MARGARET HAMISI ,002,KWALE,010,KINANGO,0050,KASEMENI,040,THE NEW DEMOCRATS,TND
CHIPHATSI,KAKENGA THOMAS ,002,KWALE,010,KINANGO,0050,KASEMENI,044,PARTY OF DEMOCRATIC  UNITY,PDU
