GAICIMA,JONAH MAJAU,013,THARAKA - NITHI,062,THARAKA,0307,MUKOTHIMA,IND,INDEPENDENT,IND
KARUGURU,SIMON NJAGI KATHENYA,013,THARAKA - NITHI,062,THARAKA,0307,MUKOTHIMA,023,FORUM FOR RESTORATION OF DEMOCRACY-KENYA,FORD-KENYA
KATHENYA,BENJAMIN NJERU,013,THARAKA - NITHI,062,THARAKA,0307,MUKOTHIMA,IND,INDEPENDENT,IND
KITHUKAH,ANN KANGAI,013,THARAKA - NITHI,062,THARAKA,0307,MUKOTHIMA,IND,INDEPENDENT,IND
MARENGO,LUKE NYAGAH NJERU,013,THARAKA - NITHI,062,THARAKA,0307,MUKOTHIMA,015,UNITED DEMOCRATIC  ALLIANCE,UDA
MIKE,SARAH KARIMI,013,THARAKA - NITHI,062,THARAKA,0307,MUKOTHIMA,063,DEVOLUTION PARTY OF KENYA,DPK
MUCHEGE,JACKSON NJAGI,013,THARAKA - NITHI,062,THARAKA,0307,MUKOTHIMA,IND,INDEPENDENT,IND
MUGAMBI,GODFREY NJOE,013,THARAKA - NITHI,062,THARAKA,0307,MUKOTHIMA,062,AMANI NATIONAL CONGRESS,ANC
MUTEGI,PATERSON GITONGAH,013,THARAKA - NITHI,062,THARAKA,0307,MUKOTHIMA,021,ORANGE DEMOCRATIC MOVEMENT,ODM
MUTIIRIA,STEPHEN MUTHENGI,013,THARAKA - NITHI,062,THARAKA,0307,MUKOTHIMA,082,THE SERVICE PARTY,TSP
NTHIGA,MILCENT MUGGANA,013,THARAKA - NITHI,062,THARAKA,0307,MUKOTHIMA,013,DEMOCRATIC PARTY OF KENYA,DP
NYAGA,PIUS  KIRIMI,013,THARAKA - NITHI,062,THARAKA,0307,MUKOTHIMA,IND,INDEPENDENT,IND
ICHENGA,GERALD MUGAO,013,THARAKA - NITHI,062,THARAKA,0308,NKONDI,IND,INDEPENDENT,IND
KINYUA,NITON,013,THARAKA - NITHI,062,THARAKA,0308,NKONDI,080,USAWA KWA WOTE PARTY,USAWA
KITHUKA,GITONGA LEONARD JACKSON,013,THARAKA - NITHI,062,THARAKA,0308,NKONDI,015,UNITED DEMOCRATIC  ALLIANCE,UDA
MUKEMBU,STEPHEN NJERU,013,THARAKA - NITHI,062,THARAKA,0308,NKONDI,IND,INDEPENDENT,IND
MURAUKO,EVONTUS WANYIKA,013,THARAKA - NITHI,062,THARAKA,0308,NKONDI,IND,INDEPENDENT,IND
RUGURI, DAVID NJERU ,013,THARAKA - NITHI,062,THARAKA,0308,NKONDI,082,THE SERVICE PARTY,TSP
RUGURUH,BLASIUS  MUGAO,013,THARAKA - NITHI,062,THARAKA,0308,NKONDI,027,JUBILEE PARTY,JP
GICHOBI,JACKSON,013,THARAKA - NITHI,062,THARAKA,0309,CHIAKARIGA,IND,INDEPENDENT,IND
HAMDAN,DAVID NYAGA,013,THARAKA - NITHI,062,THARAKA,0309,CHIAKARIGA,082,THE SERVICE PARTY,TSP
JOHN,JULIUS GITONGA,013,THARAKA - NITHI,062,THARAKA,0309,CHIAKARIGA,013,DEMOCRATIC PARTY OF KENYA,DP
KATHUMBI,JAMES GITONGA,013,THARAKA - NITHI,062,THARAKA,0309,CHIAKARIGA,IND,INDEPENDENT,IND
KAUNGA,FREDRICK MUTEGI ,013,THARAKA - NITHI,062,THARAKA,0309,CHIAKARIGA,062,AMANI NATIONAL CONGRESS,ANC
KITHARARI,CHABARI TITUS ,013,THARAKA - NITHI,062,THARAKA,0309,CHIAKARIGA,008,DEVOLUTION EMPOWERMENT PARTY,DEP
KITHURE,ZACHARY MPANDA ,013,THARAKA - NITHI,062,THARAKA,0309,CHIAKARIGA,IND,INDEPENDENT,IND
MAINGI,JOSEPH MBAE,013,THARAKA - NITHI,062,THARAKA,0309,CHIAKARIGA,063,DEVOLUTION PARTY OF KENYA,DPK
MAKEMBO,FRANCIS MUTIIRIA  ,013,THARAKA - NITHI,062,THARAKA,0309,CHIAKARIGA,054,CHAMA CHA MASHINANI,CCM
MICHENI,FREDRICK,013,THARAKA - NITHI,062,THARAKA,0309,CHIAKARIGA,083,NATIONAL ORDINARY PEOPLES EMPOWERMENT ,NOPEU
MIGWI,SISTO MARUNGURIA,013,THARAKA - NITHI,062,THARAKA,0309,CHIAKARIGA,IND,INDEPENDENT,IND
MITAMBO,SIMON   NDONCO,013,THARAKA - NITHI,062,THARAKA,0309,CHIAKARIGA,IND,INDEPENDENT,IND
MURUNGI,DAVID MWITI,013,THARAKA - NITHI,062,THARAKA,0309,CHIAKARIGA,IND,INDEPENDENT,IND
MUSYIMI,NICHOLAS,013,THARAKA - NITHI,062,THARAKA,0309,CHIAKARIGA,080,USAWA KWA WOTE PARTY,USAWA
NJAGI,JOHN  MUCEE,013,THARAKA - NITHI,062,THARAKA,0309,CHIAKARIGA,027,JUBILEE PARTY,JP
