OCHARO,E M LUKA,045,KISII,263,BOMACHOGE BORABU,1313,BOKIMONGE,033,KENYA AFRICAN NATIONAL UNION,KANU
OGACHI,DANIEL OMAGWA,045,KISII,263,BOMACHOGE BORABU,1313,BOKIMONGE,025,PROGRESSIVE PARTY OF KENYA,PPOK
OMAYIO,HEZRON,045,KISII,263,BOMACHOGE BORABU,1313,BOKIMONGE,081,UNITED PROGRESSIVE ALLIANCE,UPA
ONDARA,DISMAS OGWOKA,045,KISII,263,BOMACHOGE BORABU,1313,BOKIMONGE,IND,INDEPENDENT,IND
ONDERI,AMOS BEGI,045,KISII,263,BOMACHOGE BORABU,1313,BOKIMONGE,021,ORANGE DEMOCRATIC MOVEMENT,ODM
ONTIRI,ALBERT ASIAGO,045,KISII,263,BOMACHOGE BORABU,1313,BOKIMONGE,062,AMANI NATIONAL CONGRESS,ANC
ORINA,JOSIAH OMBURA,045,KISII,263,BOMACHOGE BORABU,1313,BOKIMONGE,027,JUBILEE PARTY,JP
KIAGE,MESHACK MANENO ,045,KISII,263,BOMACHOGE BORABU,1314,MAGENCHE,039,PEOPLES DEMOCRATIC PARTY,PDP
MIGISI,NAFTAL MIGGY,045,KISII,263,BOMACHOGE BORABU,1314,MAGENCHE,021,ORANGE DEMOCRATIC MOVEMENT,ODM
MORONYA,RAPHAEL NYANDORO,045,KISII,263,BOMACHOGE BORABU,1314,MAGENCHE,027,JUBILEE PARTY,JP
NYAITO,OMAMBIA DOUGLAS,045,KISII,263,BOMACHOGE BORABU,1314,MAGENCHE,015,UNITED DEMOCRATIC  ALLIANCE,UDA
NYAMBATI,EVANS,045,KISII,263,BOMACHOGE BORABU,1314,MAGENCHE,025,PROGRESSIVE PARTY OF KENYA,PPOK
NYANCHOKA,ALEX OMUNDI,045,KISII,263,BOMACHOGE BORABU,1314,MAGENCHE,088,TUJIBEBE WAKENYA PARTY,JIBEBE
NYARURI,ISAAC SUNDA,045,KISII,263,BOMACHOGE BORABU,1314,MAGENCHE,080,USAWA KWA WOTE PARTY,USAWA
NYATWANG'A,AMOS CHWEYA,045,KISII,263,BOMACHOGE BORABU,1314,MAGENCHE,062,AMANI NATIONAL CONGRESS,ANC
OCHAKO,ZACHARY OGENCHE,045,KISII,263,BOMACHOGE BORABU,1314,MAGENCHE,012,WIPER DEMOCRATIC MOVEMENT- KENYA,WDM
OGUGU,TIMOTHY OKIOMERI,045,KISII,263,BOMACHOGE BORABU,1314,MAGENCHE,019,KENYA SOCIAL CONGRESS,KSC
OMANGA,LAWRENCE OTWERE,045,KISII,263,BOMACHOGE BORABU,1314,MAGENCHE,IND,INDEPENDENT,IND
ORAMBUI,JOSHUA SYLIVESTER ,045,KISII,263,BOMACHOGE BORABU,1314,MAGENCHE,067,MAENDELEO CHAP CHAP PARTY,MCCP
OSIEMO,ANDREW MARTIN,045,KISII,263,BOMACHOGE BORABU,1314,MAGENCHE,081,UNITED PROGRESSIVE ALLIANCE,UPA
OSITU,ALBERT OGUGU,045,KISII,263,BOMACHOGE BORABU,1314,MAGENCHE,063,DEVOLUTION PARTY OF KENYA,DPK
SASATI,WINSTON WINNER,045,KISII,263,BOMACHOGE BORABU,1314,MAGENCHE,009,KENYA NATIONAL CONGRESS,KNC
BAGAKA,JACOB BARONGO,045,KISII,264,BOBASI,1315,MASIGE WEST,081,UNITED PROGRESSIVE ALLIANCE,UPA
BWANA,DAVID GETUI,045,KISII,264,BOBASI,1315,MASIGE WEST,027,JUBILEE PARTY,JP
GEKOMBE,STEPHEN MOTURI,045,KISII,264,BOBASI,1315,MASIGE WEST,015,UNITED DEMOCRATIC  ALLIANCE,UDA
MARUBE,JANIFA BOSIBORI,045,KISII,264,BOBASI,1315,MASIGE WEST,039,PEOPLES DEMOCRATIC PARTY,PDP
MOSE,SHEM NYABOGA,045,KISII,264,BOBASI,1315,MASIGE WEST,040,THE NEW DEMOCRATS,TND
NYARIKI,JOHN MOSORA,045,KISII,264,BOBASI,1315,MASIGE WEST,013,DEMOCRATIC PARTY OF KENYA,DP
OBONYO,OBADIAH MAMWACHA,045,KISII,264,BOBASI,1315,MASIGE WEST,IND,INDEPENDENT,IND
OMARE,FRED MORANGA,045,KISII,264,BOBASI,1315,MASIGE WEST,009,KENYA NATIONAL CONGRESS,KNC
OMARI,PETER NYABUTO,045,KISII,264,BOBASI,1315,MASIGE WEST,034,SAFINA,SAFINA
OMBOGA, DOMINIC ARTHUR,045,KISII,264,BOBASI,1315,MASIGE WEST,062,AMANI NATIONAL CONGRESS,ANC
ONDIEKI,ZACHARIAH KAROMBO,045,KISII,264,BOBASI,1315,MASIGE WEST,088,TUJIBEBE WAKENYA PARTY,JIBEBE
WALTER, MOSE  OTISO,045,KISII,264,BOBASI,1315,MASIGE WEST,021,ORANGE DEMOCRATIC MOVEMENT,ODM
