KARIUKI,SAMUEL MACHARIA,031,LAIKIPIA,164,LAIKIPIA EAST,0817,NGOBIT,082,THE SERVICE PARTY,TSP
KIBUE,CATHERINE NYOKABI,031,LAIKIPIA,164,LAIKIPIA EAST,0817,NGOBIT,015,UNITED DEMOCRATIC  ALLIANCE,UDA
MURANGA,REGINAH NJERI,031,LAIKIPIA,164,LAIKIPIA EAST,0817,NGOBIT,033,KENYA AFRICAN NATIONAL UNION,KANU
NGUGI,MARTIN NJOROGE,031,LAIKIPIA,164,LAIKIPIA EAST,0817,NGOBIT,027,JUBILEE PARTY,JP
WAHOME,PERIS WANJIRU,031,LAIKIPIA,164,LAIKIPIA EAST,0817,NGOBIT,IND,INDEPENDENT,IND
KANYI,CHARLES WAWERU ,031,LAIKIPIA,164,LAIKIPIA EAST,0818,TIGITHI,082,THE SERVICE PARTY,TSP
KARURI,DAVID NGUGI,031,LAIKIPIA,164,LAIKIPIA EAST,0818,TIGITHI,IND,INDEPENDENT,IND
KIMANI,CYRUS WARUI ,031,LAIKIPIA,164,LAIKIPIA EAST,0818,TIGITHI,001,NATIONAL RAINBOW COALITION-KENYA,NARC-KENYA
MBURU,STEPHEN MUCHIRI ,031,LAIKIPIA,164,LAIKIPIA EAST,0818,TIGITHI,IND,INDEPENDENT,IND
MUGO,JAMES MAINA,031,LAIKIPIA,164,LAIKIPIA EAST,0818,TIGITHI,013,DEMOCRATIC PARTY OF KENYA,DP
MURIITHI,JOHN NDERITU,031,LAIKIPIA,164,LAIKIPIA EAST,0818,TIGITHI,080,USAWA KWA WOTE PARTY,USAWA
MURITU,JOHN MUTAHI,031,LAIKIPIA,164,LAIKIPIA EAST,0818,TIGITHI,027,JUBILEE PARTY,JP
MURIUKI,NICHOLAS KABEBE ,031,LAIKIPIA,164,LAIKIPIA EAST,0818,TIGITHI,IND,INDEPENDENT,IND
MUTURI,NICHOLAS MWANIKI,031,LAIKIPIA,164,LAIKIPIA EAST,0818,TIGITHI,015,UNITED DEMOCRATIC  ALLIANCE,UDA
NDIRANGU,STEPHEN NDIRITU,031,LAIKIPIA,164,LAIKIPIA EAST,0818,TIGITHI,IND,INDEPENDENT,IND
NJOKI,CHRISTOPHER WAMBUGU,031,LAIKIPIA,164,LAIKIPIA EAST,0818,TIGITHI,IND,INDEPENDENT,IND
THITAI,MARY GATHIGIA,031,LAIKIPIA,164,LAIKIPIA EAST,0818,TIGITHI,033,KENYA AFRICAN NATIONAL UNION,KANU
WAGURA,PAUL MURIITHI,031,LAIKIPIA,164,LAIKIPIA EAST,0818,TIGITHI,IND,INDEPENDENT,IND
WANJIRU,PATRICK WANJOHI ,031,LAIKIPIA,164,LAIKIPIA EAST,0818,TIGITHI,IND,INDEPENDENT,IND
WARUI,SAMUEL WARUINGI ,031,LAIKIPIA,164,LAIKIPIA EAST,0818,TIGITHI,045,UMOJA NA MAENDELEO PARTY,UMP
GICHANGI,MICHAEL KINYUA,031,LAIKIPIA,164,LAIKIPIA EAST,0819,THINGITHU,027,JUBILEE PARTY,JP
HASSAN,SAID MONTO,031,LAIKIPIA,164,LAIKIPIA EAST,0819,THINGITHU,IND,INDEPENDENT,IND
IRANJI,CHARLES NDUNG'U ,031,LAIKIPIA,164,LAIKIPIA EAST,0819,THINGITHU,IND,INDEPENDENT,IND
KAMARE,JOHN MURORI,031,LAIKIPIA,164,LAIKIPIA EAST,0819,THINGITHU,IND,INDEPENDENT,IND
KAMAU,STEPHEN NDIRITU,031,LAIKIPIA,164,LAIKIPIA EAST,0819,THINGITHU,015,UNITED DEMOCRATIC  ALLIANCE,UDA
KAMUNGE,DAVID KAIRU,031,LAIKIPIA,164,LAIKIPIA EAST,0819,THINGITHU,IND,INDEPENDENT,IND
KARIUKI,BONIFACE MWAI,031,LAIKIPIA,164,LAIKIPIA EAST,0819,THINGITHU,IND,INDEPENDENT,IND
MAINA,JOSEPH MWANGI,031,LAIKIPIA,164,LAIKIPIA EAST,0819,THINGITHU,040,THE NEW DEMOCRATS,TND
MAINA,SIMEON MUTEITHA ,031,LAIKIPIA,164,LAIKIPIA EAST,0819,THINGITHU,IND,INDEPENDENT,IND
MATHENGE,DAVID KAGIRI,031,LAIKIPIA,164,LAIKIPIA EAST,0819,THINGITHU,082,THE SERVICE PARTY,TSP
MBUKI,STEPHEN KARU,031,LAIKIPIA,164,LAIKIPIA EAST,0819,THINGITHU,IND,INDEPENDENT,IND
MUHIA,GEORGE NDUNGU,031,LAIKIPIA,164,LAIKIPIA EAST,0819,THINGITHU,IND,INDEPENDENT,IND
MUIRU,ROSEMARY MWEHAKI,031,LAIKIPIA,164,LAIKIPIA EAST,0819,THINGITHU,021,ORANGE DEMOCRATIC MOVEMENT,ODM
MUNGAH,CYRUS KIARIE,031,LAIKIPIA,164,LAIKIPIA EAST,0819,THINGITHU,087,CHAMA CHA KAZI,KAZI
