NGOGE,EVANS MOCHONI,046,NYAMIRA,272,NORTH MUGIRANGO,1360,MAGWAGWA,IND,INDEPENDENT,IND
NYAKUNDI,HESBORN ARAO,046,NYAMIRA,272,NORTH MUGIRANGO,1360,MAGWAGWA,046,UNITED PARTY OF INDEPENDENT ALLIANCE,UPIA
NYANDIBA,BENTER NYABOKE ,046,NYAMIRA,272,NORTH MUGIRANGO,1360,MAGWAGWA,025,PROGRESSIVE PARTY OF KENYA,PPOK
NYANG'AU,HASSAN MOSETI,046,NYAMIRA,272,NORTH MUGIRANGO,1360,MAGWAGWA,021,ORANGE DEMOCRATIC MOVEMENT,ODM
ONGERI,THOMAS WILLIAM,046,NYAMIRA,272,NORTH MUGIRANGO,1360,MAGWAGWA,062,AMANI NATIONAL CONGRESS,ANC
ORENGE,ELIJAH ORWARI,046,NYAMIRA,272,NORTH MUGIRANGO,1360,MAGWAGWA,015,UNITED DEMOCRATIC  ALLIANCE,UDA
OTIENO,JAMES AYIEKO V,046,NYAMIRA,272,NORTH MUGIRANGO,1360,MAGWAGWA,IND,INDEPENDENT,IND
RAINI,DAVID NYAN'GAU,046,NYAMIRA,272,NORTH MUGIRANGO,1360,MAGWAGWA,027,JUBILEE PARTY,JP
ROBIRO,NAFTAL ARASA,046,NYAMIRA,272,NORTH MUGIRANGO,1360,MAGWAGWA,033,KENYA AFRICAN NATIONAL UNION,KANU
FREDRICK,MOSIORI GEORGE,046,NYAMIRA,272,NORTH MUGIRANGO,1361,EKERENYO,015,UNITED DEMOCRATIC  ALLIANCE,UDA
MAINA,DENIS MARUBE,046,NYAMIRA,272,NORTH MUGIRANGO,1361,EKERENYO,021,ORANGE DEMOCRATIC MOVEMENT,ODM
MONARI,MARGRET KEMUNTO,046,NYAMIRA,272,NORTH MUGIRANGO,1361,EKERENYO,025,PROGRESSIVE PARTY OF KENYA,PPOK
NDUBI,FRANCIS AMENYA,046,NYAMIRA,272,NORTH MUGIRANGO,1361,EKERENYO,058,REPUBLICAN LIBERTY PARTY,RLP
NYABARO,THADDEUS MOMANYI,046,NYAMIRA,272,NORTH MUGIRANGO,1361,EKERENYO,081,UNITED PROGRESSIVE ALLIANCE,UPA
NYAMBOGORIA,ISAIAH OANDA,046,NYAMIRA,272,NORTH MUGIRANGO,1361,EKERENYO,080,USAWA KWA WOTE PARTY,USAWA
NYANUMBA,ROBERT,046,NYAMIRA,272,NORTH MUGIRANGO,1361,EKERENYO,067,MAENDELEO CHAP CHAP PARTY,MCCP
OKAMBARA,BARNABAS KABORA,046,NYAMIRA,272,NORTH MUGIRANGO,1361,EKERENYO,027,JUBILEE PARTY,JP
ONDIEKI,ELIJAH BOSIRE,046,NYAMIRA,272,NORTH MUGIRANGO,1361,EKERENYO,046,UNITED PARTY OF INDEPENDENT ALLIANCE,UPIA
ONGARO,JEREMIAH NJENGA ,046,NYAMIRA,272,NORTH MUGIRANGO,1361,EKERENYO,075,EMPOWERMENT AND LIBERATION PARTY,ELP
ONGORI,MARGRET NYANCHAMA,046,NYAMIRA,272,NORTH MUGIRANGO,1361,EKERENYO,033,KENYA AFRICAN NATIONAL UNION,KANU
ONGUSO,BENARD ATUYA,046,NYAMIRA,272,NORTH MUGIRANGO,1361,EKERENYO,023,FORUM FOR RESTORATION OF DEMOCRACY-KENYA,FORD-KENYA
ORWARU,CALLEN KWAMBOKA,046,NYAMIRA,272,NORTH MUGIRANGO,1361,EKERENYO,019,KENYA SOCIAL CONGRESS,KSC
BARASA,RAYMOND NYAGWOKA,046,NYAMIRA,273,BORABU,1362,MEKENENE,IND,INDEPENDENT,IND
GWARO,PAWINE NYANGENA,046,NYAMIRA,273,BORABU,1362,MEKENENE,IND,INDEPENDENT,IND
KEOYE,JOSEPH ONGECHI,046,NYAMIRA,273,BORABU,1362,MEKENENE,001,NATIONAL RAINBOW COALITION-KENYA,NARC-KENYA
MABERA,ALFAYO NGERESA,046,NYAMIRA,273,BORABU,1362,MEKENENE,081,UNITED PROGRESSIVE ALLIANCE,UPA
MOGAKA,CHARLES BICHANGA,046,NYAMIRA,273,BORABU,1362,MEKENENE,027,JUBILEE PARTY,JP
MOMANYI,CLIFF OYUGI,046,NYAMIRA,273,BORABU,1362,MEKENENE,046,UNITED PARTY OF INDEPENDENT ALLIANCE,UPIA
MOMANYI,MOSES MOGENI,046,NYAMIRA,273,BORABU,1362,MEKENENE,067,MAENDELEO CHAP CHAP PARTY,MCCP
MOSETI,SIRVANUS NYABUTI,046,NYAMIRA,273,BORABU,1362,MEKENENE,015,UNITED DEMOCRATIC  ALLIANCE,UDA
NTABO,RONALD KENG'ARA ,046,NYAMIRA,273,BORABU,1362,MEKENENE,080,USAWA KWA WOTE PARTY,USAWA
NYAMBANE,DICKSON,046,NYAMIRA,273,BORABU,1362,MEKENENE,IND,INDEPENDENT,IND
ONDIEKI,JOSPHAT MOKUA,046,NYAMIRA,273,BORABU,1362,MEKENENE,068,DEMOCRATIC CONGRESS,DC
ONGERI,ROBERT KIBWAGE,046,NYAMIRA,273,BORABU,1362,MEKENENE,IND,INDEPENDENT,IND
