M'ITI,NICHOLAS KIMATHI ,013,THARAKA - NITHI,060,MAARA,0299,GANGA,012,WIPER DEMOCRATIC MOVEMENT- KENYA,WDM
MBAE,KENNETH MUTHOMI,013,THARAKA - NITHI,060,MAARA,0299,GANGA,IND,INDEPENDENT,IND
MBAE,LYSBETH GATIRIA,013,THARAKA - NITHI,060,MAARA,0299,GANGA,IND,INDEPENDENT,IND
MUTEGI,KENNETH MAWIRA ,013,THARAKA - NITHI,060,MAARA,0299,GANGA,027,JUBILEE PARTY,JP
NYAGA,PETERSON MUSYOKA,013,THARAKA - NITHI,060,MAARA,0299,GANGA,IND,INDEPENDENT,IND
GATIRIA,JOYCE KIAMBI,013,THARAKA - NITHI,060,MAARA,0300,CHOGORIA,015,UNITED DEMOCRATIC  ALLIANCE,UDA
GITARI,MARGARET MUKWANJERU,013,THARAKA - NITHI,060,MAARA,0300,CHOGORIA,027,JUBILEE PARTY,JP
GITARI,NICHOLAS  MUTUA  JUSTIN,013,THARAKA - NITHI,060,MAARA,0300,CHOGORIA,IND,INDEPENDENT,IND
GITONGA,JAPHET MUTURI,013,THARAKA - NITHI,060,MAARA,0300,CHOGORIA,IND,INDEPENDENT,IND
HERODION,WILBERFORCE MWENDA,013,THARAKA - NITHI,060,MAARA,0300,CHOGORIA,087,CHAMA CHA KAZI,KAZI
IRERI,JASPER KARUNGA,013,THARAKA - NITHI,060,MAARA,0300,CHOGORIA,IND,INDEPENDENT,IND
M'RAGWA,KAMUNDI JULIUS,013,THARAKA - NITHI,060,MAARA,0300,CHOGORIA,008,DEVOLUTION EMPOWERMENT PARTY,DEP
NGARUNI,BONIFACE MUTHAMIA ,013,THARAKA - NITHI,060,MAARA,0300,CHOGORIA,IND,INDEPENDENT,IND
NYAGA,FRANKLINE MAWIRA,013,THARAKA - NITHI,060,MAARA,0300,CHOGORIA,IND,INDEPENDENT,IND
ROBERT,CURTIS MWITI,013,THARAKA - NITHI,060,MAARA,0300,CHOGORIA,IND,INDEPENDENT,IND
ISAIAH,MURIIRA MIRITI,013,THARAKA - NITHI,061,CHUKA IGAMBANG'OMBE,0301,MARIANI,054,CHAMA CHA MASHINANI,CCM
KATHIA,ALICANJERU MUTHAMIA,013,THARAKA - NITHI,061,CHUKA IGAMBANG'OMBE,0301,MARIANI,IND,INDEPENDENT,IND
KATHIA,FREDRICK GITONGA,013,THARAKA - NITHI,061,CHUKA IGAMBANG'OMBE,0301,MARIANI,021,ORANGE DEMOCRATIC MOVEMENT,ODM
KINYUA,ERASTUS,013,THARAKA - NITHI,061,CHUKA IGAMBANG'OMBE,0301,MARIANI,082,THE SERVICE PARTY,TSP
MATI,EDWARD MWENDA ,013,THARAKA - NITHI,061,CHUKA IGAMBANG'OMBE,0301,MARIANI,034,SAFINA,SAFINA
MBAE,ANITA KARIMI,013,THARAKA - NITHI,061,CHUKA IGAMBANG'OMBE,0301,MARIANI,015,UNITED DEMOCRATIC  ALLIANCE,UDA
MUTANI,TIMOTHY GITONGA MICHENI,013,THARAKA - NITHI,061,CHUKA IGAMBANG'OMBE,0301,MARIANI,027,JUBILEE PARTY,JP
NCHUNGE,NATHANIEL KANG'ETHE,013,THARAKA - NITHI,061,CHUKA IGAMBANG'OMBE,0301,MARIANI,044,PARTY OF DEMOCRATIC  UNITY,PDU
RUGENDO,KENNETH MUTUGI,013,THARAKA - NITHI,061,CHUKA IGAMBANG'OMBE,0301,MARIANI,IND,INDEPENDENT,IND
WANJIRU,GIBSON NG'ANG'A,013,THARAKA - NITHI,061,CHUKA IGAMBANG'OMBE,0301,MARIANI,IND,INDEPENDENT,IND
GITARI,MARTIN NTHUNI,013,THARAKA - NITHI,061,CHUKA IGAMBANG'OMBE,0302,KARINGANI,083,NATIONAL ORDINARY PEOPLES EMPOWERMENT ,NOPEU
KANGA,MORRIS MWENDA,013,THARAKA - NITHI,061,CHUKA IGAMBANG'OMBE,0302,KARINGANI,IND,INDEPENDENT,IND
KAURA,JAMES MURANGIRI ,013,THARAKA - NITHI,061,CHUKA IGAMBANG'OMBE,0302,KARINGANI,IND,INDEPENDENT,IND
M'MUNGORI,JOSEPH KINYUA,013,THARAKA - NITHI,061,CHUKA IGAMBANG'OMBE,0302,KARINGANI,IND,INDEPENDENT,IND
MBUBA,NATHAN MUNENE,013,THARAKA - NITHI,061,CHUKA IGAMBANG'OMBE,0302,KARINGANI,082,THE SERVICE PARTY,TSP
MBUNGU,DANIEL MUTHOMI,013,THARAKA - NITHI,061,CHUKA IGAMBANG'OMBE,0302,KARINGANI,021,ORANGE DEMOCRATIC MOVEMENT,ODM
MUCHIRI,GODFREY MURITHI ,013,THARAKA - NITHI,061,CHUKA IGAMBANG'OMBE,0302,KARINGANI,015,UNITED DEMOCRATIC  ALLIANCE,UDA
MUGAMBI,FRANK MUKURU,013,THARAKA - NITHI,061,CHUKA IGAMBANG'OMBE,0302,KARINGANI,054,CHAMA CHA MASHINANI,CCM
MUGO,GODFREY MUNENE ,013,THARAKA - NITHI,061,CHUKA IGAMBANG'OMBE,0302,KARINGANI,027,JUBILEE PARTY,JP
