MOSOBA,SIMION ISENGERE,044,MIGORI,259,KURIA WEST,1289,BUKIRA EAST,069,LIBERAL DEMOCRATIC PARTY,LDP
MURIMI,JOSEPH GIKUURI,044,MIGORI,259,KURIA WEST,1289,BUKIRA EAST,067,MAENDELEO CHAP CHAP PARTY,MCCP
MWITA,JOSEPH SIBORA,044,MIGORI,259,KURIA WEST,1289,BUKIRA EAST,013,DEMOCRATIC PARTY OF KENYA,DP
NCHAGWA,MARY MOTONGORI ,044,MIGORI,259,KURIA WEST,1289,BUKIRA EAST,027,JUBILEE PARTY,JP
NGIELA,BEATRICE AUMA,044,MIGORI,259,KURIA WEST,1289,BUKIRA EAST,014,PARTY OF NATIONAL UNITY,PNU
CHACHA,GEORGE MANKO,044,MIGORI,259,KURIA WEST,1290,BUKIRA CENTRL IKEREGE,027,JUBILEE PARTY,JP
CHACHA,JULIUS TURUYA,044,MIGORI,259,KURIA WEST,1290,BUKIRA CENTRL IKEREGE,014,PARTY OF NATIONAL UNITY,PNU
JUMA,JOHN NYANGI,044,MIGORI,259,KURIA WEST,1290,BUKIRA CENTRL IKEREGE,021,ORANGE DEMOCRATIC MOVEMENT,ODM
MOSABI,JOSEPH TURUKAH,044,MIGORI,259,KURIA WEST,1290,BUKIRA CENTRL IKEREGE,033,KENYA AFRICAN NATIONAL UNION,KANU
MUHUMBWA,SAMWEL ,044,MIGORI,259,KURIA WEST,1290,BUKIRA CENTRL IKEREGE,039,PEOPLES DEMOCRATIC PARTY,PDP
MWITA,JOSHUA MUCHUMA ,044,MIGORI,259,KURIA WEST,1290,BUKIRA CENTRL IKEREGE,077,JUSTICE AND FREEDOM PARTY,JFP
TIBAYA,GIMASE JOHNSON,044,MIGORI,259,KURIA WEST,1290,BUKIRA CENTRL IKEREGE,IND,INDEPENDENT,IND
WANDWI,NYAHURE MWITA,044,MIGORI,259,KURIA WEST,1290,BUKIRA CENTRL IKEREGE,015,UNITED DEMOCRATIC  ALLIANCE,UDA
WANKWE,JAMES CHACHA,044,MIGORI,259,KURIA WEST,1290,BUKIRA CENTRL IKEREGE,IND,INDEPENDENT,IND
HAMISI,PETER CHACHA,044,MIGORI,259,KURIA WEST,1291,ISIBANIA,027,JUBILEE PARTY,JP
JAMES,ANNE WAMUYU,044,MIGORI,259,KURIA WEST,1291,ISIBANIA,IND,INDEPENDENT,IND
JOHN,MUSA NAFTALI,044,MIGORI,259,KURIA WEST,1291,ISIBANIA,033,KENYA AFRICAN NATIONAL UNION,KANU
JUMA,NYAHURE ELIAS,044,MIGORI,259,KURIA WEST,1291,ISIBANIA,IND,INDEPENDENT,IND
KILONZO,NDAMBUKI PATRICK,044,MIGORI,259,KURIA WEST,1291,ISIBANIA,034,SAFINA,SAFINA
MANOTI,ANDREW MOKAYA ,044,MIGORI,259,KURIA WEST,1291,ISIBANIA,015,UNITED DEMOCRATIC  ALLIANCE,UDA
MOMANYI,MICHIEKA CHARLES,044,MIGORI,259,KURIA WEST,1291,ISIBANIA,058,REPUBLICAN LIBERTY PARTY,RLP
MWITA,JOSEPH MAROA,044,MIGORI,259,KURIA WEST,1291,ISIBANIA,IND,INDEPENDENT,IND
MWITA,THOMAS CHACHA,044,MIGORI,259,KURIA WEST,1291,ISIBANIA,044,PARTY OF DEMOCRATIC  UNITY,PDU
NYAMOHANGA,PIUS ICHOBWE,044,MIGORI,259,KURIA WEST,1291,ISIBANIA,021,ORANGE DEMOCRATIC MOVEMENT,ODM
RANGE,TOBIAS WEREMA,044,MIGORI,259,KURIA WEST,1291,ISIBANIA,049,FEDERAL PARTY OF KENYA,FPK
RIOBA,MARY OTAIGO,044,MIGORI,259,KURIA WEST,1291,ISIBANIA,081,UNITED PROGRESSIVE ALLIANCE,UPA
RUGARIA,HODO SOLOMON,044,MIGORI,259,KURIA WEST,1291,ISIBANIA,014,PARTY OF NATIONAL UNITY,PNU
GIBITUI,NYAKOREMA ALEX ,044,MIGORI,259,KURIA WEST,1292,MAKERERO,062,AMANI NATIONAL CONGRESS,ANC
MACHUGU,MWITA TOBIAS,044,MIGORI,259,KURIA WEST,1292,MAKERERO,015,UNITED DEMOCRATIC  ALLIANCE,UDA
MOGOSI,JOSEPH HOYO,044,MIGORI,259,KURIA WEST,1292,MAKERERO,021,ORANGE DEMOCRATIC MOVEMENT,ODM
MWITA,JULIAS NYAIRARIA ,044,MIGORI,259,KURIA WEST,1292,MAKERERO,033,KENYA AFRICAN NATIONAL UNION,KANU
SIMION,PATRICK MARWA,044,MIGORI,259,KURIA WEST,1292,MAKERERO,027,JUBILEE PARTY,JP
BOKE,PETER MAINA,044,MIGORI,259,KURIA WEST,1293,MASABA,012,WIPER DEMOCRATIC MOVEMENT- KENYA,WDM
CHACHA,CHARLES MANGERA,044,MIGORI,259,KURIA WEST,1293,MASABA,IND,INDEPENDENT,IND
