ORENGE,TOM MIGIRO,047,NAIROBI CITY,284,EMBAKASI CENTRAL,1420,MATOPENI SPRING VALLEY,IND,INDEPENDENT,IND
WAIRURA,ZABRON MWANGI,047,NAIROBI CITY,284,EMBAKASI CENTRAL,1420,MATOPENI SPRING VALLEY,IND,INDEPENDENT,IND
WANDERI,JOSHUA IRUNGU,047,NAIROBI CITY,284,EMBAKASI CENTRAL,1420,MATOPENI SPRING VALLEY,IND,INDEPENDENT,IND
WANJIRU,SWALEH NJOROGE,047,NAIROBI CITY,284,EMBAKASI CENTRAL,1420,MATOPENI SPRING VALLEY,027,JUBILEE PARTY,JP
ANG'ILA,STAZO ELIJAH OMUNG'ALA,047,NAIROBI CITY,285,EMBAKASI EAST,1421,UPPER SAVANNAH ,021,ORANGE DEMOCRATIC MOVEMENT,ODM
MAINA,CHARLES KARIANJAHI,047,NAIROBI CITY,285,EMBAKASI EAST,1421,UPPER SAVANNAH ,IND,INDEPENDENT,IND
MARUCHA,LEONIDAH KWAMBOKA,047,NAIROBI CITY,285,EMBAKASI EAST,1421,UPPER SAVANNAH ,083,NATIONAL ORDINARY PEOPLES EMPOWERMENT ,NOPEU
MAUNDA,GABRIEL WILLIAM,047,NAIROBI CITY,285,EMBAKASI EAST,1421,UPPER SAVANNAH ,012,WIPER DEMOCRATIC MOVEMENT- KENYA,WDM
MIGAYA,SAMORA ERICK,047,NAIROBI CITY,285,EMBAKASI EAST,1421,UPPER SAVANNAH ,IND,INDEPENDENT,IND
NAMUNGU,JOSECK SIMEKHA,047,NAIROBI CITY,285,EMBAKASI EAST,1421,UPPER SAVANNAH ,095,GREEN THINKING ACTION PARTY,GTAP
OBWOGI,JOSHUA SINDIGA,047,NAIROBI CITY,285,EMBAKASI EAST,1421,UPPER SAVANNAH ,IND,INDEPENDENT,IND
OGOT,FREDRICK OMONDI ,047,NAIROBI CITY,285,EMBAKASI EAST,1421,UPPER SAVANNAH ,IND,INDEPENDENT,IND
OREMO,WILLIES OCHIENG,047,NAIROBI CITY,285,EMBAKASI EAST,1421,UPPER SAVANNAH ,IND,INDEPENDENT,IND
OWITI,STEVEN OMONDI,047,NAIROBI CITY,285,EMBAKASI EAST,1421,UPPER SAVANNAH ,090,UMOJA SUMMIT PARTY,USP
TUVEI,WILBERFORCE INDAI KITIAVI,047,NAIROBI CITY,285,EMBAKASI EAST,1421,UPPER SAVANNAH ,015,UNITED DEMOCRATIC  ALLIANCE,UDA
GOGO,FRANK ONYANGO,047,NAIROBI CITY,285,EMBAKASI EAST,1422,LOWER SAVANNAH ,IND,INDEPENDENT,IND
KIVUVA,FRANCIS MUTUA,047,NAIROBI CITY,285,EMBAKASI EAST,1422,LOWER SAVANNAH ,015,UNITED DEMOCRATIC  ALLIANCE,UDA
MAGOBA,DAVID ODHIAMBO  ,047,NAIROBI CITY,285,EMBAKASI EAST,1422,LOWER SAVANNAH ,021,ORANGE DEMOCRATIC MOVEMENT,ODM
MODOLE,SETH MOAH,047,NAIROBI CITY,285,EMBAKASI EAST,1422,LOWER SAVANNAH ,062,AMANI NATIONAL CONGRESS,ANC
NYAMWITHA,JOSEPH KAGAI,047,NAIROBI CITY,285,EMBAKASI EAST,1422,LOWER SAVANNAH ,IND,INDEPENDENT,IND
NYARIBARI,JAMES GEORGE CHANGAMU,047,NAIROBI CITY,285,EMBAKASI EAST,1422,LOWER SAVANNAH ,IND,INDEPENDENT,IND
ODHIAMBO,TIMOTHY NDALO,047,NAIROBI CITY,285,EMBAKASI EAST,1422,LOWER SAVANNAH ,IND,INDEPENDENT,IND
OWUOR,OLUOCH EVANS,047,NAIROBI CITY,285,EMBAKASI EAST,1422,LOWER SAVANNAH ,IND,INDEPENDENT,IND
RAJAB,KHADIJAH NJERI,047,NAIROBI CITY,285,EMBAKASI EAST,1422,LOWER SAVANNAH ,058,REPUBLICAN LIBERTY PARTY,RLP
WANDERA,MARTIN TAABU,047,NAIROBI CITY,285,EMBAKASI EAST,1422,LOWER SAVANNAH ,085,DEMOCRATIC ACTION PARTY- KENYA,DAP-K
YIDA,CATHERINE AJANGA,047,NAIROBI CITY,285,EMBAKASI EAST,1422,LOWER SAVANNAH ,IND,INDEPENDENT,IND
AYORA,DAVID,047,NAIROBI CITY,285,EMBAKASI EAST,1423,EMBAKASI,039,PEOPLES DEMOCRATIC PARTY,PDP
BATULUMAYO,CHRISTOPHER KUBUMBA,047,NAIROBI CITY,285,EMBAKASI EAST,1423,EMBAKASI,IND,INDEPENDENT,IND
GICHIMU,JULIUS PETER MIGWI,047,NAIROBI CITY,285,EMBAKASI EAST,1423,EMBAKASI,IND,INDEPENDENT,IND
GOJAH,JOHN OCHIENG,047,NAIROBI CITY,285,EMBAKASI EAST,1423,EMBAKASI,IND,INDEPENDENT,IND
MACHWARA,ERIC OGARO,047,NAIROBI CITY,285,EMBAKASI EAST,1423,EMBAKASI,046,UNITED PARTY OF INDEPENDENT ALLIANCE,UPIA
MUHANJI,HUMPHREY IMONJE ,047,NAIROBI CITY,285,EMBAKASI EAST,1423,EMBAKASI,IND,INDEPENDENT,IND
NYANTIKA,RICARDO BILLY,047,NAIROBI CITY,285,EMBAKASI EAST,1423,EMBAKASI,021,ORANGE DEMOCRATIC MOVEMENT,ODM
OGUTU,ESKINE OLANG,047,NAIROBI CITY,285,EMBAKASI EAST,1423,EMBAKASI,090,UMOJA SUMMIT PARTY,USP
