WANDAMBUZI,MOSES ADAGALA,042,KISUMU,243,MUHORONI,1215,MUHORONI KORU,064,UNITED DEMOCRATIC PARTY,UDP
OGUMA,THOMAS ODHIAMBO,042,KISUMU,244,NYAKACH,1216,SOUTH WEST NYAKACH,010,MAZINGIRA GREENS PARTY OF KENYA,MGPK
OKOTH,EVANCE,042,KISUMU,244,NYAKACH,1216,SOUTH WEST NYAKACH,085,DEMOCRATIC ACTION PARTY- KENYA,DAP-K
OLIMA,GARD OKOTH,042,KISUMU,244,NYAKACH,1216,SOUTH WEST NYAKACH,021,ORANGE DEMOCRATIC MOVEMENT,ODM
ONYANGO,BENJAMIN JUMA,042,KISUMU,244,NYAKACH,1216,SOUTH WEST NYAKACH,IND,INDEPENDENT,IND
OYATO,CONSOLATA AWINO,042,KISUMU,244,NYAKACH,1216,SOUTH WEST NYAKACH,IND,INDEPENDENT,IND
RAORE,PAULMACEY OWUOR,042,KISUMU,244,NYAKACH,1216,SOUTH WEST NYAKACH,IND,INDEPENDENT,IND
WAGALA,TOBIAS OMONDI,042,KISUMU,244,NYAKACH,1216,SOUTH WEST NYAKACH,IND,INDEPENDENT,IND
ALAI,BLASTSUS MBIRA ,042,KISUMU,244,NYAKACH,1217,NORTH NYAKACH,IND,INDEPENDENT,IND
KOKO,YONA MAINA,042,KISUMU,244,NYAKACH,1217,NORTH NYAKACH,IND,INDEPENDENT,IND
LUSI,COLLINS ODHIAMBO,042,KISUMU,244,NYAKACH,1217,NORTH NYAKACH,037,NATIONAL AGENDA PARTY OF KENYA,NAPK
NYAOKE,TOM ODHIAMBO ,042,KISUMU,244,NYAKACH,1217,NORTH NYAKACH,021,ORANGE DEMOCRATIC MOVEMENT,ODM
OCHIENG,MOSES AMOS,042,KISUMU,244,NYAKACH,1217,NORTH NYAKACH,072,MOVEMENT FOR DEMOCRACY AND GROWTH,MDG
OLOO,SUZZANE SHEIL,042,KISUMU,244,NYAKACH,1217,NORTH NYAKACH,IND,INDEPENDENT,IND
ORIATO,CHARLES  ORLOU,042,KISUMU,244,NYAKACH,1217,NORTH NYAKACH,027,JUBILEE PARTY,JP
OWIYO,BOB OTIENO NDOLO,042,KISUMU,244,NYAKACH,1217,NORTH NYAKACH,IND,INDEPENDENT,IND
OBUYA,VINCENT ODHIAMBO,042,KISUMU,244,NYAKACH,1218,CENTRAL NYAKACH,021,ORANGE DEMOCRATIC MOVEMENT,ODM
OKAL,PETER BODO,042,KISUMU,244,NYAKACH,1218,CENTRAL NYAKACH,033,KENYA AFRICAN NATIONAL UNION,KANU
PHILEMON,JUMA OJUOK,042,KISUMU,244,NYAKACH,1218,CENTRAL NYAKACH,085,DEMOCRATIC ACTION PARTY- KENYA,DAP-K
OGONJI,SIMON OKUMU,042,KISUMU,244,NYAKACH,1219,WEST NYAKACH,036,CHAMA CHA UZALENDO,CCU
OKEMBA,EDWINE AUMA,042,KISUMU,244,NYAKACH,1219,WEST NYAKACH,027,JUBILEE PARTY,JP
OLUOCH,GEORGE OGUTU,042,KISUMU,244,NYAKACH,1219,WEST NYAKACH,IND,INDEPENDENT,IND
OMOLO,JAMES OCHIENG,042,KISUMU,244,NYAKACH,1219,WEST NYAKACH,021,ORANGE DEMOCRATIC MOVEMENT,ODM
OOYI,TARIUS OCHIENG,042,KISUMU,244,NYAKACH,1219,WEST NYAKACH,IND,INDEPENDENT,IND
AGER,MELARD ONYANGO ,042,KISUMU,244,NYAKACH,1220,SOUTH EAST NYAKACH,IND,INDEPENDENT,IND
APICHE,MARK DICKENS OCHIENG,042,KISUMU,244,NYAKACH,1220,SOUTH EAST NYAKACH,IND,INDEPENDENT,IND
OBILA,GEORGE OTIENO,042,KISUMU,244,NYAKACH,1220,SOUTH EAST NYAKACH,064,UNITED DEMOCRATIC PARTY,UDP
OCHIENG,ROONEY OTIENO,042,KISUMU,244,NYAKACH,1220,SOUTH EAST NYAKACH,083,NATIONAL ORDINARY PEOPLES EMPOWERMENT ,NOPEU
OCHOLA,THOMAS OTIENO,042,KISUMU,244,NYAKACH,1220,SOUTH EAST NYAKACH,IND,INDEPENDENT,IND
ODHARE,NOEL SEDA,042,KISUMU,244,NYAKACH,1220,SOUTH EAST NYAKACH,037,NATIONAL AGENDA PARTY OF KENYA,NAPK
ODHIAMBO,SILAS ONYANGO ,042,KISUMU,244,NYAKACH,1220,SOUTH EAST NYAKACH,072,MOVEMENT FOR DEMOCRACY AND GROWTH,MDG
OKETCH,JARED KENNETH OMONDI,042,KISUMU,244,NYAKACH,1220,SOUTH EAST NYAKACH,015,UNITED DEMOCRATIC  ALLIANCE,UDA
OMOLLO,GEORGE OKOTH,042,KISUMU,244,NYAKACH,1220,SOUTH EAST NYAKACH,IND,INDEPENDENT,IND
OMOLLO,GERALD  OKOTH,042,KISUMU,244,NYAKACH,1220,SOUTH EAST NYAKACH,027,JUBILEE PARTY,JP
