MAYIAH,ALPHONSE MANG'ENI,040,BUSIA,228,MATAYOS,1138,MAYENJE,023,FORUM FOR RESTORATION OF DEMOCRACY-KENYA,FORD-KENYA
MUDIBO,RICHARD OKELO,040,BUSIA,228,MATAYOS,1138,MAYENJE,021,ORANGE DEMOCRATIC MOVEMENT,ODM
MUHORO,IBRAHIM WAITHAKA,040,BUSIA,228,MATAYOS,1138,MAYENJE,003,THE LABOUR PARTY OF KENYA,LPK
OKELLO,STEPHEN WAMAYA ,040,BUSIA,228,MATAYOS,1138,MAYENJE,085,DEMOCRATIC ACTION PARTY- KENYA,DAP-K
WABWIRE,JUDE THADEOUS,040,BUSIA,228,MATAYOS,1138,MAYENJE,062,AMANI NATIONAL CONGRESS,ANC
ALI,SHEBAN WANDERA ,040,BUSIA,228,MATAYOS,1139,MATAYOS SOUTH,085,DEMOCRATIC ACTION PARTY- KENYA,DAP-K
AMOLLO,BRIAN KEVIN,040,BUSIA,228,MATAYOS,1139,MATAYOS SOUTH,095,GREEN THINKING ACTION PARTY,GTAP
ANYANGO,ALBERTUS WABWIRE,040,BUSIA,228,MATAYOS,1139,MATAYOS SOUTH,067,MAENDELEO CHAP CHAP PARTY,MCCP
ASIBA,LINUS OUMA,040,BUSIA,228,MATAYOS,1139,MATAYOS SOUTH,IND,INDEPENDENT,IND
BARASA,ANTONY KHASEKE ,040,BUSIA,228,MATAYOS,1139,MATAYOS SOUTH,IND,INDEPENDENT,IND
JUMA,FRANCIS OKUKU,040,BUSIA,228,MATAYOS,1139,MATAYOS SOUTH,023,FORUM FOR RESTORATION OF DEMOCRACY-KENYA,FORD-KENYA
MAKOKHA,WYCLIFFE OUNDO,040,BUSIA,228,MATAYOS,1139,MATAYOS SOUTH,IND,INDEPENDENT,IND
MANYASA,AGGREY OLELE,040,BUSIA,228,MATAYOS,1139,MATAYOS SOUTH,003,THE LABOUR PARTY OF KENYA,LPK
OKINDA,DENIS WAFULA,040,BUSIA,228,MATAYOS,1139,MATAYOS SOUTH,021,ORANGE DEMOCRATIC MOVEMENT,ODM
OWADE,WALTER MUMBIA,040,BUSIA,228,MATAYOS,1139,MATAYOS SOUTH,062,AMANI NATIONAL CONGRESS,ANC
WABWIRE,GODFREY JOHN  ODUOR,040,BUSIA,228,MATAYOS,1139,MATAYOS SOUTH,027,JUBILEE PARTY,JP
WAKULOBA,LUCAS EGESA,040,BUSIA,228,MATAYOS,1139,MATAYOS SOUTH,084,NATIONAL RECONSTRUCTION ALLIANCE,NRA
WANDERA,ADAM ,040,BUSIA,228,MATAYOS,1139,MATAYOS SOUTH,072,MOVEMENT FOR DEMOCRACY AND GROWTH,MDG
WANDERA,ALBERT NYONGESA,040,BUSIA,228,MATAYOS,1139,MATAYOS SOUTH,028,MAENDELEO DEMOCRATIC PARTY,MDP
BUSERA,GEORGE MAKHAYAKA,040,BUSIA,228,MATAYOS,1140,BUSIBWABO,072,MOVEMENT FOR DEMOCRACY AND GROWTH,MDG
MUSAMIA,EVANS OKOCHI,040,BUSIA,228,MATAYOS,1140,BUSIBWABO,027,JUBILEE PARTY,JP
NDEDA,JEREMIA OUMA,040,BUSIA,228,MATAYOS,1140,BUSIBWABO,067,MAENDELEO CHAP CHAP PARTY,MCCP
WANZALA,FREDRICK OWINO,040,BUSIA,228,MATAYOS,1140,BUSIBWABO,015,UNITED DEMOCRATIC  ALLIANCE,UDA
ZAKAYO,NYONGESA HARRISON,040,BUSIA,228,MATAYOS,1140,BUSIBWABO,021,ORANGE DEMOCRATIC MOVEMENT,ODM
CHORA,STEVIS YOUNG,040,BUSIA,228,MATAYOS,1141,BURUMBA,084,NATIONAL RECONSTRUCTION ALLIANCE,NRA
HUSSEIN,HALIMA ALI ,040,BUSIA,228,MATAYOS,1141,BURUMBA,062,AMANI NATIONAL CONGRESS,ANC
MAKHULO,RICHARD KOKO,040,BUSIA,228,MATAYOS,1141,BURUMBA,013,DEMOCRATIC PARTY OF KENYA,DP
MUKAMANI,FRANCIS NYONGESA,040,BUSIA,228,MATAYOS,1141,BURUMBA,023,FORUM FOR RESTORATION OF DEMOCRACY-KENYA,FORD-KENYA
MULONGO,HERONIMO WESONGA,040,BUSIA,228,MATAYOS,1141,BURUMBA,085,DEMOCRATIC ACTION PARTY- KENYA,DAP-K
OMONDI,FREDRICK OTIENO,040,BUSIA,228,MATAYOS,1141,BURUMBA,015,UNITED DEMOCRATIC  ALLIANCE,UDA
OPONDO,TONY ONYANGO,040,BUSIA,228,MATAYOS,1141,BURUMBA,021,ORANGE DEMOCRATIC MOVEMENT,ODM
OUMA,MOSES OCHIENG,040,BUSIA,228,MATAYOS,1141,BURUMBA,072,MOVEMENT FOR DEMOCRACY AND GROWTH,MDG
RIGO,DAVID JEAN EBU,040,BUSIA,228,MATAYOS,1141,BURUMBA,003,THE LABOUR PARTY OF KENYA,LPK
WAMUKOYA,JOSEPH ,040,BUSIA,228,MATAYOS,1141,BURUMBA,012,WIPER DEMOCRATIC MOVEMENT- KENYA,WDM
