VINCENT,MOINDI OMWOYO,045,KISII,264,BOBASI,1322,BOBASI BOITANGARE,079,UNITED GREEN MOVEMENT,UGM
KERAMA,BISMARCK O,045,KISII,265,BOMACHOGE CHACHE,1323,MAJOGE BASI,009,KENYA NATIONAL CONGRESS,KNC
MATARA,MAYAKA KEVIN,045,KISII,265,BOMACHOGE CHACHE,1323,MAJOGE BASI,085,DEMOCRATIC ACTION PARTY- KENYA,DAP-K
MBOGA,ZEBEDEO N,045,KISII,265,BOMACHOGE CHACHE,1323,MAJOGE BASI,IND,INDEPENDENT,IND
MIRUKA,LAMECK,045,KISII,265,BOMACHOGE CHACHE,1323,MAJOGE BASI,015,UNITED DEMOCRATIC  ALLIANCE,UDA
NYABERI,KENNEDY NYABUTO,045,KISII,265,BOMACHOGE CHACHE,1323,MAJOGE BASI,019,KENYA SOCIAL CONGRESS,KSC
NYANDORO,NAHASON NYAMBANE,045,KISII,265,BOMACHOGE CHACHE,1323,MAJOGE BASI,081,UNITED PROGRESSIVE ALLIANCE,UPA
OMBATI,JOHN NYATANGI,045,KISII,265,BOMACHOGE CHACHE,1323,MAJOGE BASI,012,WIPER DEMOCRATIC MOVEMENT- KENYA,WDM
ONDUSO,KENNEDY ONSANDO,045,KISII,265,BOMACHOGE CHACHE,1323,MAJOGE BASI,027,JUBILEE PARTY,JP
ONGERI,JEREMIAH OBWOGI ,045,KISII,265,BOMACHOGE CHACHE,1323,MAJOGE BASI,039,PEOPLES DEMOCRATIC PARTY,PDP
ORONDO,ROSA KEMUNTO,045,KISII,265,BOMACHOGE CHACHE,1323,MAJOGE BASI,021,ORANGE DEMOCRATIC MOVEMENT,ODM
SOME,JACKLINE NYAMOITA,045,KISII,265,BOMACHOGE CHACHE,1323,MAJOGE BASI,013,DEMOCRATIC PARTY OF KENYA,DP
SOMONI,STEPHEN OBIERO,045,KISII,265,BOMACHOGE CHACHE,1323,MAJOGE BASI,040,THE NEW DEMOCRATS,TND
ISABOKE,JOSEPHINE ,045,KISII,265,BOMACHOGE CHACHE,1324,BOOCHI TENDERE,044,PARTY OF DEMOCRATIC  UNITY,PDU
MBEGERA,JEZREEL BIKERI,045,KISII,265,BOMACHOGE CHACHE,1324,BOOCHI TENDERE,019,KENYA SOCIAL CONGRESS,KSC
MIRUKA,AMOS OMBOGA,045,KISII,265,BOMACHOGE CHACHE,1324,BOOCHI TENDERE,081,UNITED PROGRESSIVE ALLIANCE,UPA
MOENGA,AMOS ORINA,045,KISII,265,BOMACHOGE CHACHE,1324,BOOCHI TENDERE,IND,INDEPENDENT,IND
MONARI,DAVID ONDEYO,045,KISII,265,BOMACHOGE CHACHE,1324,BOOCHI TENDERE,025,PROGRESSIVE PARTY OF KENYA,PPOK
MOSETI,JANE MOSOMI,045,KISII,265,BOMACHOGE CHACHE,1324,BOOCHI TENDERE,IND,INDEPENDENT,IND
NDEGE,CALEB MAGERIA,045,KISII,265,BOMACHOGE CHACHE,1324,BOOCHI TENDERE,085,DEMOCRATIC ACTION PARTY- KENYA,DAP-K
NYAGWOKA,JOEL ONTIRI,045,KISII,265,BOMACHOGE CHACHE,1324,BOOCHI TENDERE,054,CHAMA CHA MASHINANI,CCM
NYAMBANE,FRED OKEMWA,045,KISII,265,BOMACHOGE CHACHE,1324,BOOCHI TENDERE,IND,INDEPENDENT,IND
NYARWATI,JACOB MANG'ONDI ,045,KISII,265,BOMACHOGE CHACHE,1324,BOOCHI TENDERE,IND,INDEPENDENT,IND
OKIOMA,ONGECHI,045,KISII,265,BOMACHOGE CHACHE,1324,BOOCHI TENDERE,083,NATIONAL ORDINARY PEOPLES EMPOWERMENT ,NOPEU
OMBEGERA,DAVID ONDEYO,045,KISII,265,BOMACHOGE CHACHE,1324,BOOCHI TENDERE,033,KENYA AFRICAN NATIONAL UNION,KANU
OMWENO,SAMWEL ASUMARI ,045,KISII,265,BOMACHOGE CHACHE,1324,BOOCHI TENDERE,038,PEOPLES EMPOWERMENT PARTY,PEP
OMWOYO, ATEKA JOSEPH ,045,KISII,265,BOMACHOGE CHACHE,1324,BOOCHI TENDERE,090,UMOJA SUMMIT PARTY,USP
ONDARI,JAMES  MOGOA  OMARE,045,KISII,265,BOMACHOGE CHACHE,1324,BOOCHI TENDERE,027,JUBILEE PARTY,JP
ONDERI,JOSPHAT BOSIRE,045,KISII,265,BOMACHOGE CHACHE,1324,BOOCHI TENDERE,071,NATIONAL LIBERAL PARTY,NLP
ONG'ETA,ELIJAH  MOGUSU,045,KISII,265,BOMACHOGE CHACHE,1324,BOOCHI TENDERE,050,MUUNGANO PARTY,MUUNGANO
SERETI,CHRISPHINE NYAKWARA,045,KISII,265,BOMACHOGE CHACHE,1324,BOOCHI TENDERE,015,UNITED DEMOCRATIC  ALLIANCE,UDA
SIBWOGA,THOMAS OCHIENG,045,KISII,265,BOMACHOGE CHACHE,1324,BOOCHI TENDERE,009,KENYA NATIONAL CONGRESS,KNC
SOSI,BOAZ ITEBA,045,KISII,265,BOMACHOGE CHACHE,1324,BOOCHI TENDERE,021,ORANGE DEMOCRATIC MOVEMENT,ODM
AYUNGA,STANLEY OIRERE,045,KISII,265,BOMACHOGE CHACHE,1325,BOSOTI SENGERA,009,KENYA NATIONAL CONGRESS,KNC
