MOHAMUD,BILAL IBRAHIM,009,MANDERA,044,LAFEY,0220,ALANGO GOF,085,DEMOCRATIC ACTION PARTY- KENYA,DAP-K
SHARIF,JABIR ABDIRAHMAN,009,MANDERA,044,LAFEY,0220,ALANGO GOF,062,AMANI NATIONAL CONGRESS,ANC
SHEIKH,NOORDIN ISMAIL,009,MANDERA,044,LAFEY,0220,ALANGO GOF,027,JUBILEE PARTY,JP
APICHA,DIDA OMAR,010,MARSABIT,045,MOYALE,0221,BUTIYE,015,UNITED DEMOCRATIC  ALLIANCE,UDA
DASE,MOHAMUD WAKO ,010,MARSABIT,045,MOYALE,0221,BUTIYE,041,UNITED DEMOCRATIC MOVEMENT,UDM
DIMA,GOLICHA  TADICHA ,010,MARSABIT,045,MOYALE,0221,BUTIYE,027,JUBILEE PARTY,JP
HUKA,HALKANO   ALI,010,MARSABIT,045,MOYALE,0221,BUTIYE,062,AMANI NATIONAL CONGRESS,ANC
JILLO,JILLO  BORU,010,MARSABIT,045,MOYALE,0221,BUTIYE,065,KENYA REFORM PARTY,KRP
QAMPARE,IBRAHIM ROBA,010,MARSABIT,045,MOYALE,0221,BUTIYE,021,ORANGE DEMOCRATIC MOVEMENT,ODM
WAKO,DIDA GALGALO,010,MARSABIT,045,MOYALE,0221,BUTIYE,033,KENYA AFRICAN NATIONAL UNION,KANU
WARIO,SADIA MOHAMED,010,MARSABIT,045,MOYALE,0221,BUTIYE,034,SAFINA,SAFINA
ALIO,GABRIEL GALGALO  ,010,MARSABIT,045,MOYALE,0222,SOLOLO,041,UNITED DEMOCRATIC MOVEMENT,UDM
GOLICHA,JATTANI  DID,010,MARSABIT,045,MOYALE,0222,SOLOLO,027,JUBILEE PARTY,JP
HUKA,BORU    JOHN ,010,MARSABIT,045,MOYALE,0222,SOLOLO,023,FORUM FOR RESTORATION OF DEMOCRACY-KENYA,FORD-KENYA
QABALE,HUQA,010,MARSABIT,045,MOYALE,0222,SOLOLO,015,UNITED DEMOCRATIC  ALLIANCE,UDA
TACHE,JOHN SHUNU,010,MARSABIT,045,MOYALE,0222,SOLOLO,040,THE NEW DEMOCRATS,TND
WAKO,SOMO ADAN,010,MARSABIT,045,MOYALE,0222,SOLOLO,046,UNITED PARTY OF INDEPENDENT ALLIANCE,UPIA
BAGAJA,IBRAHIM   MOHAMED,010,MARSABIT,045,MOYALE,0223,HEILLU MANYATTA ,062,AMANI NATIONAL CONGRESS,ANC
DAWE,JOHN KILLO,010,MARSABIT,045,MOYALE,0223,HEILLU MANYATTA ,085,DEMOCRATIC ACTION PARTY- KENYA,DAP-K
DIBA,ADAN WARIO,010,MARSABIT,045,MOYALE,0223,HEILLU MANYATTA ,023,FORUM FOR RESTORATION OF DEMOCRACY-KENYA,FORD-KENYA
DIDA,ADAN GALGALO,010,MARSABIT,045,MOYALE,0223,HEILLU MANYATTA ,012,WIPER DEMOCRATIC MOVEMENT- KENYA,WDM
DIDA,ADANOOR ISACK,010,MARSABIT,045,MOYALE,0223,HEILLU MANYATTA ,033,KENYA AFRICAN NATIONAL UNION,KANU
LEO,IBRAHIM MOHAMMAD,010,MARSABIT,045,MOYALE,0223,HEILLU MANYATTA ,041,UNITED DEMOCRATIC MOVEMENT,UDM
MICHAL,SIBA HAILA,010,MARSABIT,045,MOYALE,0223,HEILLU MANYATTA ,021,ORANGE DEMOCRATIC MOVEMENT,ODM
OSHE,GETU SAMUEL,010,MARSABIT,045,MOYALE,0223,HEILLU MANYATTA ,015,UNITED DEMOCRATIC  ALLIANCE,UDA
SARO,GALMA SADIA,010,MARSABIT,045,MOYALE,0223,HEILLU MANYATTA ,080,USAWA KWA WOTE PARTY,USAWA
WAKO,HUSSEIN  ABDI,010,MARSABIT,045,MOYALE,0223,HEILLU MANYATTA ,027,JUBILEE PARTY,JP
BASHIR,ABDIRAHMAN SHEIKH,010,MARSABIT,045,MOYALE,0224,GOLBO,046,UNITED PARTY OF INDEPENDENT ALLIANCE,UPIA
BONAYA,HUSSEIN ALI,010,MARSABIT,045,MOYALE,0224,GOLBO,023,FORUM FOR RESTORATION OF DEMOCRACY-KENYA,FORD-KENYA
DIDA,ADI EDIN,010,MARSABIT,045,MOYALE,0224,GOLBO,033,KENYA AFRICAN NATIONAL UNION,KANU
DIDA,IBRAHIM MOHAMED,010,MARSABIT,045,MOYALE,0224,GOLBO,IND,INDEPENDENT,IND
EDIN,DAUD ADAN,010,MARSABIT,045,MOYALE,0224,GOLBO,021,ORANGE DEMOCRATIC MOVEMENT,ODM
HABKE,MUSDAF MOHAMED,010,MARSABIT,045,MOYALE,0224,GOLBO,062,AMANI NATIONAL CONGRESS,ANC
HASSAN,RASHID SHEIKH,010,MARSABIT,045,MOYALE,0224,GOLBO,041,UNITED DEMOCRATIC MOVEMENT,UDM
