MASUMBUKO,ABDULRAHMAN MOHAMED,001,MOMBASA,003,KISAUNI,0015,SHANZU,033,KENYA AFRICAN NATIONAL UNION,KANU
MAYAKA,EVANS OMBUI,001,MOMBASA,003,KISAUNI,0015,SHANZU,019,KENYA SOCIAL CONGRESS,KSC
MENGI,DICKSON LELO,001,MOMBASA,003,KISAUNI,0015,SHANZU,IND,INDEPENDENT,IND
MOSES,ZUWENA SANDIEL,001,MOMBASA,003,KISAUNI,0015,SHANZU,049,FEDERAL PARTY OF KENYA,FPK
MUTHOKA,KENNETH MAUNDU ,001,MOMBASA,003,KISAUNI,0015,SHANZU,027,JUBILEE PARTY,JP
MWACHUPHI,BAKARI ALI,001,MOMBASA,003,KISAUNI,0015,SHANZU,012,WIPER DEMOCRATIC MOVEMENT- KENYA,WDM
MWAMBO,RASHID MWACHANO,001,MOMBASA,003,KISAUNI,0015,SHANZU,091,PAMOJA AFRICAN ALLIANCE,PAA
NYANUMBA,JARED MICAH,001,MOMBASA,003,KISAUNI,0015,SHANZU,080,USAWA KWA WOTE PARTY,USAWA
OBEGI,JARED NYAMWEYA ,001,MOMBASA,003,KISAUNI,0015,SHANZU,IND,INDEPENDENT,IND
OBENGELE,JOYCE AWUORI,001,MOMBASA,003,KISAUNI,0015,SHANZU,IND,INDEPENDENT,IND
ONDOYI,GEORGE SUNE,001,MOMBASA,003,KISAUNI,0015,SHANZU,014,PARTY OF NATIONAL UNITY,PNU
ABDALLA,KHALIDA SALIM,001,MOMBASA,004,NYALI,0016,FRERE TOWN,IND,INDEPENDENT,IND
BANDAL,JASMIN MOHAMED ,001,MOMBASA,004,NYALI,0016,FRERE TOWN,IND,INDEPENDENT,IND
DZUYA,ANTHONY KATTAMA,001,MOMBASA,004,NYALI,0016,FRERE TOWN,012,WIPER DEMOCRATIC MOVEMENT- KENYA,WDM
KALAMA,ALPHONCE KATANA,001,MOMBASA,004,NYALI,0016,FRERE TOWN,085,DEMOCRATIC ACTION PARTY- KENYA,DAP-K
KANYIRI,SIMON NJAU,001,MOMBASA,004,NYALI,0016,FRERE TOWN,IND,INDEPENDENT,IND
KITULA,CHARLES JUMA,001,MOMBASA,004,NYALI,0016,FRERE TOWN,015,UNITED DEMOCRATIC  ALLIANCE,UDA
MUHAMBI,DAVID WANJE,001,MOMBASA,004,NYALI,0016,FRERE TOWN,091,PAMOJA AFRICAN ALLIANCE,PAA
MUNGWANA,AMRY DENA,001,MOMBASA,004,NYALI,0016,FRERE TOWN,080,USAWA KWA WOTE PARTY,USAWA
NGAATU,BENEDICT MUTUNGA,001,MOMBASA,004,NYALI,0016,FRERE TOWN,IND,INDEPENDENT,IND
NYOLU,DANIEL MUNYASIA ,001,MOMBASA,004,NYALI,0016,FRERE TOWN,040,THE NEW DEMOCRATS,TND
OMOLLO,DAVID ODHIAMBO,001,MOMBASA,004,NYALI,0016,FRERE TOWN,060,VIBRANT DEMOCRATIC PARTY,VDP
RACHUONYO,HANNINGTON OYUGI,001,MOMBASA,004,NYALI,0016,FRERE TOWN,033,KENYA AFRICAN NATIONAL UNION,KANU
SALIM,MARYAM SHARIFF ,001,MOMBASA,004,NYALI,0016,FRERE TOWN,021,ORANGE DEMOCRATIC MOVEMENT,ODM
ABDULRAHAMAN,ABDALLAH,001,MOMBASA,004,NYALI,0017,ZIWA LA NG'OMBE,IND,INDEPENDENT,IND
ALI,MOHAMED MATANO,001,MOMBASA,004,NYALI,0017,ZIWA LA NG'OMBE,IND,INDEPENDENT,IND
ATHUMAN,HAMISI NYOTA,001,MOMBASA,004,NYALI,0017,ZIWA LA NG'OMBE,021,ORANGE DEMOCRATIC MOVEMENT,ODM
BENARD,ANTHONY MUSYOKA,001,MOMBASA,004,NYALI,0017,ZIWA LA NG'OMBE,012,WIPER DEMOCRATIC MOVEMENT- KENYA,WDM
DANIEL,FRANCIS MASYUKI ,001,MOMBASA,004,NYALI,0017,ZIWA LA NG'OMBE,067,MAENDELEO CHAP CHAP PARTY,MCCP
GALGALO,MOHAMED DUBA,001,MOMBASA,004,NYALI,0017,ZIWA LA NG'OMBE,015,UNITED DEMOCRATIC  ALLIANCE,UDA
KALUME,SALIM DAUID,001,MOMBASA,004,NYALI,0017,ZIWA LA NG'OMBE,IND,INDEPENDENT,IND
KIMWELE,PETER MAITHYA,001,MOMBASA,004,NYALI,0017,ZIWA LA NG'OMBE,091,PAMOJA AFRICAN ALLIANCE,PAA
KONDE,MAXWELL KARISA ,001,MOMBASA,004,NYALI,0017,ZIWA LA NG'OMBE,085,DEMOCRATIC ACTION PARTY- KENYA,DAP-K
KWITA,DESMOND MLANDA ,001,MOMBASA,004,NYALI,0017,ZIWA LA NG'OMBE,049,FEDERAL PARTY OF KENYA,FPK
