OSORO,KENNEDY OTWORI,046,NYAMIRA,270,KITUTU MASABA,1347,GACHUBA,044,PARTY OF DEMOCRATIC  UNITY,PDU
OTEO,THOMAS NYAKUNDI,046,NYAMIRA,270,KITUTU MASABA,1347,GACHUBA,085,DEMOCRATIC ACTION PARTY- KENYA,DAP-K
OTERO,EMMANUEL BIAGE ,046,NYAMIRA,270,KITUTU MASABA,1347,GACHUBA,005,MWANGAZA TU PARTY,MTP
MAKORI,ALEX CHAIRO,046,NYAMIRA,270,KITUTU MASABA,1348,KEMERA,081,UNITED PROGRESSIVE ALLIANCE,UPA
MISORO,ERIC OSORO,046,NYAMIRA,270,KITUTU MASABA,1348,KEMERA,015,UNITED DEMOCRATIC  ALLIANCE,UDA
MOKAYA,NATHAN BOSIRE,046,NYAMIRA,270,KITUTU MASABA,1348,KEMERA,080,USAWA KWA WOTE PARTY,USAWA
NGORWE,HENRY OMWAMBA ,046,NYAMIRA,270,KITUTU MASABA,1348,KEMERA,023,FORUM FOR RESTORATION OF DEMOCRACY-KENYA,FORD-KENYA
NYACHAE,GEORGE MORARA,046,NYAMIRA,270,KITUTU MASABA,1348,KEMERA,021,ORANGE DEMOCRATIC MOVEMENT,ODM
NYACHAKI,JAMES MATINGA,046,NYAMIRA,270,KITUTU MASABA,1348,KEMERA,012,WIPER DEMOCRATIC MOVEMENT- KENYA,WDM
NYAKUNDI,OBADIAH OYUSO,046,NYAMIRA,270,KITUTU MASABA,1348,KEMERA,009,KENYA NATIONAL CONGRESS,KNC
NYAKUNDI ,WILFRED M ,046,NYAMIRA,270,KITUTU MASABA,1348,KEMERA,025,PROGRESSIVE PARTY OF KENYA,PPOK
NYATANGI,YUVINALIS OMOYO ,046,NYAMIRA,270,KITUTU MASABA,1348,KEMERA,005,MWANGAZA TU PARTY,MTP
OMAO,VINCENT MARIITA,046,NYAMIRA,270,KITUTU MASABA,1348,KEMERA,IND,INDEPENDENT,IND
ORINA,ZIPPORAH KEMUNTO,046,NYAMIRA,270,KITUTU MASABA,1348,KEMERA,027,JUBILEE PARTY,JP
SINGAKA,THADDEUS SITEMBA ,046,NYAMIRA,270,KITUTU MASABA,1348,KEMERA,068,DEMOCRATIC CONGRESS,DC
SOMONI,JOSHUA ONSONGO,046,NYAMIRA,270,KITUTU MASABA,1348,KEMERA,033,KENYA AFRICAN NATIONAL UNION,KANU
VINCENT,MATAYA SAMUEL,046,NYAMIRA,270,KITUTU MASABA,1348,KEMERA,019,KENYA SOCIAL CONGRESS,KSC
WILLIAM,NYAKUNDI,046,NYAMIRA,270,KITUTU MASABA,1348,KEMERA,067,MAENDELEO CHAP CHAP PARTY,MCCP
ABUGA,ANDREW KIRIAGO,046,NYAMIRA,270,KITUTU MASABA,1349,MAGOMBO,034,SAFINA,SAFINA
ABUGA,RICHARD NIXON ONYINKWA,046,NYAMIRA,270,KITUTU MASABA,1349,MAGOMBO,081,UNITED PROGRESSIVE ALLIANCE,UPA
GICHANA,NELSON ONSONGO ,046,NYAMIRA,270,KITUTU MASABA,1349,MAGOMBO,068,DEMOCRATIC CONGRESS,DC
MACHONGO,ZIPPORAH KWAMBOKA,046,NYAMIRA,270,KITUTU MASABA,1349,MAGOMBO,033,KENYA AFRICAN NATIONAL UNION,KANU
MAKORI,WALTER MOSETI,046,NYAMIRA,270,KITUTU MASABA,1349,MAGOMBO,019,KENYA SOCIAL CONGRESS,KSC
MAKWORO,WYCLIFFE GICHANA,046,NYAMIRA,270,KITUTU MASABA,1349,MAGOMBO,027,JUBILEE PARTY,JP
MARIERA,GEORGE MOKAYA,046,NYAMIRA,270,KITUTU MASABA,1349,MAGOMBO,022,PEOPLES PARTY OF KENYA,PPK
OBURE,HESBON SAGINI,046,NYAMIRA,270,KITUTU MASABA,1349,MAGOMBO,083,NATIONAL ORDINARY PEOPLES EMPOWERMENT ,NOPEU
OGOTI,SHADRACK,046,NYAMIRA,270,KITUTU MASABA,1349,MAGOMBO,IND,INDEPENDENT,IND
OMWENGA,HENRY AYOGO,046,NYAMIRA,270,KITUTU MASABA,1349,MAGOMBO,038,PEOPLES EMPOWERMENT PARTY,PEP
OMWERI,SAMUEL OMWERI ,046,NYAMIRA,270,KITUTU MASABA,1349,MAGOMBO,080,USAWA KWA WOTE PARTY,USAWA
ONDIEKI,STEPHEN OMORO,046,NYAMIRA,270,KITUTU MASABA,1349,MAGOMBO,015,UNITED DEMOCRATIC  ALLIANCE,UDA
ONGERI,HESBON NYAUMBO ,046,NYAMIRA,270,KITUTU MASABA,1349,MAGOMBO,IND,INDEPENDENT,IND
ONTIRI,EZRA MOCHIEMO,046,NYAMIRA,270,KITUTU MASABA,1349,MAGOMBO,021,ORANGE DEMOCRATIC MOVEMENT,ODM
ORINA,PETER OMWANSA,046,NYAMIRA,270,KITUTU MASABA,1349,MAGOMBO,025,PROGRESSIVE PARTY OF KENYA,PPOK
RIECHI,REUBEN MIINDA,046,NYAMIRA,270,KITUTU MASABA,1349,MAGOMBO,023,FORUM FOR RESTORATION OF DEMOCRACY-KENYA,FORD-KENYA
