LANGAT,KENNETH KIMUTAI ,035,KERICHO,189,KIPKELION WEST,0941,KAMASIAN,IND,INDEPENDENT,IND
RONO,PHILIP KINGETICH,035,KERICHO,189,KIPKELION WEST,0941,KAMASIAN,015,UNITED DEMOCRATIC  ALLIANCE,UDA
CHEPKWONY,JOSEPHINE CHEMUTAI,035,KERICHO,189,KIPKELION WEST,0942,KIPKELION,IND,INDEPENDENT,IND
LANGAT,GEOFREY KIPKEMOI,035,KERICHO,189,KIPKELION WEST,0942,KIPKELION,IND,INDEPENDENT,IND
RUTO,ANTHONY KIBET,035,KERICHO,189,KIPKELION WEST,0942,KIPKELION,015,UNITED DEMOCRATIC  ALLIANCE,UDA
KIPNGENO,HEZRON,035,KERICHO,189,KIPKELION WEST,0943,CHILCHILA,015,UNITED DEMOCRATIC  ALLIANCE,UDA
KIRWA,DANIEL  KIPKOECH ,035,KERICHO,189,KIPKELION WEST,0943,CHILCHILA,062,AMANI NATIONAL CONGRESS,ANC
KORIR,ABRAHAM CHERUIYOT,035,KERICHO,189,KIPKELION WEST,0943,CHILCHILA,002,THE NATIONAL VISION PARTY,NVP
KOSKEI,KIPKEMOI,035,KERICHO,189,KIPKELION WEST,0943,CHILCHILA,IND,INDEPENDENT,IND
BRIAN,ROTICH SAMOEI,035,KERICHO,190,AINAMOI,0944,KAPSOIT,IND,INDEPENDENT,IND
CHIRCHIR,PAUL KIBIEGON ,035,KERICHO,190,AINAMOI,0944,KAPSOIT,015,UNITED DEMOCRATIC  ALLIANCE,UDA
KEMBOI,BENARD KIPKOECH ,035,KERICHO,190,AINAMOI,0944,KAPSOIT,IND,INDEPENDENT,IND
BETT,CHERUIYOT,035,KERICHO,190,AINAMOI,0945,AINAMOI,015,UNITED DEMOCRATIC  ALLIANCE,UDA
SEREM,KIPRONO JULIUS,035,KERICHO,190,AINAMOI,0945,AINAMOI,IND,INDEPENDENT,IND
CHEPKOECH,GLADYS,035,KERICHO,190,AINAMOI,0946,KAPKUGERWET,054,CHAMA CHA MASHINANI,CCM
CHERUIYOT,MARTIN KIPLANGAT,035,KERICHO,190,AINAMOI,0946,KAPKUGERWET,015,UNITED DEMOCRATIC  ALLIANCE,UDA
COLLINS,KIPRONO BIEGON,035,KERICHO,190,AINAMOI,0946,KAPKUGERWET,IND,INDEPENDENT,IND
KIBET,TONUI FREDRICK,035,KERICHO,190,AINAMOI,0946,KAPKUGERWET,IND,INDEPENDENT,IND
KIPLANGAT,CLINTON,035,KERICHO,190,AINAMOI,0946,KAPKUGERWET,062,AMANI NATIONAL CONGRESS,ANC
RUTO,ELIJAH KIPKURUI,035,KERICHO,190,AINAMOI,0946,KAPKUGERWET,IND,INDEPENDENT,IND
CHELANGAT,MARY BETTY,035,KERICHO,190,AINAMOI,0947,KIPCHEBOR,IND,INDEPENDENT,IND
ERIC,KIPKIRUI BETT,035,KERICHO,190,AINAMOI,0947,KIPCHEBOR,015,UNITED DEMOCRATIC  ALLIANCE,UDA
GECHUKI,STEPHEN ONYANCHA,035,KERICHO,190,AINAMOI,0947,KIPCHEBOR,061,UBUNTU PEOPLES FORUM,UPF
GEOFFREY,KEINO KIPROTICH,035,KERICHO,190,AINAMOI,0947,KIPCHEBOR,062,AMANI NATIONAL CONGRESS,ANC
JACKLINE,CHEPNGETICH,035,KERICHO,190,AINAMOI,0947,KIPCHEBOR,IND,INDEPENDENT,IND
KEMEI,JOSEPH KIPKIRUI,035,KERICHO,190,AINAMOI,0947,KIPCHEBOR,IND,INDEPENDENT,IND
OMANGA,YUSUF RAMADHANI,035,KERICHO,190,AINAMOI,0947,KIPCHEBOR,IND,INDEPENDENT,IND
RONALD,KIRUI,035,KERICHO,190,AINAMOI,0947,KIPCHEBOR,IND,INDEPENDENT,IND
SIELE,JOEL KIPKORIR,035,KERICHO,190,AINAMOI,0947,KIPCHEBOR,IND,INDEPENDENT,IND
TUM,NICHOLAS KIPTONUI,035,KERICHO,190,AINAMOI,0947,KIPCHEBOR,021,ORANGE DEMOCRATIC MOVEMENT,ODM
YEGON,BENARD KIPKOECH ,035,KERICHO,190,AINAMOI,0947,KIPCHEBOR,IND,INDEPENDENT,IND
DENNIS,KIPKIRUI,035,KERICHO,190,AINAMOI,0948,KIPCHIMCHIM,IND,INDEPENDENT,IND
MUTAI,PHILIPH KIPNGENOH,035,KERICHO,190,AINAMOI,0948,KIPCHIMCHIM,015,UNITED DEMOCRATIC  ALLIANCE,UDA
BIAZON,KIPCHIRCHIR LANGAT,035,KERICHO,190,AINAMOI,0949,KAPSAOS,IND,INDEPENDENT,IND
