JOHN,SAMBO MAINAMA,045,KISII,264,BOBASI,1320,BOBASI CHACHE,081,UNITED PROGRESSIVE ALLIANCE,UPA
KEROSI,VINCENT MARIITA,045,KISII,264,BOBASI,1320,BOBASI CHACHE,025,PROGRESSIVE PARTY OF KENYA,PPOK
MAKORI,ERICK NCHORE,045,KISII,264,BOBASI,1320,BOBASI CHACHE,088,TUJIBEBE WAKENYA PARTY,JIBEBE
MAYIENDA,DENNIS MOSE,045,KISII,264,BOBASI,1320,BOBASI CHACHE,071,NATIONAL LIBERAL PARTY,NLP
MOGAKA,BENARD MACHOGU ,045,KISII,264,BOBASI,1320,BOBASI CHACHE,019,KENYA SOCIAL CONGRESS,KSC
NYAMBASORA,IBRAHIM OANDA,045,KISII,264,BOBASI,1320,BOBASI CHACHE,IND,INDEPENDENT,IND
OBURE,JOB ISAAC O,045,KISII,264,BOBASI,1320,BOBASI CHACHE,IND,INDEPENDENT,IND
OBURE,RUTH MONGINA,045,KISII,264,BOBASI,1320,BOBASI CHACHE,058,REPUBLICAN LIBERTY PARTY,RLP
OMBEO,JAPHETH OMARI,045,KISII,264,BOBASI,1320,BOBASI CHACHE,021,ORANGE DEMOCRATIC MOVEMENT,ODM
ONGERI,JOSEPH OGEGA,045,KISII,264,BOBASI,1320,BOBASI CHACHE,034,SAFINA,SAFINA
OYARO,JULIUS ,045,KISII,264,BOBASI,1320,BOBASI CHACHE,039,PEOPLES DEMOCRATIC PARTY,PDP
SIOCHA,ROBERT  NYAMACHE,045,KISII,264,BOBASI,1320,BOBASI CHACHE,027,JUBILEE PARTY,JP
ANYONA,TRANSHILL KERONCHE,045,KISII,264,BOBASI,1321,SAMETA MOKWERERO,081,UNITED PROGRESSIVE ALLIANCE,UPA
ISABOKE,CHARLES OMARI,045,KISII,264,BOBASI,1321,SAMETA MOKWERERO,044,PARTY OF DEMOCRATIC  UNITY,PDU
ISABOKE,YOBESH NYANG'AU ,045,KISII,264,BOBASI,1321,SAMETA MOKWERERO,013,DEMOCRATIC PARTY OF KENYA,DP
MARIITA,DENIS NYANDEGE,045,KISII,264,BOBASI,1321,SAMETA MOKWERERO,025,PROGRESSIVE PARTY OF KENYA,PPOK
MOGIRE,KEFA OMBUHI,045,KISII,264,BOBASI,1321,SAMETA MOKWERERO,IND,INDEPENDENT,IND
MOSE,OBED GITIERA,045,KISII,264,BOBASI,1321,SAMETA MOKWERERO,040,THE NEW DEMOCRATS,TND
NTABO,PETER AMBOKO,045,KISII,264,BOBASI,1321,SAMETA MOKWERERO,IND,INDEPENDENT,IND
OIRERE,BONFACE MARUBE ,045,KISII,264,BOBASI,1321,SAMETA MOKWERERO,038,PEOPLES EMPOWERMENT PARTY,PEP
OMBATI,GEOFFREY OMBUI,045,KISII,264,BOBASI,1321,SAMETA MOKWERERO,021,ORANGE DEMOCRATIC MOVEMENT,ODM
ONDARI,JOSEPH SONYE,045,KISII,264,BOBASI,1321,SAMETA MOKWERERO,012,WIPER DEMOCRATIC MOVEMENT- KENYA,WDM
ONGERI,ALEX MACHOKA,045,KISII,264,BOBASI,1321,SAMETA MOKWERERO,080,USAWA KWA WOTE PARTY,USAWA
ORIANSA,HENRY,045,KISII,264,BOBASI,1321,SAMETA MOKWERERO,085,DEMOCRATIC ACTION PARTY- KENYA,DAP-K
ANYIMU,JARED MOMANYI,045,KISII,264,BOBASI,1322,BOBASI BOITANGARE,085,DEMOCRATIC ACTION PARTY- KENYA,DAP-K
ASANYA,BENARD MANONO,045,KISII,264,BOBASI,1322,BOBASI BOITANGARE,IND,INDEPENDENT,IND
BITINARI,JARED MACHUKI,045,KISII,264,BOBASI,1322,BOBASI BOITANGARE,080,USAWA KWA WOTE PARTY,USAWA
MAKORI,JOHN OMBOGA,045,KISII,264,BOBASI,1322,BOBASI BOITANGARE,IND,INDEPENDENT,IND
MANGUA,PETER AKEYA,045,KISII,264,BOBASI,1322,BOBASI BOITANGARE,015,UNITED DEMOCRATIC  ALLIANCE,UDA
MATURWE,BILANCIO NYAKOE ,045,KISII,264,BOBASI,1322,BOBASI BOITANGARE,021,ORANGE DEMOCRATIC MOVEMENT,ODM
MOMANYI,JUSTINE ,045,KISII,264,BOBASI,1322,BOBASI BOITANGARE,081,UNITED PROGRESSIVE ALLIANCE,UPA
NYABARO,THOMAS OBARE,045,KISII,264,BOBASI,1322,BOBASI BOITANGARE,IND,INDEPENDENT,IND
OERI,ERIC OYURU,045,KISII,264,BOBASI,1322,BOBASI BOITANGARE,009,KENYA NATIONAL CONGRESS,KNC
OIRERE,CONRAD CHRISTOPHER,045,KISII,264,BOBASI,1322,BOBASI BOITANGARE,027,JUBILEE PARTY,JP
