WANJIRU,ISAAC KUNG'U,018,NYANDARUA,090,KIPIPIRI,0449,WANJOHI,015,UNITED DEMOCRATIC  ALLIANCE,UDA
KIARII,PETER NJUGUNA,018,NYANDARUA,090,KIPIPIRI,0450,KIPIPIRI,IND,INDEPENDENT,IND
MAINA,FRANCIS WAMBUGU,018,NYANDARUA,090,KIPIPIRI,0450,KIPIPIRI,082,THE SERVICE PARTY,TSP
MBUTHI,JESEE MUGO,018,NYANDARUA,090,KIPIPIRI,0450,KIPIPIRI,015,UNITED DEMOCRATIC  ALLIANCE,UDA
METHU,LUCY WANGARI,018,NYANDARUA,090,KIPIPIRI,0450,KIPIPIRI,027,JUBILEE PARTY,JP
MURAYA,JOHN NJUGUNA,018,NYANDARUA,090,KIPIPIRI,0450,KIPIPIRI,IND,INDEPENDENT,IND
NDUNG'U,FREDRICK GIATHI,018,NYANDARUA,090,KIPIPIRI,0450,KIPIPIRI,IND,INDEPENDENT,IND
NGATIA,DENNIS KINYUA,018,NYANDARUA,090,KIPIPIRI,0450,KIPIPIRI,IND,INDEPENDENT,IND
NJAGA,RAPHAEL CHEGE,018,NYANDARUA,090,KIPIPIRI,0450,KIPIPIRI,IND,INDEPENDENT,IND
WAMBAIRE,PAUL NGECHE,018,NYANDARUA,090,KIPIPIRI,0450,KIPIPIRI,087,CHAMA CHA KAZI,KAZI
WANJIKU,SIMON MWANGI,018,NYANDARUA,090,KIPIPIRI,0450,KIPIPIRI,IND,INDEPENDENT,IND
WARUI,ISAAC MUIRURI,018,NYANDARUA,090,KIPIPIRI,0450,KIPIPIRI,IND,INDEPENDENT,IND
GATHIRIMU,SAMUEL CHEGE,018,NYANDARUA,090,KIPIPIRI,0451,GETA,015,UNITED DEMOCRATIC  ALLIANCE,UDA
KIMENJU,JOHN MUGO,018,NYANDARUA,090,KIPIPIRI,0451,GETA,082,THE SERVICE PARTY,TSP
MIHINDO,DAVID MACHARIA,018,NYANDARUA,090,KIPIPIRI,0451,GETA,087,CHAMA CHA KAZI,KAZI
MUTHANWA,JANE WANJIKU,018,NYANDARUA,090,KIPIPIRI,0451,GETA,IND,INDEPENDENT,IND
MWANIKI,JOHN GITHINJI,018,NYANDARUA,090,KIPIPIRI,0451,GETA,IND,INDEPENDENT,IND
NDEGWA,SAMUEL  GITIHA,018,NYANDARUA,090,KIPIPIRI,0451,GETA,027,JUBILEE PARTY,JP
NYAMBURA,MARICELLA MUTHONI,018,NYANDARUA,090,KIPIPIRI,0451,GETA,IND,INDEPENDENT,IND
WANJIRU,JOHN THIONGO,018,NYANDARUA,090,KIPIPIRI,0451,GETA,062,AMANI NATIONAL CONGRESS,ANC
GICHERU,FRANCIS NJUGUNA ,018,NYANDARUA,090,KIPIPIRI,0452,GITHIORO,IND,INDEPENDENT,IND
KAMAU,ISAAC MBAE,018,NYANDARUA,090,KIPIPIRI,0452,GITHIORO,015,UNITED DEMOCRATIC  ALLIANCE,UDA
MUKURIAH,SIMON SAMBIGI,018,NYANDARUA,090,KIPIPIRI,0452,GITHIORO,027,JUBILEE PARTY,JP
MUTURI,JORUM GITHUA,018,NYANDARUA,090,KIPIPIRI,0452,GITHIORO,IND,INDEPENDENT,IND
MWANGI,ESTHER NYAMBURA,018,NYANDARUA,090,KIPIPIRI,0452,GITHIORO,080,USAWA KWA WOTE PARTY,USAWA
MWANGI,SILVESTER KAGIRI ,018,NYANDARUA,090,KIPIPIRI,0452,GITHIORO,087,CHAMA CHA KAZI,KAZI
NJAU,JOSEPH KARANJA,018,NYANDARUA,090,KIPIPIRI,0452,GITHIORO,013,DEMOCRATIC PARTY OF KENYA,DP
RAGUI,DAVID WAWERU,018,NYANDARUA,090,KIPIPIRI,0452,GITHIORO,014,PARTY OF NATIONAL UNITY,PNU
WAITHAKA,MOSES KINYUA,018,NYANDARUA,090,KIPIPIRI,0452,GITHIORO,IND,INDEPENDENT,IND
WANJIKU,JOHN NJENGA,018,NYANDARUA,090,KIPIPIRI,0452,GITHIORO,082,THE SERVICE PARTY,TSP
KARIUKI,RAHAB WANGUI ,018,NYANDARUA,091,OL KALOU,0453,KARAU,IND,INDEPENDENT,IND
MACHARIA,FAITH MUTHONI,018,NYANDARUA,091,OL KALOU,0453,KARAU,IND,INDEPENDENT,IND
NDUNGU,DANIEL GITAU,018,NYANDARUA,091,OL KALOU,0453,KARAU,015,UNITED DEMOCRATIC  ALLIANCE,UDA
NJOROGE,ERIC IGOGO,018,NYANDARUA,091,OL KALOU,0453,KARAU,087,CHAMA CHA KAZI,KAZI
