MUKULU,SHARIFF DAVID,015,KITUI,070,KITUI WEST,0348,MATINYANI,012,WIPER DEMOCRATIC MOVEMENT- KENYA,WDM
MUNYOKI,ELIUD NGALA,015,KITUI,070,KITUI WEST,0348,MATINYANI,095,GREEN THINKING ACTION PARTY,GTAP
MUSEMBI,FRANCIS SIMBA,015,KITUI,070,KITUI WEST,0348,MATINYANI,067,MAENDELEO CHAP CHAP PARTY,MCCP
MUSYOKA,MARSHAL WILLIAM ,015,KITUI,070,KITUI WEST,0348,MATINYANI,075,EMPOWERMENT AND LIBERATION PARTY,ELP
MUSYOKA,SAMUEL MUNYOKI ,015,KITUI,070,KITUI WEST,0348,MATINYANI,IND,INDEPENDENT,IND
WAMBUA,JOEL MUTUA,015,KITUI,070,KITUI WEST,0348,MATINYANI,015,UNITED DEMOCRATIC  ALLIANCE,UDA
MALUKI,PAUL,015,KITUI,070,KITUI WEST,0349,KWA MUTONGA KITHUMULA,015,UNITED DEMOCRATIC  ALLIANCE,UDA
MUNYITHYA,CEDRICK MUIMI,015,KITUI,070,KITUI WEST,0349,KWA MUTONGA KITHUMULA,067,MAENDELEO CHAP CHAP PARTY,MCCP
MUTHANGYA,ANTHONY MUTHUI ,015,KITUI,070,KITUI WEST,0349,KWA MUTONGA KITHUMULA,029,NATIONAL RAINBOW COALITION,NARC
MUTUNGA,MWANZIA,015,KITUI,070,KITUI WEST,0349,KWA MUTONGA KITHUMULA,IND,INDEPENDENT,IND
NGOVU,BONIFACE KIVISU,015,KITUI,070,KITUI WEST,0349,KWA MUTONGA KITHUMULA,027,JUBILEE PARTY,JP
THUVI,DAVID ,015,KITUI,070,KITUI WEST,0349,KWA MUTONGA KITHUMULA,012,WIPER DEMOCRATIC MOVEMENT- KENYA,WDM
WAMBUA,STEPHEN KILUU,015,KITUI,070,KITUI WEST,0349,KWA MUTONGA KITHUMULA,IND,INDEPENDENT,IND
ISUNI,ABEL MBAI,015,KITUI,071,KITUI RURAL,0350,KISASI,029,NATIONAL RAINBOW COALITION,NARC
MALUKI,MWANGI ,015,KITUI,071,KITUI RURAL,0350,KISASI,080,USAWA KWA WOTE PARTY,USAWA
MUASYA,BENJAMIN MICHAEL,015,KITUI,071,KITUI RURAL,0350,KISASI,015,UNITED DEMOCRATIC  ALLIANCE,UDA
MUSYA,EMERITUS KASEE,015,KITUI,071,KITUI RURAL,0350,KISASI,012,WIPER DEMOCRATIC MOVEMENT- KENYA,WDM
MUTEMI,NICHOLAS MUEMA ,015,KITUI,071,KITUI RURAL,0350,KISASI,032,COMMUNIST PARTY OF KENYA,CPK
NDEKE,PAUL,015,KITUI,071,KITUI RURAL,0350,KISASI,075,EMPOWERMENT AND LIBERATION PARTY,ELP
KINUKA,ROSSINAH NGINA,015,KITUI,071,KITUI RURAL,0351,MBITINI,IND,INDEPENDENT,IND
KITONGA,MANASSEH KILONZO,015,KITUI,071,KITUI RURAL,0351,MBITINI,029,NATIONAL RAINBOW COALITION,NARC
MBUVI,SILAS N,015,KITUI,071,KITUI RURAL,0351,MBITINI,IND,INDEPENDENT,IND
MUTAMBU,MATHEW MATAYO ,015,KITUI,071,KITUI RURAL,0351,MBITINI,033,KENYA AFRICAN NATIONAL UNION,KANU
MUTUA,HENRY MUMO,015,KITUI,071,KITUI RURAL,0351,MBITINI,015,UNITED DEMOCRATIC  ALLIANCE,UDA
MWALALI,NICHOLAS NZOMO,015,KITUI,071,KITUI RURAL,0351,MBITINI,012,WIPER DEMOCRATIC MOVEMENT- KENYA,WDM
MWANZIA,NZAVU,015,KITUI,071,KITUI RURAL,0351,MBITINI,050,MUUNGANO PARTY,MUUNGANO
NZAU,JAMES MWANZIA,015,KITUI,071,KITUI RURAL,0351,MBITINI,067,MAENDELEO CHAP CHAP PARTY,MCCP
SINGI,ONESMUS TITUS ,015,KITUI,071,KITUI RURAL,0351,MBITINI,IND,INDEPENDENT,IND
JOHN,FELIX NYAMAI,015,KITUI,071,KITUI RURAL,0352,KWAVONZA YATTA ,IND,INDEPENDENT,IND
JOSEPH,BONIFACE MUSEE,015,KITUI,071,KITUI RURAL,0352,KWAVONZA YATTA ,IND,INDEPENDENT,IND
KISANGAU,JOHN MUTUKU MBAKI,015,KITUI,071,KITUI RURAL,0352,KWAVONZA YATTA ,015,UNITED DEMOCRATIC  ALLIANCE,UDA
MULWA,JOSEPH MWONGELA,015,KITUI,071,KITUI RURAL,0352,KWAVONZA YATTA ,044,PARTY OF DEMOCRATIC  UNITY,PDU
MWANGANGI,SILVESTERS WILLY ,015,KITUI,071,KITUI RURAL,0352,KWAVONZA YATTA ,012,WIPER DEMOCRATIC MOVEMENT- KENYA,WDM
NDING'O,MARK KITUTE,015,KITUI,071,KITUI RURAL,0352,KWAVONZA YATTA ,IND,INDEPENDENT,IND
