MWANZA,BENEDICTOR MUEKE,016,MACHAKOS,079,KATHIANI,0393,LOWER KAEWA KAANI,IND,INDEPENDENT,IND
NZAU,DANFRED MUSEMBI,016,MACHAKOS,079,KATHIANI,0393,LOWER KAEWA KAANI,021,ORANGE DEMOCRATIC MOVEMENT,ODM
KALOI,JEREMIAH SAITIEU ,016,MACHAKOS,080,MAVOKO,0394,ATHI RIVER,012,WIPER DEMOCRATIC MOVEMENT- KENYA,WDM
KAMAU,JOEL MACHARIA,016,MACHAKOS,080,MAVOKO,0394,ATHI RIVER,067,MAENDELEO CHAP CHAP PARTY,MCCP
KYALO,SIMON MUTUA,016,MACHAKOS,080,MAVOKO,0394,ATHI RIVER,IND,INDEPENDENT,IND
LUKOYE,CHARLES MULONGO,016,MACHAKOS,080,MAVOKO,0394,ATHI RIVER,085,DEMOCRATIC ACTION PARTY- KENYA,DAP-K
MASAVU,VICTOR,016,MACHAKOS,080,MAVOKO,0394,ATHI RIVER,036,CHAMA CHA UZALENDO,CCU
MUINDE,JONATHAN MUTISYA,016,MACHAKOS,080,MAVOKO,0394,ATHI RIVER,IND,INDEPENDENT,IND
MUSYIMI,SHADRACK MUTUA ,016,MACHAKOS,080,MAVOKO,0394,ATHI RIVER,IND,INDEPENDENT,IND
MUTHAMA,RAPHAEL KITHIKA,016,MACHAKOS,080,MAVOKO,0394,ATHI RIVER,IND,INDEPENDENT,IND
MUTINDA,PETER MUOKI,016,MACHAKOS,080,MAVOKO,0394,ATHI RIVER,015,UNITED DEMOCRATIC  ALLIANCE,UDA
MUTUA,DANIEL WAMBUA,016,MACHAKOS,080,MAVOKO,0394,ATHI RIVER,IND,INDEPENDENT,IND
MUTUA,FRED MUSEE,016,MACHAKOS,080,MAVOKO,0394,ATHI RIVER,IND,INDEPENDENT,IND
MUTUA,MUTUKU MICHAEL ,016,MACHAKOS,080,MAVOKO,0394,ATHI RIVER,IND,INDEPENDENT,IND
MWANZIA,CHARLES KYALO,016,MACHAKOS,080,MAVOKO,0394,ATHI RIVER,027,JUBILEE PARTY,JP
MWENDE,JOYCE KINAVI,016,MACHAKOS,080,MAVOKO,0394,ATHI RIVER,009,KENYA NATIONAL CONGRESS,KNC
NDIVO,KIJANA MUTHIANI,016,MACHAKOS,080,MAVOKO,0394,ATHI RIVER,033,KENYA AFRICAN NATIONAL UNION,KANU
NTHIW'A,ERIC MUMO,016,MACHAKOS,080,MAVOKO,0394,ATHI RIVER,007,PARTY OF INDEPENDENT CANDIDATES OF KENYA,PICK
NZIOKI,ANTHONY NDOLO,016,MACHAKOS,080,MAVOKO,0394,ATHI RIVER,IND,INDEPENDENT,IND
NZIOKI,STEPHEN MUTUKU ,016,MACHAKOS,080,MAVOKO,0394,ATHI RIVER,IND,INDEPENDENT,IND
NZUVI,STEPHEN MBUVI,016,MACHAKOS,080,MAVOKO,0394,ATHI RIVER,IND,INDEPENDENT,IND
ONGARE,THOMAS OCHIENG,016,MACHAKOS,080,MAVOKO,0394,ATHI RIVER,075,EMPOWERMENT AND LIBERATION PARTY,ELP
WENDO,RAYN ALFRED,016,MACHAKOS,080,MAVOKO,0394,ATHI RIVER,021,ORANGE DEMOCRATIC MOVEMENT,ODM
KAVYU,FRANCIS WAMBUA ,016,MACHAKOS,080,MAVOKO,0395,KINANIE,067,MAENDELEO CHAP CHAP PARTY,MCCP
KITONGA,CATHERINE MUOTI ,016,MACHAKOS,080,MAVOKO,0395,KINANIE,015,UNITED DEMOCRATIC  ALLIANCE,UDA
MUENDO,MARK KIMANTHI,016,MACHAKOS,080,MAVOKO,0395,KINANIE,012,WIPER DEMOCRATIC MOVEMENT- KENYA,WDM
MUTAVA,JAPHETH MUTIE,016,MACHAKOS,080,MAVOKO,0395,KINANIE,027,JUBILEE PARTY,JP
NDETO,STEPHEN MUTINDA ,016,MACHAKOS,080,MAVOKO,0395,KINANIE,IND,INDEPENDENT,IND
NDWII,DENNY KILIA,016,MACHAKOS,080,MAVOKO,0395,KINANIE,036,CHAMA CHA UZALENDO,CCU
OSINO,MOSES ODUOR,016,MACHAKOS,080,MAVOKO,0395,KINANIE,083,NATIONAL ORDINARY PEOPLES EMPOWERMENT ,NOPEU
ALI,JACOB HAJI,016,MACHAKOS,080,MAVOKO,0396,MUTHWANI,013,DEMOCRATIC PARTY OF KENYA,DP
KIMANI,PETER MBURU,016,MACHAKOS,080,MAVOKO,0396,MUTHWANI,IND,INDEPENDENT,IND
KYANY'A,BERNADETTE WAVINYA,016,MACHAKOS,080,MAVOKO,0396,MUTHWANI,IND,INDEPENDENT,IND
MABIRIA,ERICK ANYONA,016,MACHAKOS,080,MAVOKO,0396,MUTHWANI,IND,INDEPENDENT,IND
