OCHOU,OMONDI JULIUS ,040,BUSIA,229,BUTULA,1145,MARACHI EAST,072,MOVEMENT FOR DEMOCRACY AND GROWTH,MDG
ODONGO,HENRY BEBETIUS,040,BUSIA,229,BUTULA,1145,MARACHI EAST,054,CHAMA CHA MASHINANI,CCM
ODUORY,GEORGE,040,BUSIA,229,BUTULA,1145,MARACHI EAST,064,UNITED DEMOCRATIC PARTY,UDP
ODUTSA,OSCAR ONESMUS MADOYI,040,BUSIA,229,BUTULA,1145,MARACHI EAST,085,DEMOCRATIC ACTION PARTY- KENYA,DAP-K
ODWEYO,KENNEDY,040,BUSIA,229,BUTULA,1145,MARACHI EAST,015,UNITED DEMOCRATIC  ALLIANCE,UDA
PATRICK,OMINA ONYANGO,040,BUSIA,229,BUTULA,1145,MARACHI EAST,067,MAENDELEO CHAP CHAP PARTY,MCCP
ASUKA,SIMON SIMIYU ANINDO,040,BUSIA,229,BUTULA,1146,MARACHI NORTH,021,ORANGE DEMOCRATIC MOVEMENT,ODM
KHASAKHALA,ANTONY OMWITSA ,040,BUSIA,229,BUTULA,1146,MARACHI NORTH,084,NATIONAL RECONSTRUCTION ALLIANCE,NRA
KUBASU,ZACCHEAUS ADUKEYI,040,BUSIA,229,BUTULA,1146,MARACHI NORTH,072,MOVEMENT FOR DEMOCRACY AND GROWTH,MDG
MAKHULO,MAGDALENE LAURA AUMA,040,BUSIA,229,BUTULA,1146,MARACHI NORTH,027,JUBILEE PARTY,JP
MBUYA,DOUGLAS,040,BUSIA,229,BUTULA,1146,MARACHI NORTH,023,FORUM FOR RESTORATION OF DEMOCRACY-KENYA,FORD-KENYA
MURIKA,RAYMOND ASINTU ,040,BUSIA,229,BUTULA,1146,MARACHI NORTH,015,UNITED DEMOCRATIC  ALLIANCE,UDA
MUSIBI,AARON WANZALA,040,BUSIA,229,BUTULA,1146,MARACHI NORTH,079,UNITED GREEN MOVEMENT,UGM
OLIARO,JAMES EMAN,040,BUSIA,229,BUTULA,1146,MARACHI NORTH,IND,INDEPENDENT,IND
ONGOMA,CONSTANT OJOO,040,BUSIA,229,BUTULA,1146,MARACHI NORTH,IND,INDEPENDENT,IND
ORAMBO,CONRAD LONGINOS ,040,BUSIA,229,BUTULA,1146,MARACHI NORTH,062,AMANI NATIONAL CONGRESS,ANC
PETER, NYANGWESO OGOLLA,040,BUSIA,229,BUTULA,1146,MARACHI NORTH,IND,INDEPENDENT,IND
RAKAMA,LUKAS OMONDI,040,BUSIA,229,BUTULA,1146,MARACHI NORTH,085,DEMOCRATIC ACTION PARTY- KENYA,DAP-K
RAPENDA,PATRICK NGORE,040,BUSIA,229,BUTULA,1146,MARACHI NORTH,IND,INDEPENDENT,IND
WANALWENGE,EPHRAIM LAWRENCE,040,BUSIA,229,BUTULA,1146,MARACHI NORTH,IND,INDEPENDENT,IND
JUMA,CHRISPINUS ODWOR,040,BUSIA,229,BUTULA,1147,ELUGULU,068,DEMOCRATIC CONGRESS,DC
JUMA,JOHNSTONE I OLOO ,040,BUSIA,229,BUTULA,1147,ELUGULU,079,UNITED GREEN MOVEMENT,UGM
MASAKA,CLEMENT WAFULA ,040,BUSIA,229,BUTULA,1147,ELUGULU,033,KENYA AFRICAN NATIONAL UNION,KANU
NYONGESA,LAWRENCE OCHIENG,040,BUSIA,229,BUTULA,1147,ELUGULU,015,UNITED DEMOCRATIC  ALLIANCE,UDA
ODHIAMBO,PATROBUS ,040,BUSIA,229,BUTULA,1147,ELUGULU,072,MOVEMENT FOR DEMOCRACY AND GROWTH,MDG
OKUMU,EUGINE MIRU,040,BUSIA,229,BUTULA,1147,ELUGULU,062,AMANI NATIONAL CONGRESS,ANC
OLELE,CAROLYNE ANYANGO,040,BUSIA,229,BUTULA,1147,ELUGULU,027,JUBILEE PARTY,JP
OLUOCH,SEBASTIAN SUNYA ,040,BUSIA,229,BUTULA,1147,ELUGULU,085,DEMOCRATIC ACTION PARTY- KENYA,DAP-K
ONYANGO,DICKSON TABU,040,BUSIA,229,BUTULA,1147,ELUGULU,IND,INDEPENDENT,IND
ONYANGO,EMMANUEL KIZITO ,040,BUSIA,229,BUTULA,1147,ELUGULU,049,FEDERAL PARTY OF KENYA,FPK
OUMA,WILLIAM OKELLO,040,BUSIA,229,BUTULA,1147,ELUGULU,084,NATIONAL RECONSTRUCTION ALLIANCE,NRA
TSIMBIKO,FREDRICK JUMA O ,040,BUSIA,229,BUTULA,1147,ELUGULU,029,NATIONAL RAINBOW COALITION,NARC
WANDERA,JOSEPHAT,040,BUSIA,229,BUTULA,1147,ELUGULU,021,ORANGE DEMOCRATIC MOVEMENT,ODM
WERE,MICHAEL OBIERO,040,BUSIA,229,BUTULA,1147,ELUGULU,023,FORUM FOR RESTORATION OF DEMOCRACY-KENYA,FORD-KENYA
