MURUKU,EVAN KIMANI,032,NAKURU,174,BAHATI,0869,BAHATI,IND,INDEPENDENT,IND
MWANGI,PETER MAINA,032,NAKURU,174,BAHATI,0869,BAHATI,IND,INDEPENDENT,IND
MWANGI,PETER NDERITU,032,NAKURU,174,BAHATI,0869,BAHATI,027,JUBILEE PARTY,JP
MWATHI,GRACE WAMBUI,032,NAKURU,174,BAHATI,0869,BAHATI,015,UNITED DEMOCRATIC  ALLIANCE,UDA
NDONGA,NICHOLAS MBUGUA,032,NAKURU,174,BAHATI,0869,BAHATI,IND,INDEPENDENT,IND
NDONYO,JOHN NJUGUNA,032,NAKURU,174,BAHATI,0869,BAHATI,IND,INDEPENDENT,IND
NJAGI,MARYANN NYARUAI,032,NAKURU,174,BAHATI,0869,BAHATI,062,AMANI NATIONAL CONGRESS,ANC
NYORO,ANN NJERI,032,NAKURU,174,BAHATI,0869,BAHATI,080,USAWA KWA WOTE PARTY,USAWA
WAINAINA,JOHN NGUGI,032,NAKURU,174,BAHATI,0869,BAHATI,087,CHAMA CHA KAZI,KAZI
WAITHAKA,WILSON KARIUKI,032,NAKURU,174,BAHATI,0869,BAHATI,IND,INDEPENDENT,IND
WANGARI,JOSEPH MUNA,032,NAKURU,174,BAHATI,0869,BAHATI,IND,INDEPENDENT,IND
ARASA,JARED MOGWASI,032,NAKURU,175,NAKURU TOWN WEST,0870,BARUT,008,DEVOLUTION EMPOWERMENT PARTY,DEP
KIRUI,BENARD KIPROTICH,032,NAKURU,175,NAKURU TOWN WEST,0870,BARUT,015,UNITED DEMOCRATIC  ALLIANCE,UDA
MARITIM,PETER KIBET,032,NAKURU,175,NAKURU TOWN WEST,0870,BARUT,IND,INDEPENDENT,IND
MISATI,STANLEY MACHOKA,032,NAKURU,175,NAKURU TOWN WEST,0870,BARUT,IND,INDEPENDENT,IND
NG'ENO,ABEDNEGO KIPTOO ,032,NAKURU,175,NAKURU TOWN WEST,0870,BARUT,IND,INDEPENDENT,IND
NYAMACHE,DANIEL NYANDEGE ,032,NAKURU,175,NAKURU TOWN WEST,0870,BARUT,027,JUBILEE PARTY,JP
SANG,BENJAMIN,032,NAKURU,175,NAKURU TOWN WEST,0870,BARUT,IND,INDEPENDENT,IND
SIGEI,BENSON,032,NAKURU,175,NAKURU TOWN WEST,0870,BARUT,IND,INDEPENDENT,IND
TINGAA,MARY CHEROTICH ,032,NAKURU,175,NAKURU TOWN WEST,0870,BARUT,062,AMANI NATIONAL CONGRESS,ANC
WACHAGA,ELIJAH WAWERU,032,NAKURU,175,NAKURU TOWN WEST,0870,BARUT,IND,INDEPENDENT,IND
ADHOCH,STEPHEN OCHIENG ,032,NAKURU,175,NAKURU TOWN WEST,0871,LONDON,021,ORANGE DEMOCRATIC MOVEMENT,ODM
KARIUKI,GATUSO BENARD MAINA ,032,NAKURU,175,NAKURU TOWN WEST,0871,LONDON,027,JUBILEE PARTY,JP
KARIUKI,NAOMI WANJIKU,032,NAKURU,175,NAKURU TOWN WEST,0871,LONDON,061,UBUNTU PEOPLES FORUM,UPF
KIMUGE,SHEDRACK CHERUTICH,032,NAKURU,175,NAKURU TOWN WEST,0871,LONDON,IND,INDEPENDENT,IND
MOCHAMA,JOHN ONDARI,032,NAKURU,175,NAKURU TOWN WEST,0871,LONDON,033,KENYA AFRICAN NATIONAL UNION,KANU
NGUNGA,JONES ,032,NAKURU,175,NAKURU TOWN WEST,0871,LONDON,012,WIPER DEMOCRATIC MOVEMENT- KENYA,WDM
NJOGU,FRANCIS NJOROGE ,032,NAKURU,175,NAKURU TOWN WEST,0871,LONDON,015,UNITED DEMOCRATIC  ALLIANCE,UDA
WACHIRA,ANTONY NZUKI,032,NAKURU,175,NAKURU TOWN WEST,0871,LONDON,IND,INDEPENDENT,IND
KAJWANG,PETER MWAMBA,032,NAKURU,175,NAKURU TOWN WEST,0872,KAPTEMBWO,021,ORANGE DEMOCRATIC MOVEMENT,ODM
KIBOIWO,JANET CHELANGAT ,032,NAKURU,175,NAKURU TOWN WEST,0872,KAPTEMBWO,033,KENYA AFRICAN NATIONAL UNION,KANU
KIYONDI,PAUL OMWERI,032,NAKURU,175,NAKURU TOWN WEST,0872,KAPTEMBWO,IND,INDEPENDENT,IND
KORIR,SAMWEL KIPLAGAT ,032,NAKURU,175,NAKURU TOWN WEST,0872,KAPTEMBWO,088,TUJIBEBE WAKENYA PARTY,JIBEBE
MAGOMA,JARED MOMANYI,032,NAKURU,175,NAKURU TOWN WEST,0872,KAPTEMBWO,062,AMANI NATIONAL CONGRESS,ANC
