OSMAN,ABDIRASHID ABDIKADIR,009,MANDERA,043,MANDERA EAST,0214,KHALALIO,046,UNITED PARTY OF INDEPENDENT ALLIANCE,UPIA
RAFAT,ABDINOOR   DAKANE,009,MANDERA,043,MANDERA EAST,0214,KHALALIO,027,JUBILEE PARTY,JP
ALI,ABDIWAHAB ABDIRAHMAN,009,MANDERA,043,MANDERA EAST,0215,LIBEHIA.,048,ECONOMIC FREEDOM PARTY,EFP
HASSAN,ABDULLAHI SHEIKH,009,MANDERA,043,MANDERA EAST,0215,LIBEHIA.,067,MAENDELEO CHAP CHAP PARTY,MCCP
KALIL,JABRIL ADAN,009,MANDERA,043,MANDERA EAST,0215,LIBEHIA.,012,WIPER DEMOCRATIC MOVEMENT- KENYA,WDM
MOAHMED, MOHAMED ABDIKARIM ,009,MANDERA,043,MANDERA EAST,0215,LIBEHIA.,085,DEMOCRATIC ACTION PARTY- KENYA,DAP-K
MOHAMAD,HUSSEIN  MAALIM,009,MANDERA,043,MANDERA EAST,0215,LIBEHIA.,027,JUBILEE PARTY,JP
MOHAMED,MOHAMED IBRAHIM,009,MANDERA,043,MANDERA EAST,0215,LIBEHIA.,041,UNITED DEMOCRATIC MOVEMENT,UDM
MUDEY,ABDINASIR BILLOW  ,009,MANDERA,043,MANDERA EAST,0215,LIBEHIA.,037,NATIONAL AGENDA PARTY OF KENYA,NAPK
NOOR,HASSAN IBRAHIM ABDI,009,MANDERA,043,MANDERA EAST,0215,LIBEHIA.,046,UNITED PARTY OF INDEPENDENT ALLIANCE,UPIA
ROKOW,ABDISALAN BILLOW,009,MANDERA,043,MANDERA EAST,0215,LIBEHIA.,IND,INDEPENDENT,IND
ADAN,ABDULLAHI NOOR,009,MANDERA,044,LAFEY,0216,SALA.,085,DEMOCRATIC ACTION PARTY- KENYA,DAP-K
HASSAN,ABDIHAKIM ALI,009,MANDERA,044,LAFEY,0216,SALA.,001,NATIONAL RAINBOW COALITION-KENYA,NARC-KENYA
KORIYOW,ABDINOOR ALI,009,MANDERA,044,LAFEY,0216,SALA.,080,USAWA KWA WOTE PARTY,USAWA
OSMAN,ABDIRASHID MAALIM,009,MANDERA,044,LAFEY,0216,SALA.,027,JUBILEE PARTY,JP
ADAN, SIYAT KHALIF,009,MANDERA,044,LAFEY,0217,FINO,062,AMANI NATIONAL CONGRESS,ANC
AHMED,SAAD SHIEKH,009,MANDERA,044,LAFEY,0217,FINO,025,PROGRESSIVE PARTY OF KENYA,PPOK
HUSSEIN,HONEY HASSAN,009,MANDERA,044,LAFEY,0217,FINO,033,KENYA AFRICAN NATIONAL UNION,KANU
IBRAHIM,ABDIMALIK MOHAMUD,009,MANDERA,044,LAFEY,0217,FINO,041,UNITED DEMOCRATIC MOVEMENT,UDM
NOOR,YUSSUF MUHUMED ,009,MANDERA,044,LAFEY,0217,FINO,015,UNITED DEMOCRATIC  ALLIANCE,UDA
SALAT,MUKTAR  MOHAMED,009,MANDERA,044,LAFEY,0217,FINO,027,JUBILEE PARTY,JP
SHILLOW,ABDIRAHMAN GAIYA,009,MANDERA,044,LAFEY,0217,FINO,021,ORANGE DEMOCRATIC MOVEMENT,ODM
ADAN,ABDULLAHI SIYAD ,009,MANDERA,044,LAFEY,0218,LAFEY,041,UNITED DEMOCRATIC MOVEMENT,UDM
AHMED,YUSSUF ABEY ,009,MANDERA,044,LAFEY,0218,LAFEY,021,ORANGE DEMOCRATIC MOVEMENT,ODM
ALI,ABDI YUSUF HAJI,009,MANDERA,044,LAFEY,0218,LAFEY,062,AMANI NATIONAL CONGRESS,ANC
MANOOR,MOHAMED HUSSEIN,009,MANDERA,044,LAFEY,0218,LAFEY,027,JUBILEE PARTY,JP
MOHAMED,FEISAL MAALIM,009,MANDERA,044,LAFEY,0218,LAFEY,015,UNITED DEMOCRATIC  ALLIANCE,UDA
RAHOY,ADAN HUSSEIN,009,MANDERA,044,LAFEY,0218,LAFEY,033,KENYA AFRICAN NATIONAL UNION,KANU
ALI,AHMED GABNAN,009,MANDERA,044,LAFEY,0219,WARANQARA,041,UNITED DEMOCRATIC MOVEMENT,UDM
GUHAD,JIBRIL MALAK,009,MANDERA,044,LAFEY,0219,WARANQARA,021,ORANGE DEMOCRATIC MOVEMENT,ODM
IBRAHIM,ABDULLAHI SHUKRI,009,MANDERA,044,LAFEY,0219,WARANQARA,027,JUBILEE PARTY,JP
DAHIR,NOORDIN MOHAMED,009,MANDERA,044,LAFEY,0220,ALANGO GOF,021,ORANGE DEMOCRATIC MOVEMENT,ODM
DAKANE,YUSSUF MAALIM,009,MANDERA,044,LAFEY,0220,ALANGO GOF,001,NATIONAL RAINBOW COALITION-KENYA,NARC-KENYA
HASSAN,MAHAT IBRAHIM,009,MANDERA,044,LAFEY,0220,ALANGO GOF,041,UNITED DEMOCRATIC MOVEMENT,UDM
