OMUNE,VINCENT OMONDI,043,HOMA BAY,251,SUBA NORTH,1256,LAMBWE,IND,INDEPENDENT,IND
OWII,MOSES OOKO,043,HOMA BAY,251,SUBA NORTH,1256,LAMBWE,IND,INDEPENDENT,IND
SALIM,SOPHIE AKINYI,043,HOMA BAY,251,SUBA NORTH,1256,LAMBWE,021,ORANGE DEMOCRATIC MOVEMENT,ODM
DICKSON,0DHIAMBO OTIENO ,043,HOMA BAY,252,SUBA SOUTH,1257,GWASSI SOUTH,IND,INDEPENDENT,IND
KASUKU,WILYS OWUOR,043,HOMA BAY,252,SUBA SOUTH,1257,GWASSI SOUTH,IND,INDEPENDENT,IND
NYAKWANA,RICHARD KASUKU,043,HOMA BAY,252,SUBA SOUTH,1257,GWASSI SOUTH,015,UNITED DEMOCRATIC  ALLIANCE,UDA
NYAPICHA,NIXON AILAH,043,HOMA BAY,252,SUBA SOUTH,1257,GWASSI SOUTH,085,DEMOCRATIC ACTION PARTY- KENYA,DAP-K
ODAWO,NICHOLAS AYIETA,043,HOMA BAY,252,SUBA SOUTH,1257,GWASSI SOUTH,021,ORANGE DEMOCRATIC MOVEMENT,ODM
ODERO,BENARD ONYANGO ,043,HOMA BAY,252,SUBA SOUTH,1257,GWASSI SOUTH,IND,INDEPENDENT,IND
OKEBE,BERNARD OTIENO,043,HOMA BAY,252,SUBA SOUTH,1257,GWASSI SOUTH,IND,INDEPENDENT,IND
OMUTO,MBOYA TOM,043,HOMA BAY,252,SUBA SOUTH,1257,GWASSI SOUTH,IND,INDEPENDENT,IND
ONYANGO,SUSAN AKOTH,043,HOMA BAY,252,SUBA SOUTH,1257,GWASSI SOUTH,IND,INDEPENDENT,IND
SIDIKA,BONIFACE OTIENO,043,HOMA BAY,252,SUBA SOUTH,1257,GWASSI SOUTH,IND,INDEPENDENT,IND
VICTOR,ANGOLOH,043,HOMA BAY,252,SUBA SOUTH,1257,GWASSI SOUTH,IND,INDEPENDENT,IND
KEVIN,K'OBWANGA MICHAEL,043,HOMA BAY,252,SUBA SOUTH,1258,GWASSI NORTH,IND,INDEPENDENT,IND
MUGA,PHILEMON   OUMA ,043,HOMA BAY,252,SUBA SOUTH,1258,GWASSI NORTH,IND,INDEPENDENT,IND
SHARON,JOSEPH,043,HOMA BAY,252,SUBA SOUTH,1258,GWASSI NORTH,021,ORANGE DEMOCRATIC MOVEMENT,ODM
SIRO,WILLIAM ODINGO,043,HOMA BAY,252,SUBA SOUTH,1258,GWASSI NORTH,IND,INDEPENDENT,IND
GUYA,JOANNE AKOTH,043,HOMA BAY,252,SUBA SOUTH,1259,KAKSINGRI WEST,060,VIBRANT DEMOCRATIC PARTY,VDP
NYARONYI,DICKSON OLUOCH,043,HOMA BAY,252,SUBA SOUTH,1259,KAKSINGRI WEST,085,DEMOCRATIC ACTION PARTY- KENYA,DAP-K
OGUTU,LEONARD OTIENO,043,HOMA BAY,252,SUBA SOUTH,1259,KAKSINGRI WEST,IND,INDEPENDENT,IND
OKOTH,VICTOR OWUOR UHURU,043,HOMA BAY,252,SUBA SOUTH,1259,KAKSINGRI WEST,021,ORANGE DEMOCRATIC MOVEMENT,ODM
ONYANGO,EVANCE DIANGA,043,HOMA BAY,252,SUBA SOUTH,1259,KAKSINGRI WEST,015,UNITED DEMOCRATIC  ALLIANCE,UDA
ASIAGO,TITUS OKELLO,043,HOMA BAY,252,SUBA SOUTH,1260,RUMA-KAKSINGRI,021,ORANGE DEMOCRATIC MOVEMENT,ODM
AWINO,SALMON G ODIYO,043,HOMA BAY,252,SUBA SOUTH,1260,RUMA-KAKSINGRI,IND,INDEPENDENT,IND
ODUNDO,TOBIAS,043,HOMA BAY,252,SUBA SOUTH,1260,RUMA-KAKSINGRI,IND,INDEPENDENT,IND
OGOLA,BENARD OCHIENG,043,HOMA BAY,252,SUBA SOUTH,1260,RUMA-KAKSINGRI,IND,INDEPENDENT,IND
OKELLO,MARTIN LUGO,043,HOMA BAY,252,SUBA SOUTH,1260,RUMA-KAKSINGRI,IND,INDEPENDENT,IND
OMORO,ELLYPHALET OSURI,043,HOMA BAY,252,SUBA SOUTH,1260,RUMA-KAKSINGRI,IND,INDEPENDENT,IND
OUKO,MARTIN OMONDI,043,HOMA BAY,252,SUBA SOUTH,1260,RUMA-KAKSINGRI,015,UNITED DEMOCRATIC  ALLIANCE,UDA
ASOL,BONFACE OTIENO,044,MIGORI,253,RONGO,1261,NORTH KAMAGAMBO,IND,INDEPENDENT,IND
OLUOCH,OSEWE COLLINCE,044,MIGORI,253,RONGO,1261,NORTH KAMAGAMBO,IND,INDEPENDENT,IND
ONYANGO,ORIMA SAMUEL,044,MIGORI,253,RONGO,1261,NORTH KAMAGAMBO,IND,INDEPENDENT,IND
OPIYO,FLORENCE ATIENO ,044,MIGORI,253,RONGO,1261,NORTH KAMAGAMBO,015,UNITED DEMOCRATIC  ALLIANCE,UDA
