NALA,KENNEDY JUMA ,047,NAIROBI CITY,277,LANGATA,1385,NYAYO HIGHRISE,015,UNITED DEMOCRATIC  ALLIANCE,UDA
NYANUMBA,EDWIN OTEYA,047,NAIROBI CITY,277,LANGATA,1385,NYAYO HIGHRISE,IND,INDEPENDENT,IND
NYATWANGA,BENJAMIN MAYEGA,047,NAIROBI CITY,277,LANGATA,1385,NYAYO HIGHRISE,050,MUUNGANO PARTY,MUUNGANO
OJODE,DAVID OTIENO,047,NAIROBI CITY,277,LANGATA,1385,NYAYO HIGHRISE,IND,INDEPENDENT,IND
OMBESE,WILTAH NYABATE,047,NAIROBI CITY,277,LANGATA,1385,NYAYO HIGHRISE,034,SAFINA,SAFINA
OMOLO,COLLINS  JOSEPH OMONDI,047,NAIROBI CITY,277,LANGATA,1385,NYAYO HIGHRISE,064,UNITED DEMOCRATIC PARTY,UDP
OMUNDI,FRANKLINE NTABO ,047,NAIROBI CITY,277,LANGATA,1385,NYAYO HIGHRISE,033,KENYA AFRICAN NATIONAL UNION,KANU
OTANGA,FREDRICK JUMA,047,NAIROBI CITY,277,LANGATA,1385,NYAYO HIGHRISE,IND,INDEPENDENT,IND
OYUGI,KENNEDY ODHIAMBO,047,NAIROBI CITY,277,LANGATA,1385,NYAYO HIGHRISE,021,ORANGE DEMOCRATIC MOVEMENT,ODM
TORONI,BEAUTAH MOBAGI ,047,NAIROBI CITY,277,LANGATA,1385,NYAYO HIGHRISE,022,PEOPLES PARTY OF KENYA,PPK
WAFULA,IGNATIUS HARENDI'S,047,NAIROBI CITY,277,LANGATA,1385,NYAYO HIGHRISE,IND,INDEPENDENT,IND
WAMBUA,JIMMY MWANIKI,047,NAIROBI CITY,277,LANGATA,1385,NYAYO HIGHRISE,IND,INDEPENDENT,IND
WEPUKHULU,GEORGE WATUWA,047,NAIROBI CITY,277,LANGATA,1385,NYAYO HIGHRISE,IND,INDEPENDENT,IND
AYOT,CECILIA ACHIENG,047,NAIROBI CITY,278,KIBRA,1386,LAINI SABA,021,ORANGE DEMOCRATIC MOVEMENT,ODM
KATIWA,TITUS MUTINDA,047,NAIROBI CITY,278,KIBRA,1386,LAINI SABA,029,NATIONAL RAINBOW COALITION,NARC
KITUI,MARGARET ZIEREGA,047,NAIROBI CITY,278,KIBRA,1386,LAINI SABA,IND,INDEPENDENT,IND
KWEYU,LIVINGSTONE MUCHERA,047,NAIROBI CITY,278,KIBRA,1386,LAINI SABA,044,PARTY OF DEMOCRATIC  UNITY,PDU
MUSILA,JOHN NDILE,047,NAIROBI CITY,278,KIBRA,1386,LAINI SABA,012,WIPER DEMOCRATIC MOVEMENT- KENYA,WDM
MUTEMI,MUTISO GEORGE,047,NAIROBI CITY,278,KIBRA,1386,LAINI SABA,IND,INDEPENDENT,IND
MUTUA,PATRICK MUNGUTI ,047,NAIROBI CITY,278,KIBRA,1386,LAINI SABA,IND,INDEPENDENT,IND
NDENYERE,HILLARY ANDOLI,047,NAIROBI CITY,278,KIBRA,1386,LAINI SABA,062,AMANI NATIONAL CONGRESS,ANC
NJOROGE,FRANCIS NDIRANGU,047,NAIROBI CITY,278,KIBRA,1386,LAINI SABA,015,UNITED DEMOCRATIC  ALLIANCE,UDA
ABERU,EUNICE LUKEYA,047,NAIROBI CITY,278,KIBRA,1387,LINDI,017,AGANO PARTY,AGANO
ALUMBE,NICHOLAS OTUNGA ,047,NAIROBI CITY,278,KIBRA,1387,LINDI,IND,INDEPENDENT,IND
AMBETSA,ALEXANDER  KHALAI,047,NAIROBI CITY,278,KIBRA,1387,LINDI,IND,INDEPENDENT,IND
BIGEDI,BENSON IGADWA ,047,NAIROBI CITY,278,KIBRA,1387,LINDI,044,PARTY OF DEMOCRATIC  UNITY,PDU
LUGADIRU,PETER MAKENZI,047,NAIROBI CITY,278,KIBRA,1387,LINDI,015,UNITED DEMOCRATIC  ALLIANCE,UDA
MAGOMERE,BENARD AGENGO,047,NAIROBI CITY,278,KIBRA,1387,LINDI,085,DEMOCRATIC ACTION PARTY- KENYA,DAP-K
MUSA,YAKUB JAFFAR MOHAMED,047,NAIROBI CITY,278,KIBRA,1387,LINDI,062,AMANI NATIONAL CONGRESS,ANC
MUSILA,JOHN MUISYO,047,NAIROBI CITY,278,KIBRA,1387,LINDI,012,WIPER DEMOCRATIC MOVEMENT- KENYA,WDM
NYAKUNDI,JARED MOSETI,047,NAIROBI CITY,278,KIBRA,1387,LINDI,022,PEOPLES PARTY OF KENYA,PPK
OBONYO,BEATRICE ATIENO,047,NAIROBI CITY,278,KIBRA,1387,LINDI,084,NATIONAL RECONSTRUCTION ALLIANCE,NRA
OMUNDI,EVANS OTAARA ,047,NAIROBI CITY,278,KIBRA,1387,LINDI,041,UNITED DEMOCRATIC MOVEMENT,UDM
OOKO,SAMSON OCHIENG' JERA,047,NAIROBI CITY,278,KIBRA,1387,LINDI,021,ORANGE DEMOCRATIC MOVEMENT,ODM
