ONKUNDI,CHARLES KENYATTA,047,NAIROBI CITY,285,EMBAKASI EAST,1423,EMBAKASI,012,WIPER DEMOCRATIC MOVEMENT- KENYA,WDM
OREMO,ALLAN OWINO,047,NAIROBI CITY,285,EMBAKASI EAST,1423,EMBAKASI,IND,INDEPENDENT,IND
OTIENO,ABSALOM NYATENG,047,NAIROBI CITY,285,EMBAKASI EAST,1423,EMBAKASI,077,JUSTICE AND FREEDOM PARTY,JFP
OTISO,GEORGE OMANDI,047,NAIROBI CITY,285,EMBAKASI EAST,1423,EMBAKASI,IND,INDEPENDENT,IND
RONO,ALICE JEBET,047,NAIROBI CITY,285,EMBAKASI EAST,1423,EMBAKASI,044,PARTY OF DEMOCRATIC  UNITY,PDU
SIMBA,FREDRICK MOGENI ,047,NAIROBI CITY,285,EMBAKASI EAST,1423,EMBAKASI,040,THE NEW DEMOCRATS,TND
WANG'OMBE,JOHN NDERITU,047,NAIROBI CITY,285,EMBAKASI EAST,1423,EMBAKASI,015,UNITED DEMOCRATIC  ALLIANCE,UDA
ABDI,TUME FARIA,047,NAIROBI CITY,285,EMBAKASI EAST,1424,UTAWALA,067,MAENDELEO CHAP CHAP PARTY,MCCP
GITONGA,MICHAEL MWATHI,047,NAIROBI CITY,285,EMBAKASI EAST,1424,UTAWALA,040,THE NEW DEMOCRATS,TND
JOHN,NYASARARA CHACHA,047,NAIROBI CITY,285,EMBAKASI EAST,1424,UTAWALA,085,DEMOCRATIC ACTION PARTY- KENYA,DAP-K
KARANI,PATRICK,047,NAIROBI CITY,285,EMBAKASI EAST,1424,UTAWALA,027,JUBILEE PARTY,JP
KINYUA,SAIDA MERCY NJOKI,047,NAIROBI CITY,285,EMBAKASI EAST,1424,UTAWALA,IND,INDEPENDENT,IND
KIOKO,TITUS MULEI,047,NAIROBI CITY,285,EMBAKASI EAST,1424,UTAWALA,087,CHAMA CHA KAZI,KAZI
MIRERI,DICKSON GUTO,047,NAIROBI CITY,285,EMBAKASI EAST,1424,UTAWALA,012,WIPER DEMOCRATIC MOVEMENT- KENYA,WDM
MOKAYA,DANIEL NYANCHOGA,047,NAIROBI CITY,285,EMBAKASI EAST,1424,UTAWALA,037,NATIONAL AGENDA PARTY OF KENYA,NAPK
MOSINGI,NICKSON NICODEMUS,047,NAIROBI CITY,285,EMBAKASI EAST,1424,UTAWALA,IND,INDEPENDENT,IND
NGURE,SAMSON KAHUI,047,NAIROBI CITY,285,EMBAKASI EAST,1424,UTAWALA,015,UNITED DEMOCRATIC  ALLIANCE,UDA
NKURI,MUTUMA VICTOR,047,NAIROBI CITY,285,EMBAKASI EAST,1424,UTAWALA,IND,INDEPENDENT,IND
NYANDUSI,MARTIN MARANGA ,047,NAIROBI CITY,285,EMBAKASI EAST,1424,UTAWALA,080,USAWA KWA WOTE PARTY,USAWA
OKUMU,SILAS ODHIAMBO,047,NAIROBI CITY,285,EMBAKASI EAST,1424,UTAWALA,014,PARTY OF NATIONAL UNITY,PNU
OMBOGA,JOHNSON ONDEGO,047,NAIROBI CITY,285,EMBAKASI EAST,1424,UTAWALA,081,UNITED PROGRESSIVE ALLIANCE,UPA
OMONDI,REAGAN ,047,NAIROBI CITY,285,EMBAKASI EAST,1424,UTAWALA,044,PARTY OF DEMOCRATIC  UNITY,PDU
OMWOYO,HEZRON SAMBA,047,NAIROBI CITY,285,EMBAKASI EAST,1424,UTAWALA,IND,INDEPENDENT,IND
OOMA,CALIPH OGEGA,047,NAIROBI CITY,285,EMBAKASI EAST,1424,UTAWALA,069,LIBERAL DEMOCRATIC PARTY,LDP
RUTO,FRANKLINE,047,NAIROBI CITY,285,EMBAKASI EAST,1424,UTAWALA,054,CHAMA CHA MASHINANI,CCM
SIKOYO,ALFRED JUMA,047,NAIROBI CITY,285,EMBAKASI EAST,1424,UTAWALA,033,KENYA AFRICAN NATIONAL UNION,KANU
AGOT,JOSEPH ODERO,047,NAIROBI CITY,285,EMBAKASI EAST,1425,MIHANGO,IND,INDEPENDENT,IND
GATHOGO,JOSEPHAT NDIRANGU,047,NAIROBI CITY,285,EMBAKASI EAST,1425,MIHANGO,034,SAFINA,SAFINA
KIBOI,GEORGE MWANGI,047,NAIROBI CITY,285,EMBAKASI EAST,1425,MIHANGO,062,AMANI NATIONAL CONGRESS,ANC
KIGUATHI,KADOS PAUL MUIRURI,047,NAIROBI CITY,285,EMBAKASI EAST,1425,MIHANGO,027,JUBILEE PARTY,JP
MORANG'A,STEPHEN OSIEMO,047,NAIROBI CITY,285,EMBAKASI EAST,1425,MIHANGO,083,NATIONAL ORDINARY PEOPLES EMPOWERMENT ,NOPEU
MWANGI,ABDALLAH ALI,047,NAIROBI CITY,285,EMBAKASI EAST,1425,MIHANGO,015,UNITED DEMOCRATIC  ALLIANCE,UDA
NJOROGE,DAUD WAITITU,047,NAIROBI CITY,285,EMBAKASI EAST,1425,MIHANGO,088,TUJIBEBE WAKENYA PARTY,JIBEBE
ODERA,BARNABAS NUDI,047,NAIROBI CITY,285,EMBAKASI EAST,1425,MIHANGO,033,KENYA AFRICAN NATIONAL UNION,KANU
