KIRWA,ELIUD,029,NANDI,152,ALDAI,0756,TERIK,IND,INDEPENDENT,IND
MALESI,PASTON KISANGI,029,NANDI,152,ALDAI,0756,TERIK,019,KENYA SOCIAL CONGRESS,KSC
RUTO,SIMION KIPTUM,029,NANDI,152,ALDAI,0756,TERIK,IND,INDEPENDENT,IND
BITTOK,ROBERT,029,NANDI,152,ALDAI,0757,KEMELOI-MARABA ,054,CHAMA CHA MASHINANI,CCM
EVAYO,ROBERT AFWOYO,029,NANDI,152,ALDAI,0757,KEMELOI-MARABA ,IND,INDEPENDENT,IND
KIPKURGAT,WILSON,029,NANDI,152,ALDAI,0757,KEMELOI-MARABA ,023,FORUM FOR RESTORATION OF DEMOCRACY-KENYA,FORD-KENYA
KIRWA,NOAH ANDREA,029,NANDI,152,ALDAI,0757,KEMELOI-MARABA ,064,UNITED DEMOCRATIC PARTY,UDP
KUTTO,TRUFOSA JELAGAT ,029,NANDI,152,ALDAI,0757,KEMELOI-MARABA ,015,UNITED DEMOCRATIC  ALLIANCE,UDA
SINGA,ALFRED KIPNGETICH,029,NANDI,152,ALDAI,0757,KEMELOI-MARABA ,IND,INDEPENDENT,IND
TARUS,CHARLES KIPNGE'TICH,029,NANDI,152,ALDAI,0757,KEMELOI-MARABA ,IND,INDEPENDENT,IND
YEGO,STANLEY KIPKEMBOI ,029,NANDI,152,ALDAI,0757,KEMELOI-MARABA ,062,AMANI NATIONAL CONGRESS,ANC
KIPKORIR,BONFACE,029,NANDI,152,ALDAI,0758,KOBUJOI,IND,INDEPENDENT,IND
MENJO,JULIUS,029,NANDI,152,ALDAI,0758,KOBUJOI,IND,INDEPENDENT,IND
MOSBEI,MATHIAS KIBET,029,NANDI,152,ALDAI,0758,KOBUJOI,062,AMANI NATIONAL CONGRESS,ANC
NYANGO,EMMANUEL NGOCHOI,029,NANDI,152,ALDAI,0758,KOBUJOI,IND,INDEPENDENT,IND
SANG,MATHEW KIPROTICH,029,NANDI,152,ALDAI,0758,KOBUJOI,015,UNITED DEMOCRATIC  ALLIANCE,UDA
SAWE,SAMMY KIPKEMBOI,029,NANDI,152,ALDAI,0758,KOBUJOI,IND,INDEPENDENT,IND
JEPKETER,SYLVIA,029,NANDI,152,ALDAI,0759,KAPTUMO-KABOI,IND,INDEPENDENT,IND
MOSBEY,ISAAC YITZHAK,029,NANDI,152,ALDAI,0759,KAPTUMO-KABOI,015,UNITED DEMOCRATIC  ALLIANCE,UDA
BIWOTT,SAMMY KIRWA,029,NANDI,152,ALDAI,0760,KOYO-NDURIO,IND,INDEPENDENT,IND
CHERUIYOT,JULIUS SEURREY,029,NANDI,152,ALDAI,0760,KOYO-NDURIO,IND,INDEPENDENT,IND
KIPLETING,FRANKLINE,029,NANDI,152,ALDAI,0760,KOYO-NDURIO,034,SAFINA,SAFINA
SANG'UTEI,DAVIES BOOR,029,NANDI,152,ALDAI,0760,KOYO-NDURIO,015,UNITED DEMOCRATIC  ALLIANCE,UDA
TOO,VINCENT KIBITOK,029,NANDI,152,ALDAI,0760,KOYO-NDURIO,062,AMANI NATIONAL CONGRESS,ANC
KIHUMBA,FRANKLIN NGANGA ,029,NANDI,153,NANDI HILLS,0761,NANDI HILLS,087,CHAMA CHA KAZI,KAZI
KIPROP,EDWIN,029,NANDI,153,NANDI HILLS,0761,NANDI HILLS,015,UNITED DEMOCRATIC  ALLIANCE,UDA
SUGE,PAUL KIRWA,029,NANDI,153,NANDI HILLS,0761,NANDI HILLS,062,AMANI NATIONAL CONGRESS,ANC
CHEMIGIN,CAROLY KIBIWOT,029,NANDI,153,NANDI HILLS,0762,CHEPKUNYUK,062,AMANI NATIONAL CONGRESS,ANC
CHIRCHIR,JONATHAN KIPKIRUI,029,NANDI,153,NANDI HILLS,0762,CHEPKUNYUK,021,ORANGE DEMOCRATIC MOVEMENT,ODM
JEBITOK,NAOMI,029,NANDI,153,NANDI HILLS,0762,CHEPKUNYUK,IND,INDEPENDENT,IND
KETER,JOHN KIPROTICH,029,NANDI,153,NANDI HILLS,0762,CHEPKUNYUK,015,UNITED DEMOCRATIC  ALLIANCE,UDA
KOECH,JAMES KIBET,029,NANDI,153,NANDI HILLS,0762,CHEPKUNYUK,054,CHAMA CHA MASHINANI,CCM
KOGO,WILSON KIPKOECH ,029,NANDI,153,NANDI HILLS,0762,CHEPKUNYUK,033,KENYA AFRICAN NATIONAL UNION,KANU
KOSGEY,PHILIP KIPCHOGE,029,NANDI,153,NANDI HILLS,0762,CHEPKUNYUK,IND,INDEPENDENT,IND
