MAINA,MARTIN MURAGURI,019,NYERI,095,KIENI,0470,NAROMORU KIAMATHAGA,040,THE NEW DEMOCRATS,TND
MBURU,GRACE NYAGUTHII ,019,NYERI,095,KIENI,0470,NAROMORU KIAMATHAGA,088,TUJIBEBE WAKENYA PARTY,JIBEBE
MWANGI,JOSEPH MIRICHO,019,NYERI,095,KIENI,0470,NAROMORU KIAMATHAGA,IND,INDEPENDENT,IND
RINGERA,RINYIRU MARETE,019,NYERI,095,KIENI,0470,NAROMORU KIAMATHAGA,IND,INDEPENDENT,IND
GATHII,MERCY MUTHONI,019,NYERI,095,KIENI,0471,MWIYOGO ENDARASHA,087,CHAMA CHA KAZI,KAZI
KARUMBA,MICHAEL WACHIRA ,019,NYERI,095,KIENI,0471,MWIYOGO ENDARASHA,027,JUBILEE PARTY,JP
MBICHI,CHRISTOPHER WAMBUGU,019,NYERI,095,KIENI,0471,MWIYOGO ENDARASHA,015,UNITED DEMOCRATIC  ALLIANCE,UDA
MURIUKI,CHRISTINE NJERI,019,NYERI,095,KIENI,0471,MWIYOGO ENDARASHA,IND,INDEPENDENT,IND
MWANGI,NATHANIEL KANYI ,019,NYERI,095,KIENI,0471,MWIYOGO ENDARASHA,IND,INDEPENDENT,IND
NYAMBURA,STEPHEN MUTHOGA,019,NYERI,095,KIENI,0471,MWIYOGO ENDARASHA,IND,INDEPENDENT,IND
THUITA,DORCAS WANJIKU,019,NYERI,095,KIENI,0471,MWIYOGO ENDARASHA,082,THE SERVICE PARTY,TSP
GATHUA,LILIAN WANJIKU,019,NYERI,095,KIENI,0472,MUGUNDA,027,JUBILEE PARTY,JP
GICHUKI,ABRAHAM MWANIKI,019,NYERI,095,KIENI,0472,MUGUNDA,080,USAWA KWA WOTE PARTY,USAWA
MACHIRA,SILVESTER MUCHUGU,019,NYERI,095,KIENI,0472,MUGUNDA,087,CHAMA CHA KAZI,KAZI
MUKUNDI,PAUL KARIMI,019,NYERI,095,KIENI,0472,MUGUNDA,IND,INDEPENDENT,IND
MWAI,PETER KING'ORI,019,NYERI,095,KIENI,0472,MUGUNDA,040,THE NEW DEMOCRATS,TND
MWANGI,JOHNSTONE KAMAU,019,NYERI,095,KIENI,0472,MUGUNDA,015,UNITED DEMOCRATIC  ALLIANCE,UDA
NDIRITU,JOSEPH MAINA,019,NYERI,095,KIENI,0472,MUGUNDA,IND,INDEPENDENT,IND
WAMBUGU,JOHN NJUGUNA,019,NYERI,095,KIENI,0472,MUGUNDA,082,THE SERVICE PARTY,TSP
GATHERU,DUNCAN MAINA,019,NYERI,095,KIENI,0473,GATARAKWA,080,USAWA KWA WOTE PARTY,USAWA
KIMONDO,ELIUD KARIUKI,019,NYERI,095,KIENI,0473,GATARAKWA,040,THE NEW DEMOCRATS,TND
MATHENGE,GIBSON GITONGA,019,NYERI,095,KIENI,0473,GATARAKWA,027,JUBILEE PARTY,JP
NDEGWA,CLEMENT WARUTERE,019,NYERI,095,KIENI,0473,GATARAKWA,015,UNITED DEMOCRATIC  ALLIANCE,UDA
KABUE,KELVIN MUNUHE,019,NYERI,095,KIENI,0474,THEGU RIVER,IND,INDEPENDENT,IND
KANYI,PATRICK WACHIRA ,019,NYERI,095,KIENI,0474,THEGU RIVER,IND,INDEPENDENT,IND
KARIUKI,ANTONY GACHANGA,019,NYERI,095,KIENI,0474,THEGU RIVER,040,THE NEW DEMOCRATS,TND
KARUE,RICHARD KAMUHIA ,019,NYERI,095,KIENI,0474,THEGU RIVER,IND,INDEPENDENT,IND
MUNUHE,STEPHEN MAINA,019,NYERI,095,KIENI,0474,THEGU RIVER,IND,INDEPENDENT,IND
MWANGI,ELIZABETH NYAGUTHII,019,NYERI,095,KIENI,0474,THEGU RIVER,IND,INDEPENDENT,IND
MWANGI,SIMONPETER GITAHI,019,NYERI,095,KIENI,0474,THEGU RIVER,015,UNITED DEMOCRATIC  ALLIANCE,UDA
THIRIKWA,FRANCIS  MAINA,019,NYERI,095,KIENI,0474,THEGU RIVER,IND,INDEPENDENT,IND
WANJOHI,SAVANNAH JAMES  KINYUA,019,NYERI,095,KIENI,0474,THEGU RIVER,027,JUBILEE PARTY,JP
KIARA,DUNCUAN GITUANJA,019,NYERI,095,KIENI,0475,KABARU,082,THE SERVICE PARTY,TSP
KIBIRA,SIMON MAINA,019,NYERI,095,KIENI,0475,KABARU,065,KENYA REFORM PARTY,KRP
