MUNYUA,MOSES KIARIE,022,KIAMBU,112,GATUNDU NORTH,0556,GITHOBOKONI,015,UNITED DEMOCRATIC  ALLIANCE,UDA
MURIU,MARY NJOKI,022,KIAMBU,112,GATUNDU NORTH,0556,GITHOBOKONI,IND,INDEPENDENT,IND
MWANGI,SIMON MAINA,022,KIAMBU,112,GATUNDU NORTH,0556,GITHOBOKONI,IND,INDEPENDENT,IND
NDUNGU,BENSON THUKU,022,KIAMBU,112,GATUNDU NORTH,0556,GITHOBOKONI,087,CHAMA CHA KAZI,KAZI
NGANGA,PATRICK MWANGI,022,KIAMBU,112,GATUNDU NORTH,0556,GITHOBOKONI,IND,INDEPENDENT,IND
NGONYORO,SAMSON MAINA,022,KIAMBU,112,GATUNDU NORTH,0556,GITHOBOKONI,082,THE SERVICE PARTY,TSP
NJUGUNA,FOUSTINE GICHIRU ,022,KIAMBU,112,GATUNDU NORTH,0556,GITHOBOKONI,088,TUJIBEBE WAKENYA PARTY,JIBEBE
WAITATHU,GABRIEL C MBURU ,022,KIAMBU,112,GATUNDU NORTH,0556,GITHOBOKONI,IND,INDEPENDENT,IND
WAMUNYUI,PAUL NJOROGE MWANGI,022,KIAMBU,112,GATUNDU NORTH,0556,GITHOBOKONI,062,AMANI NATIONAL CONGRESS,ANC
GITHAIGA,MARTIN NJOROGE,022,KIAMBU,112,GATUNDU NORTH,0557,CHANIA,IND,INDEPENDENT,IND
KANYINGI,GABRIEL KARIUKI,022,KIAMBU,112,GATUNDU NORTH,0557,CHANIA,087,CHAMA CHA KAZI,KAZI
KIBUU,JOSEPH MWANGI,022,KIAMBU,112,GATUNDU NORTH,0557,CHANIA,015,UNITED DEMOCRATIC  ALLIANCE,UDA
MUNYAMBU,ZACHARY  WAWERU,022,KIAMBU,112,GATUNDU NORTH,0557,CHANIA,027,JUBILEE PARTY,JP
MURIITHI,JOSEPH NGUGI,022,KIAMBU,112,GATUNDU NORTH,0557,CHANIA,080,USAWA KWA WOTE PARTY,USAWA
MUTHUA,GEORGE NGANGA,022,KIAMBU,112,GATUNDU NORTH,0557,CHANIA,IND,INDEPENDENT,IND
WAITHAKA,AGNES NJOKI,022,KIAMBU,112,GATUNDU NORTH,0557,CHANIA,088,TUJIBEBE WAKENYA PARTY,JIBEBE
WAMBUI,CHARLES MBURU,022,KIAMBU,112,GATUNDU NORTH,0557,CHANIA,IND,INDEPENDENT,IND
CHEGE,MICHAEL ,022,KIAMBU,112,GATUNDU NORTH,0558,MANG'U,088,TUJIBEBE WAKENYA PARTY,JIBEBE
GITHUA,MICHAEL,022,KIAMBU,112,GATUNDU NORTH,0558,MANG'U,IND,INDEPENDENT,IND
HURA,JOSEPH WAHINYA,022,KIAMBU,112,GATUNDU NORTH,0558,MANG'U,IND,INDEPENDENT,IND
KARIUKI,GABRIEL WACIURI,022,KIAMBU,112,GATUNDU NORTH,0558,MANG'U,IND,INDEPENDENT,IND
KARIUKI,LAWRENCE WAMBAKI,022,KIAMBU,112,GATUNDU NORTH,0558,MANG'U,IND,INDEPENDENT,IND
KARIUKI,SIMON WANYOIKE,022,KIAMBU,112,GATUNDU NORTH,0558,MANG'U,IND,INDEPENDENT,IND
MBURU,PATRICK MWANGI,022,KIAMBU,112,GATUNDU NORTH,0558,MANG'U,015,UNITED DEMOCRATIC  ALLIANCE,UDA
NDABI,LAWRENCE KIBICHA,022,KIAMBU,112,GATUNDU NORTH,0558,MANG'U,062,AMANI NATIONAL CONGRESS,ANC
NGUGI,JOHN NG'ANG'A,022,KIAMBU,112,GATUNDU NORTH,0558,MANG'U,047,FARMERS PARTY,FP
NJERI,ELIAS GITHUA,022,KIAMBU,112,GATUNDU NORTH,0558,MANG'U,IND,INDEPENDENT,IND
NJUGUNA,TITUS KAMANDE,022,KIAMBU,112,GATUNDU NORTH,0558,MANG'U,027,JUBILEE PARTY,JP
NJUI,GABRIEL KARIKU,022,KIAMBU,112,GATUNDU NORTH,0558,MANG'U,007,PARTY OF INDEPENDENT CANDIDATES OF KENYA,PICK
NYOKABI,JANE,022,KIAMBU,112,GATUNDU NORTH,0558,MANG'U,087,CHAMA CHA KAZI,KAZI
M'KURA,HENRY KINYUA,022,KIAMBU,113,JUJA,0559,MURERA,031,KENYA PATRIOTS PARTY,KPP
MAINA,DENNIS MUCHAI,022,KIAMBU,113,JUJA,0559,MURERA,IND,INDEPENDENT,IND
MBUGUA,JOHN SHAURI,022,KIAMBU,113,JUJA,0559,MURERA,088,TUJIBEBE WAKENYA PARTY,JIBEBE
MBUGUA,KELVIN KARIUKI,022,KIAMBU,113,JUJA,0559,MURERA,IND,INDEPENDENT,IND
