NUNOW,BARE BULLE,009,MANDERA,043,MANDERA EAST,0211,ARABIA,062,AMANI NATIONAL CONGRESS,ANC
SHEIKH,ABDULLAHI BULLE ,009,MANDERA,043,MANDERA EAST,0211,ARABIA,046,UNITED PARTY OF INDEPENDENT ALLIANCE,UPIA
TAKOY,RASHID  SHEIKH,009,MANDERA,043,MANDERA EAST,0211,ARABIA,085,DEMOCRATIC ACTION PARTY- KENYA,DAP-K
ABDI,ALI MOHAMED HASSAN,009,MANDERA,043,MANDERA EAST,0212,TOWNSHIP.,IND,INDEPENDENT,IND
ABDINUR,ABDULLAHI MOHAMED,009,MANDERA,043,MANDERA EAST,0212,TOWNSHIP.,059,ROOTS PARTY OF KENYA,RPK
ADBI,HASSAN HAJJ,009,MANDERA,043,MANDERA EAST,0212,TOWNSHIP.,085,DEMOCRATIC ACTION PARTY- KENYA,DAP-K
AHAMED,ADAN OSMAN,009,MANDERA,043,MANDERA EAST,0212,TOWNSHIP.,046,UNITED PARTY OF INDEPENDENT ALLIANCE,UPIA
AHMED,MOHAMEDAMIN ALI,009,MANDERA,043,MANDERA EAST,0212,TOWNSHIP.,023,FORUM FOR RESTORATION OF DEMOCRACY-KENYA,FORD-KENYA
AHMED,NOOR ABDOW,009,MANDERA,043,MANDERA EAST,0212,TOWNSHIP.,034,SAFINA,SAFINA
BARE,IBRAHIM DAUD,009,MANDERA,043,MANDERA EAST,0212,TOWNSHIP.,IND,INDEPENDENT,IND
BILLOW,KATRA MUDE,009,MANDERA,043,MANDERA EAST,0212,TOWNSHIP.,001,NATIONAL RAINBOW COALITION-KENYA,NARC-KENYA
DAUD,ABDILATIF ISMAIL,009,MANDERA,043,MANDERA EAST,0212,TOWNSHIP.,067,MAENDELEO CHAP CHAP PARTY,MCCP
IBRAHIM,ABASS ADAN,009,MANDERA,043,MANDERA EAST,0212,TOWNSHIP.,021,ORANGE DEMOCRATIC MOVEMENT,ODM
ISSACK,FEISAL ABDINOOR,009,MANDERA,043,MANDERA EAST,0212,TOWNSHIP.,041,UNITED DEMOCRATIC MOVEMENT,UDM
KUNAYE,ABDIKADIR MOHAMED,009,MANDERA,043,MANDERA EAST,0212,TOWNSHIP.,027,JUBILEE PARTY,JP
MOHAMED,HASSAN ISACK,009,MANDERA,043,MANDERA EAST,0212,TOWNSHIP.,IND,INDEPENDENT,IND
MOHAMED,MOHAMED OKASHI ,009,MANDERA,043,MANDERA EAST,0212,TOWNSHIP.,IND,INDEPENDENT,IND
ROBOW,ABDIRIZAK ALI,009,MANDERA,043,MANDERA EAST,0212,TOWNSHIP.,033,KENYA AFRICAN NATIONAL UNION,KANU
SHARIF,MOHAMEDNUR ISSAK,009,MANDERA,043,MANDERA EAST,0212,TOWNSHIP.,080,USAWA KWA WOTE PARTY,USAWA
ABDI,ABDIRAHMAN ALI,009,MANDERA,043,MANDERA EAST,0213,NEBOI.,027,JUBILEE PARTY,JP
ABDIRAHMAN,ADAN MOHAMED,009,MANDERA,043,MANDERA EAST,0213,NEBOI.,021,ORANGE DEMOCRATIC MOVEMENT,ODM
ALI,ABDI ADAN,009,MANDERA,043,MANDERA EAST,0213,NEBOI.,015,UNITED DEMOCRATIC  ALLIANCE,UDA
ALI,ADAN MOHAMED ,009,MANDERA,043,MANDERA EAST,0213,NEBOI.,041,UNITED DEMOCRATIC MOVEMENT,UDM
ALIO,HASSANNOOR MOHAMED,009,MANDERA,043,MANDERA EAST,0213,NEBOI.,067,MAENDELEO CHAP CHAP PARTY,MCCP
ELMI,ABDIWAHAB BARE ,009,MANDERA,043,MANDERA EAST,0213,NEBOI.,012,WIPER DEMOCRATIC MOVEMENT- KENYA,WDM
HASSANOW,ISMAIL AHMED,009,MANDERA,043,MANDERA EAST,0213,NEBOI.,014,PARTY OF NATIONAL UNITY,PNU
MOHAMED,ALINOOR ALI,009,MANDERA,043,MANDERA EAST,0213,NEBOI.,046,UNITED PARTY OF INDEPENDENT ALLIANCE,UPIA
SHEIKH,HASSAN ABRAHIM,009,MANDERA,043,MANDERA EAST,0213,NEBOI.,080,USAWA KWA WOTE PARTY,USAWA
YARROW,AHMED ADAN,009,MANDERA,043,MANDERA EAST,0213,NEBOI.,033,KENYA AFRICAN NATIONAL UNION,KANU
ABDIRAHMAN,NOOR MOHAMED,009,MANDERA,043,MANDERA EAST,0214,KHALALIO,012,WIPER DEMOCRATIC MOVEMENT- KENYA,WDM
ADAN,ABDIWELI ABUKAR ,009,MANDERA,043,MANDERA EAST,0214,KHALALIO,033,KENYA AFRICAN NATIONAL UNION,KANU
ALIO,SALAH MAALIM,009,MANDERA,043,MANDERA EAST,0214,KHALALIO,009,KENYA NATIONAL CONGRESS,KNC
DEROW,HUSSEIN HASSAN,009,MANDERA,043,MANDERA EAST,0214,KHALALIO,087,CHAMA CHA KAZI,KAZI
MOHAMUD,MOHAMED YUSSUF  ,009,MANDERA,043,MANDERA EAST,0214,KHALALIO,041,UNITED DEMOCRATIC MOVEMENT,UDM
