KIMUNYI,SARAH WAMBUI,022,KIAMBU,115,RUIRU,0576,MWIHOKO,IND,INDEPENDENT,IND
MAINA,MARY NDUTA,022,KIAMBU,115,RUIRU,0576,MWIHOKO,001,NATIONAL RAINBOW COALITION-KENYA,NARC-KENYA
MBUTHI,JAMES KAMAU,022,KIAMBU,115,RUIRU,0576,MWIHOKO,IND,INDEPENDENT,IND
MUNGANIA,JAMES WARUI KARUMA,022,KIAMBU,115,RUIRU,0576,MWIHOKO,027,JUBILEE PARTY,JP
MUNYIRI,RUFAS MWANGI,022,KIAMBU,115,RUIRU,0576,MWIHOKO,082,THE SERVICE PARTY,TSP
NDERITU,JACKLINE WANGUI ,022,KIAMBU,115,RUIRU,0576,MWIHOKO,IND,INDEPENDENT,IND
NJENGA,JONATHAN GITAU,022,KIAMBU,115,RUIRU,0576,MWIHOKO,021,ORANGE DEMOCRATIC MOVEMENT,ODM
BORO,KIMANI JOHN NJOROGE,022,KIAMBU,116,GITHUNGURI,0577,GITHUNGURI,040,THE NEW DEMOCRATS,TND
GITIHA,ALEX NJUGUNA,022,KIAMBU,116,GITHUNGURI,0577,GITHUNGURI,IND,INDEPENDENT,IND
KAGWE,GITAU,022,KIAMBU,116,GITHUNGURI,0577,GITHUNGURI,IND,INDEPENDENT,IND
KAMAU,BERNARD MARACHA,022,KIAMBU,116,GITHUNGURI,0577,GITHUNGURI,088,TUJIBEBE WAKENYA PARTY,JIBEBE
KAMAU,EZEKIAH WAIGURU ,022,KIAMBU,116,GITHUNGURI,0577,GITHUNGURI,IND,INDEPENDENT,IND
KAMAU,JOSEPH MUHINJA,022,KIAMBU,116,GITHUNGURI,0577,GITHUNGURI,015,UNITED DEMOCRATIC  ALLIANCE,UDA
KARANJA,ZACHARY GATHOGA,022,KIAMBU,116,GITHUNGURI,0577,GITHUNGURI,027,JUBILEE PARTY,JP
KIRAGU,PETER NJENGA,022,KIAMBU,116,GITHUNGURI,0577,GITHUNGURI,087,CHAMA CHA KAZI,KAZI
MBURU,JIMMY OLE,022,KIAMBU,116,GITHUNGURI,0577,GITHUNGURI,IND,INDEPENDENT,IND
MUTHIRA,EDWIN KINYANJUI,022,KIAMBU,116,GITHUNGURI,0577,GITHUNGURI,013,DEMOCRATIC PARTY OF KENYA,DP
NJUGUNA,JOHNSON KIMANI,022,KIAMBU,116,GITHUNGURI,0577,GITHUNGURI,IND,INDEPENDENT,IND
NJUGUNA,SIMON KIBE,022,KIAMBU,116,GITHUNGURI,0577,GITHUNGURI,082,THE SERVICE PARTY,TSP
CHEGE,DAVID ITHIBU,022,KIAMBU,116,GITHUNGURI,0578,GITHIGA,IND,INDEPENDENT,IND
KAHIRA,MERCY WAMBUI,022,KIAMBU,116,GITHUNGURI,0578,GITHIGA,027,JUBILEE PARTY,JP
KIBUIKA,PETER KAGIA,022,KIAMBU,116,GITHUNGURI,0578,GITHIGA,088,TUJIBEBE WAKENYA PARTY,JIBEBE
MUKIRI,JOSEPH CHEGE,022,KIAMBU,116,GITHUNGURI,0578,GITHIGA,056,FORUM FOR REPUBLICAN DEMOCRACY,FORD
MUTITU,MARTIN NJUGUNA,022,KIAMBU,116,GITHUNGURI,0578,GITHIGA,IND,INDEPENDENT,IND
MWANGI,STEPHEN NGANGA,022,KIAMBU,116,GITHUNGURI,0578,GITHIGA,IND,INDEPENDENT,IND
THIONGO,JOHN KIMANI,022,KIAMBU,116,GITHUNGURI,0578,GITHIGA,080,USAWA KWA WOTE PARTY,USAWA
WAIRIMU,GODFREY KIHIU,022,KIAMBU,116,GITHUNGURI,0578,GITHIGA,034,SAFINA,SAFINA
WANJIKU,RUTH WAITHIRA,022,KIAMBU,116,GITHUNGURI,0578,GITHIGA,015,UNITED DEMOCRATIC  ALLIANCE,UDA
GATHUNGU,THOMAS MWAURA ,022,KIAMBU,116,GITHUNGURI,0579,IKINU,082,THE SERVICE PARTY,TSP
GITIBA,PETER MUNENE,022,KIAMBU,116,GITHUNGURI,0579,IKINU,IND,INDEPENDENT,IND
MUHIA,ROBERT UIRU,022,KIAMBU,116,GITHUNGURI,0579,IKINU,IND,INDEPENDENT,IND
NJERI,FREDRICK NJOROGE,022,KIAMBU,116,GITHUNGURI,0579,IKINU,IND,INDEPENDENT,IND
NJURUBA,ANNE NYAMBURA,022,KIAMBU,116,GITHUNGURI,0579,IKINU,088,TUJIBEBE WAKENYA PARTY,JIBEBE
THUO,CEDRIC GACHUNGA,022,KIAMBU,116,GITHUNGURI,0579,IKINU,015,UNITED DEMOCRATIC  ALLIANCE,UDA
