MWICHABE,ELIUD WAKASIAKA ,039,BUNGOMA,223,KIMILILI,1114,KAMUKUYWA,068,DEMOCRATIC CONGRESS,DC
OBAMA,ABRAHAM KIMUNGUI WALIEKEKE,039,BUNGOMA,223,KIMILILI,1114,KAMUKUYWA,015,UNITED DEMOCRATIC  ALLIANCE,UDA
OPICHO,MOSES WANYONYI ,039,BUNGOMA,223,KIMILILI,1114,KAMUKUYWA,023,FORUM FOR RESTORATION OF DEMOCRACY-KENYA,FORD-KENYA
SEME,MAXWELL NAKTARE,039,BUNGOMA,223,KIMILILI,1114,KAMUKUYWA,IND,INDEPENDENT,IND
TOYWA,PRIVER  WEKESA ,039,BUNGOMA,223,KIMILILI,1114,KAMUKUYWA,062,AMANI NATIONAL CONGRESS,ANC
WAFULA,FRANCIS WANJALA ,039,BUNGOMA,223,KIMILILI,1114,KAMUKUYWA,064,UNITED DEMOCRATIC PARTY,UDP
WAFULA,PETER SINDANI,039,BUNGOMA,223,KIMILILI,1114,KAMUKUYWA,IND,INDEPENDENT,IND
WAKOLI,ESAU MAKOKHA,039,BUNGOMA,223,KIMILILI,1114,KAMUKUYWA,IND,INDEPENDENT,IND
WANJALA,GERALD WAKASALA,039,BUNGOMA,223,KIMILILI,1114,KAMUKUYWA,IND,INDEPENDENT,IND
WASIKE,LINET NAFULA,039,BUNGOMA,223,KIMILILI,1114,KAMUKUYWA,038,PEOPLES EMPOWERMENT PARTY,PEP
WEBI,ANDREW WANYONYI,039,BUNGOMA,223,KIMILILI,1114,KAMUKUYWA,049,FEDERAL PARTY OF KENYA,FPK
WEKESA,BEATRICE NEKESA ,039,BUNGOMA,223,KIMILILI,1114,KAMUKUYWA,IND,INDEPENDENT,IND
BARASA,JOSEPH WAFULA,039,BUNGOMA,224,TONGAREN,1115,MBAKALO,062,AMANI NATIONAL CONGRESS,ANC
DISMAS,KITUYI WANYAMA,039,BUNGOMA,224,TONGAREN,1115,MBAKALO,038,PEOPLES EMPOWERMENT PARTY,PEP
KHAEMBA,BENARD SIMIYU,039,BUNGOMA,224,TONGAREN,1115,MBAKALO,IND,INDEPENDENT,IND
KIKECHI,BENARD WEKESA,039,BUNGOMA,224,TONGAREN,1115,MBAKALO,023,FORUM FOR RESTORATION OF DEMOCRACY-KENYA,FORD-KENYA
MUCHA,ALFRED BARASA,039,BUNGOMA,224,TONGAREN,1115,MBAKALO,021,ORANGE DEMOCRATIC MOVEMENT,ODM
MUSEBE,FREDRICK JOHN,039,BUNGOMA,224,TONGAREN,1115,MBAKALO,IND,INDEPENDENT,IND
MWERUKA,LUCY NASIMIYU,039,BUNGOMA,224,TONGAREN,1115,MBAKALO,027,JUBILEE PARTY,JP
NAMASWA,WYCLIFFE WAMBULWA,039,BUNGOMA,224,TONGAREN,1115,MBAKALO,015,UNITED DEMOCRATIC  ALLIANCE,UDA
NANGALAMA,JOHN LUBISIA,039,BUNGOMA,224,TONGAREN,1115,MBAKALO,002,THE NATIONAL VISION PARTY,NVP
NYUKURI,DENNIS WANJUKINDI,039,BUNGOMA,224,TONGAREN,1115,MBAKALO,IND,INDEPENDENT,IND
OWITI,MIKEY ELIMA,039,BUNGOMA,224,TONGAREN,1115,MBAKALO,IND,INDEPENDENT,IND
SIFUNA,GIDEON ONGAKA,039,BUNGOMA,224,TONGAREN,1115,MBAKALO,071,NATIONAL LIBERAL PARTY,NLP
WAFULA,JAMES CHWALA,039,BUNGOMA,224,TONGAREN,1115,MBAKALO,IND,INDEPENDENT,IND
WALUCHO,TIMOTHY MAKHETI ,039,BUNGOMA,224,TONGAREN,1115,MBAKALO,IND,INDEPENDENT,IND
WAMALWA,JULIUS WANYAMA,039,BUNGOMA,224,TONGAREN,1115,MBAKALO,IND,INDEPENDENT,IND
WANDA,WILFRED  BITOBO,039,BUNGOMA,224,TONGAREN,1115,MBAKALO,IND,INDEPENDENT,IND
WANYONYI,VICTOR WANYAMA ,039,BUNGOMA,224,TONGAREN,1115,MBAKALO,028,MAENDELEO DEMOCRATIC PARTY,MDP
WASIKE,MICHAEL WASILWA ,039,BUNGOMA,224,TONGAREN,1115,MBAKALO,IND,INDEPENDENT,IND
WASWA,FELIX SIMIYU,039,BUNGOMA,224,TONGAREN,1115,MBAKALO,IND,INDEPENDENT,IND
WEKESA,JESSEN,039,BUNGOMA,224,TONGAREN,1115,MBAKALO,049,FEDERAL PARTY OF KENYA,FPK
WEKESA,MOSES WASWA,039,BUNGOMA,224,TONGAREN,1115,MBAKALO,085,DEMOCRATIC ACTION PARTY- KENYA,DAP-K
WEKESA,TIMOTHY WANYONYI,039,BUNGOMA,224,TONGAREN,1115,MBAKALO,IND,INDEPENDENT,IND
