WANJIRU,LUCY WANGUI,047,NAIROBI CITY,285,EMBAKASI EAST,1425,MIHANGO,087,CHAMA CHA KAZI,KAZI
EVANS,JUMA MISATI,047,NAIROBI CITY,286,EMBAKASI WEST,1426,UMOJA I,IND,INDEPENDENT,IND
GEITA,JOSEPH MUNGAI,047,NAIROBI CITY,286,EMBAKASI WEST,1426,UMOJA I,IND,INDEPENDENT,IND
GEORGE,COLLINS NDUA,047,NAIROBI CITY,286,EMBAKASI WEST,1426,UMOJA I,095,GREEN THINKING ACTION PARTY,GTAP
IRUNGU,GEORGE WAWERU,047,NAIROBI CITY,286,EMBAKASI WEST,1426,UMOJA I,080,USAWA KWA WOTE PARTY,USAWA
JOHN,HELLEN KAMENE,047,NAIROBI CITY,286,EMBAKASI WEST,1426,UMOJA I,040,THE NEW DEMOCRATS,TND
KAMAKIA,SIMON NDIRANGU,047,NAIROBI CITY,286,EMBAKASI WEST,1426,UMOJA I,088,TUJIBEBE WAKENYA PARTY,JIBEBE
KEVIN,MARK MUGAMBI MACHARIA,047,NAIROBI CITY,286,EMBAKASI WEST,1426,UMOJA I,015,UNITED DEMOCRATIC  ALLIANCE,UDA
KIHIKO,DAVID MWAURA,047,NAIROBI CITY,286,EMBAKASI WEST,1426,UMOJA I,IND,INDEPENDENT,IND
KITETO,ABEL MWAMBURI,047,NAIROBI CITY,286,EMBAKASI WEST,1426,UMOJA I,012,WIPER DEMOCRATIC MOVEMENT- KENYA,WDM
MUTINDA,CYRUS NZUKI,047,NAIROBI CITY,286,EMBAKASI WEST,1426,UMOJA I,067,MAENDELEO CHAP CHAP PARTY,MCCP
NGONGA,WILLIAM OLUM,047,NAIROBI CITY,286,EMBAKASI WEST,1426,UMOJA I,IND,INDEPENDENT,IND
OMODO,EVANS ABWORI,047,NAIROBI CITY,286,EMBAKASI WEST,1426,UMOJA I,IND,INDEPENDENT,IND
WANYOIKE,ROSE NJOKI,047,NAIROBI CITY,286,EMBAKASI WEST,1426,UMOJA I,044,PARTY OF DEMOCRATIC  UNITY,PDU
ANYANGO,CALVIN NYAURE,047,NAIROBI CITY,286,EMBAKASI WEST,1427,UMOJA II,065,KENYA REFORM PARTY,KRP
HANYORE,BENJAMIN OLUOCH ,047,NAIROBI CITY,286,EMBAKASI WEST,1427,UMOJA II,IND,INDEPENDENT,IND
JOEL,MACHOKA MICHOMA,047,NAIROBI CITY,286,EMBAKASI WEST,1427,UMOJA II,081,UNITED PROGRESSIVE ALLIANCE,UPA
KINYUA,WALLACE WAMBOO,047,NAIROBI CITY,286,EMBAKASI WEST,1427,UMOJA II,IND,INDEPENDENT,IND
MUSIKOYO,FAITH ANNE,047,NAIROBI CITY,286,EMBAKASI WEST,1427,UMOJA II,085,DEMOCRATIC ACTION PARTY- KENYA,DAP-K
NAMUNYU,SHADRACK MACHANJE ,047,NAIROBI CITY,286,EMBAKASI WEST,1427,UMOJA II,021,ORANGE DEMOCRATIC MOVEMENT,ODM
NYAGA,VIOLET WAWIRA,047,NAIROBI CITY,286,EMBAKASI WEST,1427,UMOJA II,040,THE NEW DEMOCRATS,TND
OBILO,FELICIAN CHURCHIL OTIENO,047,NAIROBI CITY,286,EMBAKASI WEST,1427,UMOJA II,015,UNITED DEMOCRATIC  ALLIANCE,UDA
OMONDI,STEPHEN OPONDO,047,NAIROBI CITY,286,EMBAKASI WEST,1427,UMOJA II,062,AMANI NATIONAL CONGRESS,ANC
OTIENO,CHRISTOPHER G ODHIAMBO,047,NAIROBI CITY,286,EMBAKASI WEST,1427,UMOJA II,IND,INDEPENDENT,IND
OTIENO,MICHAEL ODONGO ,047,NAIROBI CITY,286,EMBAKASI WEST,1427,UMOJA II,IND,INDEPENDENT,IND
WEME,ABRAHAM OJWANG ,047,NAIROBI CITY,286,EMBAKASI WEST,1427,UMOJA II,IND,INDEPENDENT,IND
ADAN,ABDI AZIZ,047,NAIROBI CITY,286,EMBAKASI WEST,1428,MOWLEM,013,DEMOCRATIC PARTY OF KENYA,DP
BUGURI,EDWARD KARUGUYA,047,NAIROBI CITY,286,EMBAKASI WEST,1428,MOWLEM,IND,INDEPENDENT,IND
GICHANGA,JOSEPH MAGU,047,NAIROBI CITY,286,EMBAKASI WEST,1428,MOWLEM,087,CHAMA CHA KAZI,KAZI
KARANJA,FLAVIA WANGECI ,047,NAIROBI CITY,286,EMBAKASI WEST,1428,MOWLEM,044,PARTY OF DEMOCRATIC  UNITY,PDU
KURIA,RAHAB WAMBUI,047,NAIROBI CITY,286,EMBAKASI WEST,1428,MOWLEM,IND,INDEPENDENT,IND
MACHARIA,BENSON MWANGI,047,NAIROBI CITY,286,EMBAKASI WEST,1428,MOWLEM,027,JUBILEE PARTY,JP
MAINA,FRANCIS  MUHIKA,047,NAIROBI CITY,286,EMBAKASI WEST,1428,MOWLEM,IND,INDEPENDENT,IND
MAINGI,MICHAEL KENYATTA,047,NAIROBI CITY,286,EMBAKASI WEST,1428,MOWLEM,IND,INDEPENDENT,IND
