LIBEYA,MOSES MIHESO,037,KAKAMEGA,209,SHINYALU,1046,ISUKHA WEST,064,UNITED DEMOCRATIC PARTY,UDP
SEGERO,SAMUEL MULLAVU ,037,KAKAMEGA,209,SHINYALU,1046,ISUKHA WEST,085,DEMOCRATIC ACTION PARTY- KENYA,DAP-K
SHIBEMBE,EDWARD CHIMWANI,037,KAKAMEGA,209,SHINYALU,1046,ISUKHA WEST,062,AMANI NATIONAL CONGRESS,ANC
CHILAINI,PATRICK MUHATI,037,KAKAMEGA,210,IKOLOMANI,1047,IDAKHO SOUTH,062,AMANI NATIONAL CONGRESS,ANC
KWAYUMBA,DISMAS MUTAMBO ,037,KAKAMEGA,210,IKOLOMANI,1047,IDAKHO SOUTH,033,KENYA AFRICAN NATIONAL UNION,KANU
LIDORO,ALBERTUS LUMULA,037,KAKAMEGA,210,IKOLOMANI,1047,IDAKHO SOUTH,IND,INDEPENDENT,IND
MUKASA,NELSON AKHWESA ,037,KAKAMEGA,210,IKOLOMANI,1047,IDAKHO SOUTH,049,FEDERAL PARTY OF KENYA,FPK
MUKHALA,STEPHEN ,037,KAKAMEGA,210,IKOLOMANI,1047,IDAKHO SOUTH,021,ORANGE DEMOCRATIC MOVEMENT,ODM
MUTASYA,MARK AMALEMBA ,037,KAKAMEGA,210,IKOLOMANI,1047,IDAKHO SOUTH,068,DEMOCRATIC CONGRESS,DC
ONGAYA,PATRICK MUTASYA ,037,KAKAMEGA,210,IKOLOMANI,1047,IDAKHO SOUTH,064,UNITED DEMOCRATIC PARTY,UDP
PALAPALA,STANSLAUS MUTESHI,037,KAKAMEGA,210,IKOLOMANI,1047,IDAKHO SOUTH,IND,INDEPENDENT,IND
SHIANGO,MARSELLUS SHITUKHU,037,KAKAMEGA,210,IKOLOMANI,1047,IDAKHO SOUTH,015,UNITED DEMOCRATIC  ALLIANCE,UDA
SHIBONJE,URBAN GERALD ,037,KAKAMEGA,210,IKOLOMANI,1047,IDAKHO SOUTH,072,MOVEMENT FOR DEMOCRACY AND GROWTH,MDG
SHIKOKOTI,MORRICE ODUNGA ,037,KAKAMEGA,210,IKOLOMANI,1047,IDAKHO SOUTH,086,PARTY FOR PEACE AND DEVELOPMENT,PPD
CHOGO,LUCIE MBAJAH,037,KAKAMEGA,210,IKOLOMANI,1048,IDAKHO EAST,085,DEMOCRATIC ACTION PARTY- KENYA,DAP-K
MAMADY,MILVERTONE MULOLY,037,KAKAMEGA,210,IKOLOMANI,1048,IDAKHO EAST,015,UNITED DEMOCRATIC  ALLIANCE,UDA
MIHESO,CONSTANTINE IVAGA,037,KAKAMEGA,210,IKOLOMANI,1048,IDAKHO EAST,027,JUBILEE PARTY,JP
MULINYA,BENSON MANUNI,037,KAKAMEGA,210,IKOLOMANI,1048,IDAKHO EAST,023,FORUM FOR RESTORATION OF DEMOCRACY-KENYA,FORD-KENYA
SHIKOKOTI,SILVESTER SHITUKHU,037,KAKAMEGA,210,IKOLOMANI,1048,IDAKHO EAST,086,PARTY FOR PEACE AND DEVELOPMENT,PPD
SHIYENJI,SILAS MUYEYIA,037,KAKAMEGA,210,IKOLOMANI,1048,IDAKHO EAST,021,ORANGE DEMOCRATIC MOVEMENT,ODM
TETEI,JESSE ASUTSA,037,KAKAMEGA,210,IKOLOMANI,1048,IDAKHO EAST,062,AMANI NATIONAL CONGRESS,ANC
WENDO,BRIAN ISINDU,037,KAKAMEGA,210,IKOLOMANI,1048,IDAKHO EAST,067,MAENDELEO CHAP CHAP PARTY,MCCP
AKONYA,TONALD MUSITA,037,KAKAMEGA,210,IKOLOMANI,1049,IDAKHO NORTH,058,REPUBLICAN LIBERTY PARTY,RLP
ANDAMBI,ROSELIDAH KHAMETE,037,KAKAMEGA,210,IKOLOMANI,1049,IDAKHO NORTH,023,FORUM FOR RESTORATION OF DEMOCRACY-KENYA,FORD-KENYA
ASHIONOH,VICTOR ACHESA,037,KAKAMEGA,210,IKOLOMANI,1049,IDAKHO NORTH,062,AMANI NATIONAL CONGRESS,ANC
LUKULU,BERNARD IMBORA ,037,KAKAMEGA,210,IKOLOMANI,1049,IDAKHO NORTH,015,UNITED DEMOCRATIC  ALLIANCE,UDA
MALENYA,GLADYS 0MUKONGOLO,037,KAKAMEGA,210,IKOLOMANI,1049,IDAKHO NORTH,021,ORANGE DEMOCRATIC MOVEMENT,ODM
MBAKAYA,CALEB MURUNGA,037,KAKAMEGA,210,IKOLOMANI,1049,IDAKHO NORTH,014,PARTY OF NATIONAL UNITY,PNU
MMBEYI,NATHAN LANYA,037,KAKAMEGA,210,IKOLOMANI,1049,IDAKHO NORTH,072,MOVEMENT FOR DEMOCRACY AND GROWTH,MDG
MMUKA,SAPHANIA MUTSOTSO,037,KAKAMEGA,210,IKOLOMANI,1049,IDAKHO NORTH,085,DEMOCRATIC ACTION PARTY- KENYA,DAP-K
MUHATI,JULIUS MURUNGAH ,037,KAKAMEGA,210,IKOLOMANI,1049,IDAKHO NORTH,027,JUBILEE PARTY,JP
MUKABWA,KELVIN MABIA,037,KAKAMEGA,210,IKOLOMANI,1049,IDAKHO NORTH,046,UNITED PARTY OF INDEPENDENT ALLIANCE,UPIA
SHISANYA,ANTONY GREGORY ,037,KAKAMEGA,210,IKOLOMANI,1049,IDAKHO NORTH,084,NATIONAL RECONSTRUCTION ALLIANCE,NRA
IKAMBILI,HILLARY MUHAMBE,037,KAKAMEGA,210,IKOLOMANI,1050,IDAKHO CENTRAL,072,MOVEMENT FOR DEMOCRACY AND GROWTH,MDG
