SHITINDO,ALON JACKTON,037,KAKAMEGA,204,MUMIAS WEST,1023,MUSANDA,072,MOVEMENT FOR DEMOCRACY AND GROWTH,MDG
ANZETSE,TIMOTHY MAYABI  ,037,KAKAMEGA,205,MUMIAS EAST,1024,LUSHEYA LUBINU,021,ORANGE DEMOCRATIC MOVEMENT,ODM
BARASA,RUFUS VATNANT JAMES,037,KAKAMEGA,205,MUMIAS EAST,1024,LUSHEYA LUBINU,033,KENYA AFRICAN NATIONAL UNION,KANU
KEYA,ELLY WESECHERE,037,KAKAMEGA,205,MUMIAS EAST,1024,LUSHEYA LUBINU,064,UNITED DEMOCRATIC PARTY,UDP
LUBANGA,JOCELYN AKINYI,037,KAKAMEGA,205,MUMIAS EAST,1024,LUSHEYA LUBINU,062,AMANI NATIONAL CONGRESS,ANC
MACHANJA,HOWARD WELLINGTON,037,KAKAMEGA,205,MUMIAS EAST,1024,LUSHEYA LUBINU,IND,INDEPENDENT,IND
MACHENGO,JAMES JOMO,037,KAKAMEGA,205,MUMIAS EAST,1024,LUSHEYA LUBINU,IND,INDEPENDENT,IND
MUTICHI,RASHID OSUNDWA ,037,KAKAMEGA,205,MUMIAS EAST,1024,LUSHEYA LUBINU,IND,INDEPENDENT,IND
ONYANGO,FREDRICK WESONGA,037,KAKAMEGA,205,MUMIAS EAST,1024,LUSHEYA LUBINU,015,UNITED DEMOCRATIC  ALLIANCE,UDA
RAPANDO,MARY NALIAKA,037,KAKAMEGA,205,MUMIAS EAST,1024,LUSHEYA LUBINU,IND,INDEPENDENT,IND
SHIKUNYI,JAMES ORAKHA,037,KAKAMEGA,205,MUMIAS EAST,1024,LUSHEYA LUBINU,002,THE NATIONAL VISION PARTY,NVP
WABUTI,DENNIS ORATA,037,KAKAMEGA,205,MUMIAS EAST,1024,LUSHEYA LUBINU,068,DEMOCRATIC CONGRESS,DC
WETABA,MICHAEL EDDY,037,KAKAMEGA,205,MUMIAS EAST,1024,LUSHEYA LUBINU,085,DEMOCRATIC ACTION PARTY- KENYA,DAP-K
BARASA,EVANS ORATA,037,KAKAMEGA,205,MUMIAS EAST,1025,MALAHA ISONGO MAKUNGA,085,DEMOCRATIC ACTION PARTY- KENYA,DAP-K
KHWALE WASHIALI,SILVANUS WASHINGTON,037,KAKAMEGA,205,MUMIAS EAST,1025,MALAHA ISONGO MAKUNGA,072,MOVEMENT FOR DEMOCRACY AND GROWTH,MDG
KWEYU,DANIEL  SAKWA,037,KAKAMEGA,205,MUMIAS EAST,1025,MALAHA ISONGO MAKUNGA,023,FORUM FOR RESTORATION OF DEMOCRACY-KENYA,FORD-KENYA
MUHANDIA,CHRISPINUS  NANGABO,037,KAKAMEGA,205,MUMIAS EAST,1025,MALAHA ISONGO MAKUNGA,IND,INDEPENDENT,IND
MUTSAI,HARRISON OMUKANDA,037,KAKAMEGA,205,MUMIAS EAST,1025,MALAHA ISONGO MAKUNGA,IND,INDEPENDENT,IND
NABUKO,PAUL INDIMULI,037,KAKAMEGA,205,MUMIAS EAST,1025,MALAHA ISONGO MAKUNGA,028,MAENDELEO DEMOCRATIC PARTY,MDP
NG'ONO,CHADWICK P OLOTO,037,KAKAMEGA,205,MUMIAS EAST,1025,MALAHA ISONGO MAKUNGA,068,DEMOCRATIC CONGRESS,DC
NYONGESA,SULEIMAN AKHUNGU,037,KAKAMEGA,205,MUMIAS EAST,1025,MALAHA ISONGO MAKUNGA,015,UNITED DEMOCRATIC  ALLIANCE,UDA
OMUTO,RASHIDI MAKOKHA ,037,KAKAMEGA,205,MUMIAS EAST,1025,MALAHA ISONGO MAKUNGA,033,KENYA AFRICAN NATIONAL UNION,KANU
OSUNDWA,KEVIN KANISIO,037,KAKAMEGA,205,MUMIAS EAST,1025,MALAHA ISONGO MAKUNGA,064,UNITED DEMOCRATIC PARTY,UDP
SHIKUKU,EVANS OSORE,037,KAKAMEGA,205,MUMIAS EAST,1025,MALAHA ISONGO MAKUNGA,021,ORANGE DEMOCRATIC MOVEMENT,ODM
SHINALI,JOHN YESWA,037,KAKAMEGA,205,MUMIAS EAST,1025,MALAHA ISONGO MAKUNGA,084,NATIONAL RECONSTRUCTION ALLIANCE,NRA
WALUNYA,PETER  I,037,KAKAMEGA,205,MUMIAS EAST,1025,MALAHA ISONGO MAKUNGA,062,AMANI NATIONAL CONGRESS,ANC
MUNYENDO,ANDREW OKUMU,037,KAKAMEGA,205,MUMIAS EAST,1026,EAST WANGA,013,DEMOCRATIC PARTY OF KENYA,DP
MUSULA,JOSEPH HAILSELASSIE,037,KAKAMEGA,205,MUMIAS EAST,1026,EAST WANGA,085,DEMOCRATIC ACTION PARTY- KENYA,DAP-K
OFISI,JUSTINE OTIPA,037,KAKAMEGA,205,MUMIAS EAST,1026,EAST WANGA,044,PARTY OF DEMOCRATIC  UNITY,PDU
ORATA,MARTIN ABUTI,037,KAKAMEGA,205,MUMIAS EAST,1026,EAST WANGA,083,NATIONAL ORDINARY PEOPLES EMPOWERMENT ,NOPEU
OTENG'O,ZAID SHABAN,037,KAKAMEGA,205,MUMIAS EAST,1026,EAST WANGA,IND,INDEPENDENT,IND
RAPANDO,FRANCIS LUKUNGU ,037,KAKAMEGA,205,MUMIAS EAST,1026,EAST WANGA,068,DEMOCRATIC CONGRESS,DC
RAPANDO,MATHEW WAMALWA,037,KAKAMEGA,205,MUMIAS EAST,1026,EAST WANGA,021,ORANGE DEMOCRATIC MOVEMENT,ODM
TIMBIA,JACKSON MAKOKHA,037,KAKAMEGA,205,MUMIAS EAST,1026,EAST WANGA,062,AMANI NATIONAL CONGRESS,ANC
