ORENGE,WILLIAM ONSASE,045,KISII,262,SOUTH MUGIRANGO,1310,GETENGA,079,UNITED GREEN MOVEMENT,UGM
OSWALD,AYIEKO ONKOBA,045,KISII,262,SOUTH MUGIRANGO,1310,GETENGA,IND,INDEPENDENT,IND
OYARI,JOSEPH OROKO,045,KISII,262,SOUTH MUGIRANGO,1310,GETENGA,009,KENYA NATIONAL CONGRESS,KNC
ABUGA,SAMSON MOGUSU,045,KISII,263,BOMACHOGE BORABU,1311,BOMBABA BORABU,027,JUBILEE PARTY,JP
MABEYA,ADAM'S SETH   ONSONGO,045,KISII,263,BOMACHOGE BORABU,1311,BOMBABA BORABU,IND,INDEPENDENT,IND
MAKWAE,BEATRICE KERUBO ,045,KISII,263,BOMACHOGE BORABU,1311,BOMBABA BORABU,021,ORANGE DEMOCRATIC MOVEMENT,ODM
MANDERE,RICHARD ONYWOKI ,045,KISII,263,BOMACHOGE BORABU,1311,BOMBABA BORABU,019,KENYA SOCIAL CONGRESS,KSC
MANGARE,SILAS OYUGI,045,KISII,263,BOMACHOGE BORABU,1311,BOMBABA BORABU,080,USAWA KWA WOTE PARTY,USAWA
MOTURI,ROSE KERUBO MWENE,045,KISII,263,BOMACHOGE BORABU,1311,BOMBABA BORABU,015,UNITED DEMOCRATIC  ALLIANCE,UDA
NYANDIEKA,JOSEPH OKIAGERA ,045,KISII,263,BOMACHOGE BORABU,1311,BOMBABA BORABU,081,UNITED PROGRESSIVE ALLIANCE,UPA
OBONYO,FRANCIS,045,KISII,263,BOMACHOGE BORABU,1311,BOMBABA BORABU,007,PARTY OF INDEPENDENT CANDIDATES OF KENYA,PICK
ONGAYO,JARED AROGO,045,KISII,263,BOMACHOGE BORABU,1311,BOMBABA BORABU,039,PEOPLES DEMOCRATIC PARTY,PDP
ONTWEKA,DENNIS OMAMBIA  ,045,KISII,263,BOMACHOGE BORABU,1311,BOMBABA BORABU,IND,INDEPENDENT,IND
ONWONG'A,DICKENS ONG'AYO ,045,KISII,263,BOMACHOGE BORABU,1311,BOMBABA BORABU,062,AMANI NATIONAL CONGRESS,ANC
AYIECHA,ZEPHANIAH BIYOGO,045,KISII,263,BOMACHOGE BORABU,1312,BOOCHI BORABU,038,PEOPLES EMPOWERMENT PARTY,PEP
MAREGE,ABEL  NYAKANGI,045,KISII,263,BOMACHOGE BORABU,1312,BOOCHI BORABU,IND,INDEPENDENT,IND
NYARUMI,GEOFFREY MOMANYI,045,KISII,263,BOMACHOGE BORABU,1312,BOOCHI BORABU,015,UNITED DEMOCRATIC  ALLIANCE,UDA
OMWAMBA,NICODEMUS WILLY ,045,KISII,263,BOMACHOGE BORABU,1312,BOOCHI BORABU,009,KENYA NATIONAL CONGRESS,KNC
ONTEGI,THOMAS OMBAE,045,KISII,263,BOMACHOGE BORABU,1312,BOOCHI BORABU,025,PROGRESSIVE PARTY OF KENYA,PPOK
ONUKOH,SAMUEL ANGASA,045,KISII,263,BOMACHOGE BORABU,1312,BOOCHI BORABU,021,ORANGE DEMOCRATIC MOVEMENT,ODM
ONYWOKI,DANIEL RABURA,045,KISII,263,BOMACHOGE BORABU,1312,BOOCHI BORABU,033,KENYA AFRICAN NATIONAL UNION,KANU
ORUMI,CHARLES  MBAKA,045,KISII,263,BOMACHOGE BORABU,1312,BOOCHI BORABU,027,JUBILEE PARTY,JP
OSEKO,ISAAC MBAKA,045,KISII,263,BOMACHOGE BORABU,1312,BOOCHI BORABU,IND,INDEPENDENT,IND
TINEGA,SAMWEL OMARI,045,KISII,263,BOMACHOGE BORABU,1312,BOOCHI BORABU,085,DEMOCRATIC ACTION PARTY- KENYA,DAP-K
BEGI,ENOCK MOKUA,045,KISII,263,BOMACHOGE BORABU,1313,BOKIMONGE,032,COMMUNIST PARTY OF KENYA,CPK
BIBAO,GEORGE MORARA,045,KISII,263,BOMACHOGE BORABU,1313,BOKIMONGE,015,UNITED DEMOCRATIC  ALLIANCE,UDA
BOSIRE,JUSTINE SAMSON,045,KISII,263,BOMACHOGE BORABU,1313,BOKIMONGE,009,KENYA NATIONAL CONGRESS,KNC
CHUMA,BENARD ANYONA,045,KISII,263,BOMACHOGE BORABU,1313,BOKIMONGE,079,UNITED GREEN MOVEMENT,UGM
GISEBE,BONIFACE ORANGI ,045,KISII,263,BOMACHOGE BORABU,1313,BOKIMONGE,014,PARTY OF NATIONAL UNITY,PNU
MASESE,BAVON ONYANCHA ,045,KISII,263,BOMACHOGE BORABU,1313,BOKIMONGE,084,NATIONAL RECONSTRUCTION ALLIANCE,NRA
MOKORO,ENOCK MOTURI,045,KISII,263,BOMACHOGE BORABU,1313,BOKIMONGE,039,PEOPLES DEMOCRATIC PARTY,PDP
NYABAGA,PETER MOGUNDE,045,KISII,263,BOMACHOGE BORABU,1313,BOKIMONGE,080,USAWA KWA WOTE PARTY,USAWA
NYAKEGITA,RONALD OBURE,045,KISII,263,BOMACHOGE BORABU,1313,BOKIMONGE,083,NATIONAL ORDINARY PEOPLES EMPOWERMENT ,NOPEU
NYAMAO,HEZBON NYANG'AU ,045,KISII,263,BOMACHOGE BORABU,1313,BOKIMONGE,IND,INDEPENDENT,IND
