MUGO,PAUL MUNENE,020,KIRINYAGA,103,KIRINYAGA CENTRAL,0514,KERUGOYA,001,NATIONAL RAINBOW COALITION-KENYA,NARC-KENYA
MUNENE,REUBEN  MUCHIRA ,020,KIRINYAGA,103,KIRINYAGA CENTRAL,0514,KERUGOYA,IND,INDEPENDENT,IND
WANJIKU,SHADRACK NDIRANGU,020,KIRINYAGA,103,KIRINYAGA CENTRAL,0514,KERUGOYA,IND,INDEPENDENT,IND
KABEBO,ANTHONY KARANI,020,KIRINYAGA,103,KIRINYAGA CENTRAL,0515,INOI,082,THE SERVICE PARTY,TSP
KARIMI,FREDRICK MAINA,020,KIRINYAGA,103,KIRINYAGA CENTRAL,0515,INOI,015,UNITED DEMOCRATIC  ALLIANCE,UDA
KIBARA,JOSEPH MURIU,020,KIRINYAGA,103,KIRINYAGA CENTRAL,0515,INOI,027,JUBILEE PARTY,JP
MURIITHI,PETERSON MUGO,020,KIRINYAGA,103,KIRINYAGA CENTRAL,0515,INOI,IND,INDEPENDENT,IND
MURIUKI,ELI MUCHIRI,020,KIRINYAGA,103,KIRINYAGA CENTRAL,0515,INOI,001,NATIONAL RAINBOW COALITION-KENYA,NARC-KENYA
MWANIKI,DAVID MWANGI,020,KIRINYAGA,103,KIRINYAGA CENTRAL,0515,INOI,IND,INDEPENDENT,IND
NJOGU,PHILIP  MURIMI,020,KIRINYAGA,103,KIRINYAGA CENTRAL,0515,INOI,IND,INDEPENDENT,IND
NYAGA,PAUL GACHOKI,020,KIRINYAGA,103,KIRINYAGA CENTRAL,0515,INOI,IND,INDEPENDENT,IND
BILHA,ANTONY MAINA,021,MURANG'A,104,KANGEMA,0516,KANYENYA-INI,087,CHAMA CHA KAZI,KAZI
GATERU,JOYCE MUTHONI,021,MURANG'A,104,KANGEMA,0516,KANYENYA-INI,IND,INDEPENDENT,IND
GITHAIGA,GEOFFREY GAKIRIA,021,MURANG'A,104,KANGEMA,0516,KANYENYA-INI,080,USAWA KWA WOTE PARTY,USAWA
KAMAU,HARRISON THUKU,021,MURANG'A,104,KANGEMA,0516,KANYENYA-INI,IND,INDEPENDENT,IND
KANJA,JULIUS MWANGI,021,MURANG'A,104,KANGEMA,0516,KANYENYA-INI,IND,INDEPENDENT,IND
KIHARA,JEREMIAH KONGO,021,MURANG'A,104,KANGEMA,0516,KANYENYA-INI,IND,INDEPENDENT,IND
MACHARIA,STEPHEN MBATIA,021,MURANG'A,104,KANGEMA,0516,KANYENYA-INI,IND,INDEPENDENT,IND
MURITU,SHEM GICHIMU,021,MURANG'A,104,KANGEMA,0516,KANYENYA-INI,IND,INDEPENDENT,IND
MWANGI,EVANS MURIU,021,MURANG'A,104,KANGEMA,0516,KANYENYA-INI,027,JUBILEE PARTY,JP
MWANGI,GEORGE KINYANJUI ,021,MURANG'A,104,KANGEMA,0516,KANYENYA-INI,047,FARMERS PARTY,FP
THUMBI,JOHNSON MACHARIA,021,MURANG'A,104,KANGEMA,0516,KANYENYA-INI,095,GREEN THINKING ACTION PARTY,GTAP
WAIRIMU,GRACE NDUTA,021,MURANG'A,104,KANGEMA,0516,KANYENYA-INI,015,UNITED DEMOCRATIC  ALLIANCE,UDA
WANGECHI,FLORENCE NYAMBURA,021,MURANG'A,104,KANGEMA,0516,KANYENYA-INI,062,AMANI NATIONAL CONGRESS,ANC
GATARU,JOSEPHINE WARWINU,021,MURANG'A,104,KANGEMA,0517,MUGURU,062,AMANI NATIONAL CONGRESS,ANC
GITAKA,HEZRON GAKANG'A ,021,MURANG'A,104,KANGEMA,0517,MUGURU,083,NATIONAL ORDINARY PEOPLES EMPOWERMENT ,NOPEU
GITHUMBI,DOUGLAS KAMAU,021,MURANG'A,104,KANGEMA,0517,MUGURU,IND,INDEPENDENT,IND
HEBRON,JOSEPH GABRIEL MWANGI,021,MURANG'A,104,KANGEMA,0517,MUGURU,IND,INDEPENDENT,IND
KAMAU,VINCENT PATRICK,021,MURANG'A,104,KANGEMA,0517,MUGURU,027,JUBILEE PARTY,JP
KIMANI,BENSON MUUI,021,MURANG'A,104,KANGEMA,0517,MUGURU,IND,INDEPENDENT,IND
MACHARIA,RENSON JAMES MAINA,021,MURANG'A,104,KANGEMA,0517,MUGURU,082,THE SERVICE PARTY,TSP
MACHARIA,TILAS MAINA,021,MURANG'A,104,KANGEMA,0517,MUGURU,IND,INDEPENDENT,IND
MAINA,BENARD MBUKI,021,MURANG'A,104,KANGEMA,0517,MUGURU,080,USAWA KWA WOTE PARTY,USAWA
MAINA,JAMES KAMAU,021,MURANG'A,104,KANGEMA,0517,MUGURU,075,EMPOWERMENT AND LIBERATION PARTY,ELP
