NJUGUNA,KENNEDY KINUTHIA,021,MURANG'A,108,MARAGWA,0536,KAMAHUHA,015,UNITED DEMOCRATIC  ALLIANCE,UDA
WANJIRU,ANNIE BILHA,021,MURANG'A,108,MARAGWA,0536,KAMAHUHA,023,FORUM FOR RESTORATION OF DEMOCRACY-KENYA,FORD-KENYA
IRUNGU,DANSON NDUNGU,021,MURANG'A,108,MARAGWA,0537,ICHAGAKI,IND,INDEPENDENT,IND
KAMANDE,JAMES NG'ANG'A,021,MURANG'A,108,MARAGWA,0537,ICHAGAKI,IND,INDEPENDENT,IND
KAMAU,GEORGE WAMBUGU,021,MURANG'A,108,MARAGWA,0537,ICHAGAKI,IND,INDEPENDENT,IND
KINYANJUI,PAUL WAINAINA,021,MURANG'A,108,MARAGWA,0537,ICHAGAKI,088,TUJIBEBE WAKENYA PARTY,JIBEBE
MAHIA,MOSES MUNGAI,021,MURANG'A,108,MARAGWA,0537,ICHAGAKI,082,THE SERVICE PARTY,TSP
MBURU,LABAN MURIGI,021,MURANG'A,108,MARAGWA,0537,ICHAGAKI,062,AMANI NATIONAL CONGRESS,ANC
MUCHOKI,HILARY MUIGAI,021,MURANG'A,108,MARAGWA,0537,ICHAGAKI,015,UNITED DEMOCRATIC  ALLIANCE,UDA
MUIRURI,PATRICK KINYANJUI,021,MURANG'A,108,MARAGWA,0537,ICHAGAKI,IND,INDEPENDENT,IND
NDUNGU,STEPHEN MWANGI,021,MURANG'A,108,MARAGWA,0537,ICHAGAKI,IND,INDEPENDENT,IND
NG'ANG'A,CHARLES MWANGI ,021,MURANG'A,108,MARAGWA,0537,ICHAGAKI,IND,INDEPENDENT,IND
NGOIRI,GEORGE KARIUKI,021,MURANG'A,108,MARAGWA,0537,ICHAGAKI,IND,INDEPENDENT,IND
NJOGU,ROBERT KIBANDI,021,MURANG'A,108,MARAGWA,0537,ICHAGAKI,027,JUBILEE PARTY,JP
NJOROGE,JOHN WANYOIKE,021,MURANG'A,108,MARAGWA,0537,ICHAGAKI,046,UNITED PARTY OF INDEPENDENT ALLIANCE,UPIA
NJOROGE,SARAH NJERI,021,MURANG'A,108,MARAGWA,0537,ICHAGAKI,IND,INDEPENDENT,IND
GITAU,DEDAN NDUNG'U,021,MURANG'A,108,MARAGWA,0538,NGINDA,087,CHAMA CHA KAZI,KAZI
GITEI,GILBERT KAMAU,021,MURANG'A,108,MARAGWA,0538,NGINDA,IND,INDEPENDENT,IND
KAMAU,JOHN MWANGI,021,MURANG'A,108,MARAGWA,0538,NGINDA,015,UNITED DEMOCRATIC  ALLIANCE,UDA
NDUATI,ZABLON MACHUGU ,021,MURANG'A,108,MARAGWA,0538,NGINDA,IND,INDEPENDENT,IND
WANGENDO,SAMUEL THAIRU,021,MURANG'A,108,MARAGWA,0538,NGINDA,027,JUBILEE PARTY,JP
GITAU,AMOS NDUNG'U,021,MURANG'A,109,KANDARA,0539,NG'ARARIA,047,FARMERS PARTY,FP
GITITI,BENJAMIN NJIOKI,021,MURANG'A,109,KANDARA,0539,NG'ARARIA,023,FORUM FOR RESTORATION OF DEMOCRACY-KENYA,FORD-KENYA
KARAGO,SYLVIA WAMBUI,021,MURANG'A,109,KANDARA,0539,NG'ARARIA,IND,INDEPENDENT,IND
KOMU,SIMON NJUGUNA,021,MURANG'A,109,KANDARA,0539,NG'ARARIA,IND,INDEPENDENT,IND
MATU,AMOS NGANGA,021,MURANG'A,109,KANDARA,0539,NG'ARARIA,IND,INDEPENDENT,IND
MUNGAI,DOUGLAS NGUGI,021,MURANG'A,109,KANDARA,0539,NG'ARARIA,IND,INDEPENDENT,IND
MUNGAI,PETER MWANGI,021,MURANG'A,109,KANDARA,0539,NG'ARARIA,IND,INDEPENDENT,IND
NDUNGU,SIMON MBURU,021,MURANG'A,109,KANDARA,0539,NG'ARARIA,IND,INDEPENDENT,IND
NGUGI,JAMES KARIUKI,021,MURANG'A,109,KANDARA,0539,NG'ARARIA,027,JUBILEE PARTY,JP
NGUGI,JULIUS MACHARIA ,021,MURANG'A,109,KANDARA,0539,NG'ARARIA,087,CHAMA CHA KAZI,KAZI
WAMWEA,SIMON MWAURA,021,MURANG'A,109,KANDARA,0539,NG'ARARIA,015,UNITED DEMOCRATIC  ALLIANCE,UDA
GITAU,JOHN MUNGAI,021,MURANG'A,109,KANDARA,0540,MURUKA,IND,INDEPENDENT,IND
KANG'ATU,PASSY NJERI,021,MURANG'A,109,KANDARA,0540,MURUKA,IND,INDEPENDENT,IND
