KARANJA,JANE THOGORI,022,KIAMBU,119,KABETE,0591,GITARU,015,UNITED DEMOCRATIC  ALLIANCE,UDA
KIHARA,PETER NGUNYU,022,KIAMBU,119,KABETE,0591,GITARU,034,SAFINA,SAFINA
MAINA,SIMON KAMAU,022,KIAMBU,119,KABETE,0591,GITARU,IND,INDEPENDENT,IND
NDUNGU,JOSEPH KARANJA,022,KIAMBU,119,KABETE,0591,GITARU,IND,INDEPENDENT,IND
NJOROGE,PHILIP PETER,022,KIAMBU,119,KABETE,0591,GITARU,027,JUBILEE PARTY,JP
NJUGUNA,CHARLES MWAURA ,022,KIAMBU,119,KABETE,0591,GITARU,IND,INDEPENDENT,IND
WANJIRU,SAMUEL NJUGUNA ,022,KIAMBU,119,KABETE,0591,GITARU,022,PEOPLES PARTY OF KENYA,PPK
GAKARIA,JAMES MWAURA,022,KIAMBU,119,KABETE,0592,MUGUGA,001,NATIONAL RAINBOW COALITION-KENYA,NARC-KENYA
GICHUKI,JOSEPH GACHERU,022,KIAMBU,119,KABETE,0592,MUGUGA,087,CHAMA CHA KAZI,KAZI
KABERA,JOSEPH WAINAINA,022,KIAMBU,119,KABETE,0592,MUGUGA,IND,INDEPENDENT,IND
KARUMBO,FRANCIS NJUGUNA ,022,KIAMBU,119,KABETE,0592,MUGUGA,IND,INDEPENDENT,IND
KIMEMIA,FRANCIS MAHIGA,022,KIAMBU,119,KABETE,0592,MUGUGA,IND,INDEPENDENT,IND
MUNG'ARA,JOSEPH GITHINJI,022,KIAMBU,119,KABETE,0592,MUGUGA,027,JUBILEE PARTY,JP
NJOROGE,WILFRED THUKU,022,KIAMBU,119,KABETE,0592,MUGUGA,088,TUJIBEBE WAKENYA PARTY,JIBEBE
THITU,SAMUEL NJOROGE,022,KIAMBU,119,KABETE,0592,MUGUGA,IND,INDEPENDENT,IND
THUMBI,PETER KAMAU,022,KIAMBU,119,KABETE,0592,MUGUGA,015,UNITED DEMOCRATIC  ALLIANCE,UDA
GITHUKU,GEOFFREY KAMAU ,022,KIAMBU,119,KABETE,0593,NYADHUNA,080,USAWA KWA WOTE PARTY,USAWA
KIMANI,PETER KARANJA,022,KIAMBU,119,KABETE,0593,NYADHUNA,027,JUBILEE PARTY,JP
KINYANJUI,JOHN NJOGU,022,KIAMBU,119,KABETE,0593,NYADHUNA,087,CHAMA CHA KAZI,KAZI
MBERERE,EVAN MWITHUKIA,022,KIAMBU,119,KABETE,0593,NYADHUNA,088,TUJIBEBE WAKENYA PARTY,JIBEBE
NGUGI,EDWARD KINYANJUI,022,KIAMBU,119,KABETE,0593,NYADHUNA,015,UNITED DEMOCRATIC  ALLIANCE,UDA
NJENGA,GEORGE NGAITHE,022,KIAMBU,119,KABETE,0593,NYADHUNA,IND,INDEPENDENT,IND
WACHAGA,JOE MUNGAI,022,KIAMBU,119,KABETE,0593,NYADHUNA,IND,INDEPENDENT,IND
GITHUKU,NDUNGI,022,KIAMBU,119,KABETE,0594,KABETE,IND,INDEPENDENT,IND
HINGA,GRACE WANJIRU,022,KIAMBU,119,KABETE,0594,KABETE,015,UNITED DEMOCRATIC  ALLIANCE,UDA
KAMAU,ZIPPORAH NYAMBURA,022,KIAMBU,119,KABETE,0594,KABETE,087,CHAMA CHA KAZI,KAZI
KIARIE,WALTER NDAMBO,022,KIAMBU,119,KABETE,0594,KABETE,027,JUBILEE PARTY,JP
KIMOTHO,HIRAM THUME,022,KIAMBU,119,KABETE,0594,KABETE,IND,INDEPENDENT,IND
NJUGUNA,DAVID KAIRU,022,KIAMBU,119,KABETE,0594,KABETE,088,TUJIBEBE WAKENYA PARTY,JIBEBE
THIGE,PATRICK MBURU,022,KIAMBU,119,KABETE,0594,KABETE,IND,INDEPENDENT,IND
WAINAINA,BENSON NG'ANG'A,022,KIAMBU,119,KABETE,0594,KABETE,IND,INDEPENDENT,IND
GATHURI,JAMES KAMAU,022,KIAMBU,119,KABETE,0595,UTHIRU,IND,INDEPENDENT,IND
KAHARA,MINNIE NGINA,022,KIAMBU,119,KABETE,0595,UTHIRU,IND,INDEPENDENT,IND
MUHINDI,KENNEDY,022,KIAMBU,119,KABETE,0595,UTHIRU,IND,INDEPENDENT,IND
