WAIRIMU,MICHAEL GITAU,047,NAIROBI CITY,275,DAGORETTI NORTH ,1372,KAWANGWARE,IND,INDEPENDENT,IND
BARIDI,HESBON SHIKALI,047,NAIROBI CITY,275,DAGORETTI NORTH ,1373,GATINA,067,MAENDELEO CHAP CHAP PARTY,MCCP
BINYENYA,OSCAR,047,NAIROBI CITY,275,DAGORETTI NORTH ,1373,GATINA,062,AMANI NATIONAL CONGRESS,ANC
GUYANDA,BERSHER,047,NAIROBI CITY,275,DAGORETTI NORTH ,1373,GATINA,015,UNITED DEMOCRATIC  ALLIANCE,UDA
JUMA,ERIC WABWILE,047,NAIROBI CITY,275,DAGORETTI NORTH ,1373,GATINA,023,FORUM FOR RESTORATION OF DEMOCRACY-KENYA,FORD-KENYA
KISEVU,JOHN MUTWIWA,047,NAIROBI CITY,275,DAGORETTI NORTH ,1373,GATINA,012,WIPER DEMOCRATIC MOVEMENT- KENYA,WDM
MACHAYO,JAMES TOYA,047,NAIROBI CITY,275,DAGORETTI NORTH ,1373,GATINA,IND,INDEPENDENT,IND
MAMBO,ERICK MAKEKE,047,NAIROBI CITY,275,DAGORETTI NORTH ,1373,GATINA,IND,INDEPENDENT,IND
MUTIA,WICKLIFFE PHILIP,047,NAIROBI CITY,275,DAGORETTI NORTH ,1373,GATINA,IND,INDEPENDENT,IND
NANDWA,MAURICE ONJERO,047,NAIROBI CITY,275,DAGORETTI NORTH ,1373,GATINA,080,USAWA KWA WOTE PARTY,USAWA
NJAGI,EDWIN MAWIRA,047,NAIROBI CITY,275,DAGORETTI NORTH ,1373,GATINA,083,NATIONAL ORDINARY PEOPLES EMPOWERMENT ,NOPEU
NYIKULI,EMMANUEL SHIKUKU,047,NAIROBI CITY,275,DAGORETTI NORTH ,1373,GATINA,085,DEMOCRATIC ACTION PARTY- KENYA,DAP-K
SWAKA,KENNEDY,047,NAIROBI CITY,275,DAGORETTI NORTH ,1373,GATINA,021,ORANGE DEMOCRATIC MOVEMENT,ODM
WASIRA,JOSEPH SHISIA,047,NAIROBI CITY,275,DAGORETTI NORTH ,1373,GATINA,044,PARTY OF DEMOCRATIC  UNITY,PDU
ACHIENG,PETRONILA NAFULA,047,NAIROBI CITY,275,DAGORETTI NORTH ,1374,KILELESHWA,062,AMANI NATIONAL CONGRESS,ANC
CHARLES,JUNIOR TOLLO,047,NAIROBI CITY,275,DAGORETTI NORTH ,1374,KILELESHWA,IND,INDEPENDENT,IND
DENNIS,MANYURA OTERO,047,NAIROBI CITY,275,DAGORETTI NORTH ,1374,KILELESHWA,014,PARTY OF NATIONAL UNITY,PNU
ITHALII,JACKSON MWIRIGI,047,NAIROBI CITY,275,DAGORETTI NORTH ,1374,KILELESHWA,IND,INDEPENDENT,IND
MWANGANGI,JACKSON MUSYOKA,047,NAIROBI CITY,275,DAGORETTI NORTH ,1374,KILELESHWA,IND,INDEPENDENT,IND
NGUGI,GRACE WAIRIMU,047,NAIROBI CITY,275,DAGORETTI NORTH ,1374,KILELESHWA,058,REPUBLICAN LIBERTY PARTY,RLP
OCHOLA,GILLIAN NAAFA,047,NAIROBI CITY,275,DAGORETTI NORTH ,1374,KILELESHWA,085,DEMOCRATIC ACTION PARTY- KENYA,DAP-K
OKOTH,KEVIN OCHIENG ,047,NAIROBI CITY,275,DAGORETTI NORTH ,1374,KILELESHWA,068,DEMOCRATIC CONGRESS,DC
ONYANGO,ROBERT ALAI,047,NAIROBI CITY,275,DAGORETTI NORTH ,1374,KILELESHWA,021,ORANGE DEMOCRATIC MOVEMENT,ODM
WACHIYA,EVAN KULECHO,047,NAIROBI CITY,275,DAGORETTI NORTH ,1374,KILELESHWA,015,UNITED DEMOCRATIC  ALLIANCE,UDA
ALIVITSA,EMMACULATE SHINJIRI,047,NAIROBI CITY,275,DAGORETTI NORTH ,1375,KABIRO,064,UNITED DEMOCRATIC PARTY,UDP
GATHIRU,MAGDALENE NJERI ,047,NAIROBI CITY,275,DAGORETTI NORTH ,1375,KABIRO,088,TUJIBEBE WAKENYA PARTY,JIBEBE
ISAKA,DOUGLAS KISALA,047,NAIROBI CITY,275,DAGORETTI NORTH ,1375,KABIRO,003,THE LABOUR PARTY OF KENYA,LPK
KHISA,STANLEY NYONGESA,047,NAIROBI CITY,275,DAGORETTI NORTH ,1375,KABIRO,040,THE NEW DEMOCRATS,TND
MAKAWA,ANNA ROBAI,047,NAIROBI CITY,275,DAGORETTI NORTH ,1375,KABIRO,015,UNITED DEMOCRATIC  ALLIANCE,UDA
MOTURI,NICHOLAS NYANDIIBA,047,NAIROBI CITY,275,DAGORETTI NORTH ,1375,KABIRO,081,UNITED PROGRESSIVE ALLIANCE,UPA
MUNGA,CLARENCE  ,047,NAIROBI CITY,275,DAGORETTI NORTH ,1375,KABIRO,021,ORANGE DEMOCRATIC MOVEMENT,ODM
NJOROGE,JOHN MUTHIORA,047,NAIROBI CITY,275,DAGORETTI NORTH ,1375,KABIRO,IND,INDEPENDENT,IND
NYUKURI,CYPRIAN MAKHAKHA,047,NAIROBI CITY,275,DAGORETTI NORTH ,1375,KABIRO,085,DEMOCRATIC ACTION PARTY- KENYA,DAP-K
OKEMWA,DAUGLAS MAUTI,047,NAIROBI CITY,275,DAGORETTI NORTH ,1375,KABIRO,044,PARTY OF DEMOCRATIC  UNITY,PDU
