OKWIRRY,ACHIENG SUSAN ,041,SIAYA,235,GEM,1170,WEST GEM,021,ORANGE DEMOCRATIC MOVEMENT,ODM
OLUOCH,MAXWELL OTIENO,041,SIAYA,235,GEM,1170,WEST GEM,072,MOVEMENT FOR DEMOCRACY AND GROWTH,MDG
OMONDI,PATRICK ELIUD,041,SIAYA,235,GEM,1170,WEST GEM,IND,INDEPENDENT,IND
ANYANGO,SYLAS MADINGU,041,SIAYA,235,GEM,1171,CENTRAL GEM,021,ORANGE DEMOCRATIC MOVEMENT,ODM
ONGUNYA,DORA ATHIENO,041,SIAYA,235,GEM,1171,CENTRAL GEM,038,PEOPLES EMPOWERMENT PARTY,PEP
ONYANGO,FELIX OMONDI,041,SIAYA,235,GEM,1171,CENTRAL GEM,085,DEMOCRATIC ACTION PARTY- KENYA,DAP-K
ONYANGO,VICTOR OMONDI,041,SIAYA,235,GEM,1171,CENTRAL GEM,032,COMMUNIST PARTY OF KENYA,CPK
OTIENO,JOHN OTIENO,041,SIAYA,235,GEM,1171,CENTRAL GEM,072,MOVEMENT FOR DEMOCRACY AND GROWTH,MDG
MUDHUNE,CAVINE OMONDI,041,SIAYA,235,GEM,1172,YALA TOWNSHIP,032,COMMUNIST PARTY OF KENYA,CPK
OCHIDO,THOMAS ONYANGO ,041,SIAYA,235,GEM,1172,YALA TOWNSHIP,IND,INDEPENDENT,IND
ODHIAMBO,ALFRED OTIENO,041,SIAYA,235,GEM,1172,YALA TOWNSHIP,072,MOVEMENT FOR DEMOCRACY AND GROWTH,MDG
OKAL,PAUL OKINDA,041,SIAYA,235,GEM,1172,YALA TOWNSHIP,085,DEMOCRATIC ACTION PARTY- KENYA,DAP-K
ONYANGO,WILLIAM KINYANYI ,041,SIAYA,235,GEM,1172,YALA TOWNSHIP,021,ORANGE DEMOCRATIC MOVEMENT,ODM
OCHIENG,JALONE ONYANGO,041,SIAYA,235,GEM,1173,EAST GEM,085,DEMOCRATIC ACTION PARTY- KENYA,DAP-K
OCHIENG,SETH BARAKA,041,SIAYA,235,GEM,1173,EAST GEM,021,ORANGE DEMOCRATIC MOVEMENT,ODM
OCHOLA,WILLIAM ANJERA,041,SIAYA,235,GEM,1173,EAST GEM,080,USAWA KWA WOTE PARTY,USAWA
ODHIAMBO,VITALIS OTUNGA,041,SIAYA,235,GEM,1173,EAST GEM,032,COMMUNIST PARTY OF KENYA,CPK
OKETCH,PHILIP AMOLLO,041,SIAYA,235,GEM,1173,EAST GEM,041,UNITED DEMOCRATIC MOVEMENT,UDM
OLOO,LEONARD MBIDHI,041,SIAYA,235,GEM,1173,EAST GEM,IND,INDEPENDENT,IND
OPIYO,GEORGE SIAMBE,041,SIAYA,235,GEM,1173,EAST GEM,IND,INDEPENDENT,IND
OUMA,RICHARD OKECH,041,SIAYA,235,GEM,1173,EAST GEM,IND,INDEPENDENT,IND
RAMBAYA,KENNEDY ODUOR,041,SIAYA,235,GEM,1173,EAST GEM,IND,INDEPENDENT,IND
SIARA,BONFACE ONYANGO,041,SIAYA,235,GEM,1173,EAST GEM,072,MOVEMENT FOR DEMOCRACY AND GROWTH,MDG
WARINDAH,JUDITH AKOTH,041,SIAYA,235,GEM,1173,EAST GEM,IND,INDEPENDENT,IND
ADINO,JOHN OTIENO,041,SIAYA,235,GEM,1174,SOUTH GEM,069,LIBERAL DEMOCRATIC PARTY,LDP
AUDI,DAVID ONYANGO,041,SIAYA,235,GEM,1174,SOUTH GEM,041,UNITED DEMOCRATIC MOVEMENT,UDM
NYANG'UN,DAVID AKETCH,041,SIAYA,235,GEM,1174,SOUTH GEM,IND,INDEPENDENT,IND
OBIERO,BRIAN CHIENG' ANYANGO,041,SIAYA,235,GEM,1174,SOUTH GEM,IND,INDEPENDENT,IND
OKINYI,ENOCK ,041,SIAYA,235,GEM,1174,SOUTH GEM,032,COMMUNIST PARTY OF KENYA,CPK
ONDEGO,BERNARD OTIENO,041,SIAYA,235,GEM,1174,SOUTH GEM,072,MOVEMENT FOR DEMOCRACY AND GROWTH,MDG
OTIENO,KENNETH OMOLO,041,SIAYA,235,GEM,1174,SOUTH GEM,027,JUBILEE PARTY,JP
OWUOTH,CHRISTOPHER OUMA,041,SIAYA,235,GEM,1174,SOUTH GEM,IND,INDEPENDENT,IND
WANGA,MAURICE NICK OTIENO,041,SIAYA,235,GEM,1174,SOUTH GEM,021,ORANGE DEMOCRATIC MOVEMENT,ODM
ADIWA,ANTHONY JACK ONYANGO,041,SIAYA,236,BONDO,1175,WEST YIMBO,009,KENYA NATIONAL CONGRESS,KNC
