ALJOE,DOUGLAS ODANGA ,027,UASIN GISHU,142,TURBO,0713,HURUMA,021,ORANGE DEMOCRATIC MOVEMENT,ODM
BACHU,ZULFIKAR ALI OSMAN,027,UASIN GISHU,142,TURBO,0713,HURUMA,IND,INDEPENDENT,IND
CHEGE,WILSON KARIUKI,027,UASIN GISHU,142,TURBO,0713,HURUMA,040,THE NEW DEMOCRATS,TND
CHELIMO,PATRICK KIPSOWE ,027,UASIN GISHU,142,TURBO,0713,HURUMA,IND,INDEPENDENT,IND
GICHUKI,AGATHA MUKAMI,027,UASIN GISHU,142,TURBO,0713,HURUMA,IND,INDEPENDENT,IND
NGUGI,JOEL MUCHIRI,027,UASIN GISHU,142,TURBO,0713,HURUMA,082,THE SERVICE PARTY,TSP
NJONJO,CHARLES,027,UASIN GISHU,142,TURBO,0713,HURUMA,IND,INDEPENDENT,IND
NJOROGE,FRANCIS MAINA,027,UASIN GISHU,142,TURBO,0713,HURUMA,IND,INDEPENDENT,IND
NJOROGE,LUCY NG'ENDO,027,UASIN GISHU,142,TURBO,0713,HURUMA,015,UNITED DEMOCRATIC  ALLIANCE,UDA
THUO,JOHN KURIA,027,UASIN GISHU,142,TURBO,0713,HURUMA,IND,INDEPENDENT,IND
WANJOHI,PETER KIMANI,027,UASIN GISHU,142,TURBO,0713,HURUMA,027,JUBILEE PARTY,JP
CHANGWONY,CLEMENT KOSGEI,027,UASIN GISHU,143,MOIBEN,0714,TEMBELIO,IND,INDEPENDENT,IND
JEROTICH,SUSAN CHELIMO,027,UASIN GISHU,143,MOIBEN,0714,TEMBELIO,002,THE NATIONAL VISION PARTY,NVP
KAPKEA,EVANS KIPRUTO,027,UASIN GISHU,143,MOIBEN,0714,TEMBELIO,015,UNITED DEMOCRATIC  ALLIANCE,UDA
BIWOTT,FREDRICK KIPROTICH,027,UASIN GISHU,143,MOIBEN,0715,SERGOIT,033,KENYA AFRICAN NATIONAL UNION,KANU
KEITANY,DAVID BIWOTT,027,UASIN GISHU,143,MOIBEN,0715,SERGOIT,015,UNITED DEMOCRATIC  ALLIANCE,UDA
KEITANY,STEPHEN KIMAIYO ,027,UASIN GISHU,143,MOIBEN,0715,SERGOIT,IND,INDEPENDENT,IND
KOMEN,ROBERT KIPROP,027,UASIN GISHU,143,MOIBEN,0716,KARUNA MEIBEKI,IND,INDEPENDENT,IND
MUTKAA,THOMAS LIMO,027,UASIN GISHU,143,MOIBEN,0716,KARUNA MEIBEKI,IND,INDEPENDENT,IND
SEREM,JAMES KIPROTICH,027,UASIN GISHU,143,MOIBEN,0716,KARUNA MEIBEKI,015,UNITED DEMOCRATIC  ALLIANCE,UDA
BIWOTT,EDWIN KIPKOECH,027,UASIN GISHU,143,MOIBEN,0717,MOIBEN,IND,INDEPENDENT,IND
KIBET,EMMANUEL KIPKOGEI,027,UASIN GISHU,143,MOIBEN,0717,MOIBEN,IND,INDEPENDENT,IND
KOSGEI,MAXIMILLER JEPKOSGEI,027,UASIN GISHU,143,MOIBEN,0717,MOIBEN,033,KENYA AFRICAN NATIONAL UNION,KANU
TOROITICH,HILLARY KIPCHUMBA ,027,UASIN GISHU,143,MOIBEN,0717,MOIBEN,015,UNITED DEMOCRATIC  ALLIANCE,UDA
CHESIRE,ISAAC KIMUTAI,027,UASIN GISHU,143,MOIBEN,0718,KIMUMU,IND,INDEPENDENT,IND
MALEL,SARAH JELEGAT,027,UASIN GISHU,143,MOIBEN,0718,KIMUMU,015,UNITED DEMOCRATIC  ALLIANCE,UDA
ONDIEK,KEPHA'S OCHIENG  ,027,UASIN GISHU,143,MOIBEN,0718,KIMUMU,033,KENYA AFRICAN NATIONAL UNION,KANU
ORERO,OBADIAH S,027,UASIN GISHU,143,MOIBEN,0718,KIMUMU,IND,INDEPENDENT,IND
PAMBA,PETER ODHIAMBO,027,UASIN GISHU,143,MOIBEN,0718,KIMUMU,IND,INDEPENDENT,IND
KABAGURU,ANDREW,027,UASIN GISHU,144,AINABKOI,0719,KAPSOYA,027,JUBILEE PARTY,JP
KEMBOI,ISAACK KIRWA,027,UASIN GISHU,144,AINABKOI,0719,KAPSOYA,015,UNITED DEMOCRATIC  ALLIANCE,UDA
NDIWA,RODGERS KIPKORIR,027,UASIN GISHU,144,AINABKOI,0719,KAPSOYA,IND,INDEPENDENT,IND
NGETICH,JACKSON KIPRUTO ,027,UASIN GISHU,144,AINABKOI,0719,KAPSOYA,IND,INDEPENDENT,IND
ONSASE, JAMES RATEMU ,027,UASIN GISHU,144,AINABKOI,0719,KAPSOYA,033,KENYA AFRICAN NATIONAL UNION,KANU
